<?xml version="1.0" encoding="iso-8859-1"?>
<!-- Generator: Adobe Illustrator 19.0.0, SVG Export Plug-In . SVG Version: 6.00 Build 0)  -->
<svg version="1.1" id="Capa_1" xmlns="http://www.w3.org/2000/svg" xmlns:xlink="http://www.w3.org/1999/xlink" x="0px" y="0px"
	 viewBox="0 0 512.001 512.001" style="enable-background:new 0 0 512.001 512.001;" xml:space="preserve">
<g>
	<path style="fill:#0586AD;" d="M153.423,127.041c23.74-9.017,50.748-13.755,76.977-15.552c-2.792-6.075-4.401-13.22-4.401-20.868
		c0-22.09,13.432-40,30.002-40c16.568,0,30,17.91,30,40c0,7.648-1.609,14.793-4.402,20.868c26.228,1.797,53.238,6.535,76.979,15.552
		c17.714,6.73,36.564,17.387,47.65,32.972c17.2-29.682,33.071-71.912-8.986-80.64c-66.252-13.749-58.126-69.371-141.241-69.371
		c-83.116,0-74.99,55.621-141.242,69.371c-42.058,8.728-26.188,50.959-8.986,80.64C116.858,144.427,135.706,133.771,153.423,127.041
		z"/>
	<path style="fill:#F9D973;" d="M225.999,90.621c0,7.648,1.609,14.793,4.401,20.868c5.273,11.475,14.767,19.133,25.601,19.133
		c10.833,0,20.324-7.658,25.598-19.133c2.793-6.075,4.402-13.22,4.402-20.868c0-22.09-13.432-40-30-40
		C239.431,50.621,225.999,68.531,225.999,90.621z"/>
	<path style="fill:#7AEAE7;" d="M230.4,111.489c-26.23,1.797-53.237,6.535-76.977,15.552c-17.717,6.73-36.565,17.387-47.65,32.972
		C115.667,177.084,126,190.005,126,190.005c0-27.275,58.203-49.381,130.002-49.381c71.795,0,130,22.107,130,49.381
		c0,0,10.334-12.921,20.227-29.992c-11.086-15.585-29.936-26.241-47.65-32.972c-23.741-9.017-50.751-13.755-76.979-15.552
		c-5.273,11.475-14.765,19.133-25.598,19.133C245.167,130.622,235.674,122.964,230.4,111.489z"/>
	<path style="fill:#0586AD;" d="M256.001,140.623c-71.799,0-130.002,22.107-130.002,49.381h10h120.002h119.998h10.002
		C386.001,162.73,327.796,140.623,256.001,140.623z"/>
	<g>
		<path style="fill:#FCD0AC;" d="M135.999,249.996v-59.992h-10c-16.568,0-30,13.432-30,29.999c0,16.569,13.432,30.001,30,30.001
			L135.999,249.996z"/>
		<path style="fill:#FCD0AC;" d="M375.999,190.005v60h10c16.567,0,29.999-13.432,29.999-30.001
			c0-16.567-13.432-29.999-29.999-29.999L375.999,190.005L375.999,190.005z"/>
	</g>
	<g>
		<path style="fill:#0586AD;" d="M116,501.996V359.52c-36.981,36.342-60.002,86.848-60.002,142.477H116z"/>
		<path style="fill:#0586AD;" d="M116,359.52v142.477l109.578-0.003l-69.999-52.239l26.249-28.127l-19.112-96.36
			c-0.004-0.003-0.008-0.009-0.004-0.017C145.515,334.393,129.786,345.971,116,359.52z"/>
		<path style="fill:#0586AD;" d="M162.716,325.267l19.112,96.36l-26.249,28.127l69.999,52.239h30.423l-26.203-72.06l-26.2-72.059
			C187.702,350.096,173.751,338.902,162.716,325.267z"/>
	</g>
	<g>
		<path style="fill:#BDBCBC;" d="M256.001,369.996L256.001,369.996L256.001,369.996z M203.598,357.876l26.2,72.059l26.198-59.938
			C237.24,369.996,219.452,365.634,203.598,357.876z"/>
		<path style="fill:#BDBCBC;" d="M255.996,369.996l26.202,59.938l26.203-72.061C292.546,365.634,274.757,369.996,255.996,369.996z"
			/>
	</g>
	<polygon style="fill:#7AEAE7;" points="282.198,429.934 255.996,369.996 229.798,429.934 255.999,501.993 	"/>
	<g>
		<path style="fill:#0586AD;" d="M308.401,357.876l-26.203,72.059l-26.197,72.06h30.42l69.998-52.239l-26.248-28.127l19.111-96.36
			C338.245,338.902,324.295,350.096,308.401,357.876z"/>
		<path style="fill:#0586AD;" d="M349.282,325.267l-19.111,96.36l26.248,28.127l-69.998,52.239l109.58,0.003V359.52
			c-13.788-13.548-29.517-25.126-46.715-34.27L349.282,325.267z"/>
		<path style="fill:#0586AD;" d="M396.001,359.52v142.477h60C456.001,446.367,432.982,395.865,396.001,359.52z"/>
	</g>
	<path style="fill:#FCD0AC;" d="M375.997,249.996c0,66.274-53.725,119.999-119.998,119.999c-66.275,0-120-53.726-120-119.999
		v-59.992h16.055h207.89H376v59.992L375.997,249.996L375.997,249.996z"/>
</g>
<g>
	<path style="fill:#000001;" d="M473.033,491.993h-7.276c-3.325-69.962-41.385-133.482-101.674-169.843
		c12.089-18.05,19.785-39.278,21.535-62.146h0.381c22.056,0,39.999-17.944,39.999-40.001c0-15.971-9.412-29.78-22.978-36.186
		c14.379-20.663,38.635-61.443,28.595-89.316c-3.233-8.978-11.47-20.588-32.341-24.92c-26.43-5.485-39.633-18.231-53.613-31.725
		c-19.279-18.61-39.215-37.854-89.66-37.854c-50.446,0-70.383,19.244-89.662,37.854c-13.979,13.495-27.184,26.24-53.612,31.725
		c-20.871,4.332-29.106,15.942-32.341,24.92c-10.041,27.873,14.214,68.652,28.594,89.315C95.413,190.222,86,204.032,86,220.004
		c0,22.057,17.943,40.001,40,40.001h0.382c1.749,22.868,9.445,44.097,21.535,62.147c-60.29,36.361-98.349,99.881-101.675,169.843
		h-7.273c-5.524,0-10,4.478-10,10c0,5.523,4.476,10,10,10H55.95c0.016,0,0.031,0.003,0.048,0.003c0.017,0,0.032-0.003,0.048-0.003
		h59.906c0.016,0,0.031,0.003,0.048,0.003s0.032-0.003,0.048-0.003h109.51c0.004,0,0.008,0.001,0.013,0.001
		c0.003,0,0.006-0.001,0.009-0.001h30.346c0.014,0,0.027,0.001,0.041,0.001c0.011,0,0.021,0.002,0.031,0.002
		c0.001,0,0.002,0,0.002,0c0.001,0,0.002,0,0.002,0c0.012,0,0.021-0.002,0.033-0.002c0.013,0,0.025-0.001,0.039-0.001h30.346
		c0.004,0,0.006,0.001,0.01,0.001s0.008-0.001,0.012-0.001h109.512c0.017,0,0.033,0.003,0.049,0.003
		c0.016,0,0.032-0.003,0.049-0.003h59.902c0.016,0,0.032,0.003,0.049,0.003c0.016,0,0.031-0.003,0.048-0.003h16.984
		c5.523,0,10-4.477,10-10C483.033,496.471,478.556,491.993,473.033,491.993z M270.274,491.993l46.152-126.925
		c5.905-3.114,11.546-6.665,16.873-10.618l-12.938,65.231c-0.626,3.155,0.304,6.418,2.498,8.769l18.634,19.967L283.1,491.995
		h-12.826V491.993z M228.897,491.993l-58.392-43.577l18.634-19.967c2.193-2.351,3.123-5.614,2.498-8.769l-12.939-65.231
		c5.328,3.953,10.969,7.504,16.875,10.618l46.15,126.925L228.897,491.993L228.897,491.993z M126,363.682
		c9.015-8.456,18.915-16.103,29.618-22.794l15.404,77.66l-22.754,24.382c-1.939,2.078-2.903,4.884-2.649,7.716
		c0.254,2.831,1.7,5.421,3.979,7.121l45.86,34.226H126V363.682z M271.435,430.277l-15.436,42.451l-15.436-42.454l15.434-35.311
		L271.435,430.277z M281.347,403.018l-10.441-23.883c7.053-0.809,13.938-2.175,20.605-4.07L281.347,403.018z M230.651,403.014
		l-10.162-27.948c6.664,1.895,13.548,3.26,20.599,4.069L230.651,403.014z M362.4,457.768c2.278-1.7,3.726-4.29,3.979-7.121
		c0.254-2.832-0.71-5.638-2.649-7.716l-22.755-24.382l15.404-77.66c10.704,6.691,20.605,14.34,29.621,22.796v128.309h-69.46
		L362.4,457.768z M406.001,385.6c23.525,30.205,37.672,67.163,39.735,106.394h-39.735L406.001,385.6L406.001,385.6z
		 M351.476,145.738c-20.069-7.623-45.192-12.552-72.362-14.345c3.011-2.674,5.714-5.85,8.028-9.437
		c25.387,2.211,48.748,7.165,67.885,14.433c12.235,4.649,28.267,12.525,39.092,24.52c-1.866,3.04-3.773,6.002-5.682,8.832
		C381.102,160.44,368.579,152.234,351.476,145.738z M256.001,120.622c-10.842,0-20.002-13.739-20.002-30.001s9.16-30,20.002-30
		c10.842,0,20.002,13.738,20.002,30C276.003,106.883,266.843,120.622,256.001,120.622z M232.889,131.392
		c-27.171,1.793-52.295,6.722-72.364,14.345c-17.108,6.499-29.635,14.708-36.967,24.013c-1.91-2.829-3.818-5.79-5.687-8.829
		c10.825-12.003,26.863-19.883,39.102-24.532c19.139-7.268,42.501-12.223,67.888-14.434
		C227.176,125.543,229.879,128.719,232.889,131.392z M140.946,180.005c13.676-14.42,55.004-29.381,115.055-29.381
		c60.049,0,101.378,14.962,115.055,29.381H140.946z M385.999,240.005v-40c0.001,0,0.002,0,0.002,0
		c11.027,0.001,19.997,8.973,19.997,19.999C405.998,231.032,397.026,240.005,385.999,240.005z M99.202,101.279
		c0.814-2.263,3.295-9.149,17.589-12.115c32.093-6.661,48.745-22.735,63.438-36.918c17.924-17.301,33.403-32.244,75.772-32.244
		c42.367,0,57.847,14.942,75.769,32.244c14.693,14.183,31.347,30.258,63.44,36.918c14.289,2.965,16.771,9.847,17.586,12.109
		c3.607,9.999-0.988,25.627-8.623,41.392c-12.961-12.153-29.294-20.128-42.045-24.973c-19.608-7.447-42.202-12.506-67.293-15.097
		c0.759-3.839,1.168-7.848,1.168-11.975c0-27.57-17.945-50-40.002-50s-40.002,22.43-40.002,50c0,4.127,0.41,8.135,1.168,11.974
		c-25.09,2.59-47.685,7.649-67.296,15.098c-12.754,4.845-29.095,12.825-42.059,24.987C100.181,126.924,95.592,111.3,99.202,101.279z
		 M105.999,220.004c0-11.027,8.971-19.998,19.999-19.999c0.001,0,0.001,0,0.001,0v40
		C114.971,240.005,105.999,231.032,105.999,220.004z M145.999,200.005h220v49.992c0,25.659-8.832,49.292-23.613,68.023
		c-0.142,0.135-0.276,0.278-0.41,0.423c-0.133,0.141-0.268,0.279-0.393,0.429c-0.012,0.015-0.022,0.031-0.034,0.046
		c-0.2,0.244-0.39,0.498-0.567,0.762c0,0,0,0,0,0.001c-0.07,0.103-0.131,0.215-0.196,0.322
		c-9.813,11.863-22.065,21.634-35.976,28.552c-0.557,0.214-1.094,0.475-1.604,0.784c-14.314,6.829-30.322,10.658-47.21,10.658
		c-16.88,0-32.882-3.826-47.19-10.651c-0.523-0.318-1.072-0.586-1.644-0.804c-13.901-6.917-26.144-16.684-35.95-28.54
		c-0.045-0.073-0.087-0.148-0.134-0.22c-0.023-0.036-0.044-0.075-0.067-0.111c-0.128-0.189-0.268-0.368-0.408-0.547
		c-0.307-0.397-0.637-0.767-0.992-1.105C154.831,299.286,146,275.654,146,249.997L145.999,200.005L145.999,200.005z M106,385.596
		v106.397H66.263C68.325,452.76,82.474,415.803,106,385.596z"/>
	<path style="fill:#000001;" d="M502.001,491.993h-0.236c-5.523,0-10,4.478-10,10c0,5.523,4.477,10,10,10h0.236
		c5.523,0,10-4.477,10-10C512.001,496.471,507.524,491.993,502.001,491.993z"/>
	<path style="fill:#000001;" d="M10.233,491.993H10c-5.523,0-10,4.478-10,10c0,5.523,4.477,10,10,10h0.233c5.523,0,10-4.477,10-10
		C20.233,496.471,15.757,491.993,10.233,491.993z"/>
	<path style="fill:#000001;" d="M191.001,244.017c4.551-2.629,9.736-4.019,14.997-4.019s10.446,1.39,14.997,4.019
		c1.576,0.91,3.295,1.342,4.993,1.342c3.454,0,6.815-1.792,8.669-4.999c2.762-4.782,1.125-10.898-3.658-13.661
		c-7.588-4.383-16.232-6.7-25.001-6.7c-8.769,0-17.413,2.317-25.001,6.7c-4.782,2.763-6.42,8.879-3.657,13.661
		C180.102,245.142,186.22,246.779,191.001,244.017z"/>
	<path style="fill:#000001;" d="M291,244.018c4.553-2.629,9.74-4.019,15.001-4.019c5.258,0,10.445,1.39,14.998,4.019
		c1.574,0.91,3.295,1.342,4.991,1.342c3.456,0,6.817-1.793,8.669-5c2.762-4.783,1.124-10.899-3.658-13.661
		c-7.59-4.383-16.234-6.7-25-6.7c-8.768,0-17.413,2.317-25.003,6.7c-4.782,2.762-6.421,8.878-3.659,13.661
		C280.102,245.142,286.217,246.782,291,244.018z"/>
	<path style="fill:#000001;" d="M227.339,298.664c-2.762,4.783-1.123,10.899,3.659,13.661c7.589,4.382,16.233,6.699,25.001,6.699
		c8.768,0,17.412-2.316,25.002-6.699c4.782-2.762,6.42-8.878,3.658-13.661c-2.762-4.782-8.877-6.42-13.66-3.659
		c-4.553,2.629-9.739,4.018-15,4.018c-5.261,0-10.447-1.39-14.999-4.018C236.216,292.242,230.101,293.88,227.339,298.664z"/>
</g>
<g>
</g>
<g>
</g>
<g>
</g>
<g>
</g>
<g>
</g>
<g>
</g>
<g>
</g>
<g>
</g>
<g>
</g>
<g>
</g>
<g>
</g>
<g>
</g>
<g>
</g>
<g>
</g>
<g>
</g>
</svg>
