<?xml version="1.0" encoding="utf-8"?>
<!-- Generator: Adobe Illustrator 24.1.0, SVG Export Plug-In . SVG Version: 6.00 Build 0)  -->
<svg version="1.1" id="Layer_1" xmlns="http://www.w3.org/2000/svg" xmlns:xlink="http://www.w3.org/1999/xlink" x="0px" y="0px"
	 viewBox="0 0 387.5 578.6" style="enable-background:new 0 0 387.5 578.6;" xml:space="preserve">
<style type="text/css">
	.st0{fill:#FFDBAC;}
	.st1{fill:#578C56;}
	.st2{fill:#FFFFFF;}
</style>
<g id="Layer_1_1_">
	<g id="body_Striped_Tee">
		<path id="_Background" class="st0" d="M377.9,515.6c1.6,14.4,5.1,30.2-1.6,43.7c4.3,0.2,0.8,1.4-1.5,1.8c-1.4,1-3.1,1.5-4.7,1.3
			c-8.6,1.8-6.5,3.5-15.3,4.5c-109.2,9.1-219.3-0.1-328.7-4c-3.6-0.2-6.7-5.5-7-9c-4-51.2-2.1-93.5-2-145
			c1.8-18.1-14.8-10.5-7.6-34.3c5.9-25.1,14.5-49.5,25.6-72.8c7.6-15.1,14.4-27.3,26-39.8c3.7-0.5,7.3-8,10.4-10
			c3.1-0.6,5.4-2.2,8.6-3c6.1-1.6,6,20,24.9-2l0.6-0.2c1,1.1,2.4,0.3,3.2-0.7c2.6-2,13.9-2.2,15.2-5.3c6.7-6.1,8.5-18.9,8.5-26.3
			c2.5-2.8,2.7-2.3,6.1-3.8c3.3-4.2,7.3-7.8,11.8-10.7c25.3-16.6,61.9,0.9,67.9,29.7c9.4,7.4,19,14.9,30.4,18.8
			c5.6-2.9,16.5,5.5,22.4,5.5c4.4-0.2,6-12,8.9-7.4c48.4,15.8,77.5,61.9,98.3,105.5c2.9,6.2,6.4,12.7,5.5,19.8
			c-0.6,8.5-20.8,12.5-19.1,21.5c2.5,24.7,5.4,49.4,8,74.1C374.4,483.5,376.2,499.5,377.9,515.6z"/>
		<path class="st1" d="M381.7,378.1L309.1,416l8.2,154.3h-2.1c-35.8,0-71.5,2.2-107.1,6.7c-27.3,3.3-76.1,2.6-170-14l10-152l-31-10
			l-12-3l15-57l21-54l20-25l13-9l7-4l8,4l3,10l10,14l5,5l6,5l4,3l3,3l5,4l5,2l32,9l26,1l24-8l17-4l29-21l13-24l7.1-6.5l29.9,10.5
			l34,31l20,30l14.6,32.8l6.9,19.5L381.7,378.1z"/>
		<path id="_Ink" d="M362.4,393.7c0,6.2,0.4,12.3,1.2,18.4v0.1c0.2,1.9,0.4,3.9,0.6,5.9c0.7,7.2,1.4,14.5,2.1,21.5l0,0
			c1.6,15.7,3.2,31.8,4.5,47.8c0.9,12.3,1.6,23.8,1.9,35c0.1,5.3,0.2,10.9,0.2,17.5c0,0.5,0,1.1,0,1.7l0,0c0,2.5,0,5.1,0,7.6
			c0,0.5,0,0.9,0,1.3c-0.1,1.7,0,3.3,0.2,5c0.1,0.5,0.2,1.1,0.4,1.6c0.1,0.4,0.3,0.8,0.5,1.1l0-0.1v-0.1c1.2,1.7,3.1,2.8,5.2,2.8
			c0.8,0,1.6-0.2,2.3-0.6c0.8-0.5,1.5-1.2,2-2.1c1.5-2.6,1.5-5.8,1.4-8.9c0-0.7,0-1.4,0-2.1c0.1-3.8,0.1-6.9,0-9.8
			c-0.1-6.3-0.3-13-0.6-19.6c-0.5-11.4-1.3-22.9-2.5-35.3c-1.1-11.2-2.4-22.7-4.1-35.2c-1.6-11.7-3.4-23.5-5.5-35
			c-2-10.9-1-11.6-3.9-21.9l0.2-0.1l0,0l0.3-0.2c1.5-0.9,12.9-7,14.2-8.3c1.3-1.2,2.3-2.7,3.1-4.3c0.9-2,1.4-4.2,1.2-6.5
			c-0.1-2.2-0.6-4.4-1.3-6.5c-2.4-7.5-5.4-15.4-9.4-24.9c-3.7-8.9-7.4-16.6-11.2-23.8c-4.1-7.7-8.8-15.2-13.9-22.3
			c-4.7-6.4-9.9-12.4-15.6-18c-5.6-5.5-11.8-10.6-18.4-14.9c-6.5-4.3-13.5-7.9-20.8-10.7c-3.7-1.4-7.5-2.6-11.3-3.5
			c-3.9-0.9-7.9-1.6-11.8-2l0,0c-0.1,0-0.1,0-0.1,0.1c0,0.1,0,0.2,0.1,0.2c8.1,2.3,16,5.5,23.5,9.5c7.5,4,14.6,8.6,21.2,13.9
			c4,3.2,7.9,6.5,11.5,10.1h-0.1h-0.2c-1.1-0.2-2.2-0.3-3.3-0.4l0,0l-1.1-0.1c-2.3-0.2-4.7-0.4-7-0.5l0,0l-1.9-0.1l-2-0.1
			c-5-0.3-10.1-0.5-15.2-0.7l-4.3-0.2c-7.3-0.3-14.8-0.6-22.1-0.6c-3.2,0-6.2,0.1-9.1,0.2c-0.5,0-1,0.1-1.5,0.3c1.5-2,2.8-4.2,4-6.4
			c1.5-2.7,2.8-5.5,3.9-8.4c1.1-2.9,1.8-5.9,2-9c0.5-0.2,0.8-0.7,0.8-1.1c0-0.5-0.3-0.9-0.7-1.1V250c0-0.1,0-0.1,0-0.2
			c0-0.1-0.1-0.2-0.2-0.2c0,0,0,0,0,0l0,0c-0.1,0-0.2,0-0.2,0.1l-0.1,0.1c0,0-0.1,0.1-0.1,0.1l-1.4-0.1c-6.1-0.7-11.9-1.3-17.8-3.1
			c-3-0.9-5.9-2.1-8.7-3.5c-2.8-1.4-5.4-3.1-8-4.9c-5-3.5-9.3-7.8-12.9-12.7c-1.9-2.7-3.6-5.5-5-8.5c-0.6-1.3-1.1-2.6-1.6-3.9
			c-0.1-0.2-0.1-0.4-0.2-0.5c-0.2-0.7-0.5-1.4-0.8-2c-0.6-0.9-1.5-1.6-2.5-2l-0.3-0.1c-0.6-0.3-1.2-0.5-1.9-0.5
			c-0.6,0-1.3,0.1-1.9,0.5c-0.6,0.3-1.1,0.8-1.4,1.4c0.1-0.1,0.2-0.1,0.3-0.2l0,0c-0.2,0.4-0.5,0.7-0.8,1c-0.4,0.7-0.7,1.6-0.7,2.4
			c0.1,1.2,0.4,2.3,0.9,3.4c0.8,1.9,1.5,3.6,2.3,5.1c1.6,3.2,3.6,6.3,5.8,9.1c7.6,9.8,18,17.2,29.8,21c2.5,0.8,5.1,1.4,7.7,1.9
			c2.6,0.5,5.2,0.7,7.8,0.7c3.1,0,6.1-0.4,9-1.2c-0.9,1.4-1.9,2.9-2.8,4.3c-2.3,3.8-4.8,7.4-7.5,10.9c-2.4,2.9-4.9,5.7-7.6,8.4
			c-2.7,2.6-5.5,5.1-8.5,7.4c-5.9,4.5-12.3,8.3-19.1,11.2c-6.8,2.9-13.9,5.2-21.1,6.8c-9.8,2.2-19.9,3.3-29.9,3.3
			c-5.4,0-10.8-0.3-16.2-1c-7.1-0.9-14-2.7-20.6-5.3c-6.6-2.6-12.8-6.3-18.2-10.9c-4.8-4.1-9.1-8.9-12.6-14.1
			c-3.5-5.3-6.3-11-8.4-16.9c5.1-0.8,10.2-2.1,15-3.9c4.8-1.9,9.2-4.8,12.8-8.5c1.9-2,3.5-4.2,4.7-6.6c1.2-2.4,2.2-5,2.8-7.6
			c1.3-5.3,1.5-10.9,0.7-16.3c0-0.1-0.1-0.2-0.2-0.2c-0.2,0-0.3,0.1-0.3,0.3c0,2.6-0.3,5.2-1,7.8c-0.7,2.5-1.8,4.9-3.3,7.1
			c-2.6,3.8-5.8,7.3-9.4,10.3c-4.1,3.2-8.8,5.5-13.9,6.7c-5,1.3-10.2,2.2-15.3,2.7c-1.2,0.1-2.4,0.6-3.3,1.4c-0.9,0.8-1.4,2-1.4,3.3
			c0,1.3,0.6,2.5,1.4,3.4c0,0.6,0.1,1.3,0.3,1.9c2.1,6.7,5.2,13.1,9.1,19c-1.8-0.3-3.7-0.4-5.5-0.6l-1.8-0.1
			c-3.3-0.3-6.8-0.5-10.1-0.6l-1.8-0.1c-3-0.1-6-0.2-8.9-0.2l0,0l-3.4,0h-0.6h-1.5c-1.4-0.1-2.9,0.2-4.2,0.6
			c-1.8,0.7-2.6,2.7-1.9,4.5c0.2,0.6,0.6,1.1,1.2,1.5c0.2,0.2,0.5,0.3,0.7,0.4c1.3,0.5,2.8,0.7,4.2,0.6c0.5,0,1.1,0,1.5,0l0,0h0.6
			l3.5-0.1c2.9,0,5.9-0.1,8.9-0.3l2.1-0.1c3.4-0.2,6.8-0.4,10.2-0.7l1.5-0.1l0,0c2.6-0.2,5.2-0.5,7.8-1.1c5,6.6,11,12.5,17.8,17.3
			c0.6,0.4,1.3,0.9,1.9,1.3c-19-1.9-38.5-2-57.4-2.2l0,0c-5.5,0-11.2-0.1-16.9-0.2h0c-0.9,0-1.8,0.4-2.4,1.1
			c1.8-3.8,3.5-7.1,5.3-10.3c5.3-9.6,11.8-18.4,19.5-26.2c3.8-3.9,8.1-7.4,12.6-10.4c4.6-3,9.5-5.4,14.6-7.1c0.1,0,0.2-0.2,0.2-0.3
			c0-0.1-0.1-0.3-0.3-0.2h-0.1c-5.9,1.2-11.7,3.2-17.1,5.9c-2.7,1.3-5.3,2.8-7.8,4.4c-2.6,1.7-5,3.4-7.4,5.4c-2.3,1.9-4.5,3.9-6.6,6
			c-2,2.1-4,4.3-5.9,6.6c-3.7,4.6-7.1,9.6-10,14.8c-3,5.2-5.6,10.5-8,16c-2.1,4.9-4.3,10.3-6.5,16.5c-10.2,28.1-17.8,53.3-23,77
			c-0.4,1.6,0,3.3,1,4.6c1,1.2,2.4,2,4,2c3.6,0.1,7.2,0.4,10.7,0.9c-0.5,3.4-0.8,6.8-1,10.2l0,0c-0.1,1.3-0.2,2.6-0.3,3.8
			c-0.5,6.2-1.1,12.4-1.5,18.6c-0.7,10.8-1.1,22-1.2,34.2c-0.1,10.4-0.1,21.6,0.2,34.2c0.2,11.4,0.6,22.9,1.1,34.2
			c0.3,5.7,0.6,11.4,0.9,17.1c0.1,1.2,0.1,2.4,0.1,3.7c0,2.3,0.1,4.6,0.4,6.8c0.2,2.2,0.9,4.3,1.9,6.2c0.5,1.1,1.6,1.7,2.8,1.8l0,0
			c1.6-0.1,3-1.1,3.5-2.7l0.1,0l0,0c1-2.6,0.8-5.5,0.5-8.3c0-0.5-0.1-1-0.1-1.4c-0.2-3.2-0.5-6.5-0.7-9.8
			c-0.4-6.2-0.8-12.4-1.1-18.6c-1.1-20.7-1.9-42.9-2.3-67.9c-0.1-4.5-0.2-9.1-0.2-13.5c-0.1-6.6-0.2-13.4-0.4-20.1
			c0-2-0.1-3.9-0.2-5.8v-0.1c-0.1-3.6-0.2-7.4-0.3-11.1c0-1.2,0-2.3,0-3.5l0,0c0-2.5,0-5.1-0.2-7.7c1.9,0.3,3.7,0.7,5.5,1.1
			c3,0.8,6.1,1.6,9,2.7c0.9,0.3,1.7,0.7,2.7,1.1l0,0c2.1,0.9,4.3,1.9,6.5,1.9l0,0c0.9,0,1.7-0.2,2.5-0.7
			c-2.1,21.1-3.6,42.6-5.1,63.4l0,0c-0.2,2.7-0.4,5.4-0.6,8.2c-0.5,7.2-1.1,14.5-1.6,21.6c-1.4,18.5-2.8,37.5-3.6,56.3
			c0,1.4,0.6,2.7,1.5,3.7c1,1,2.3,1.6,3.8,1.6c1.4,0,2.7-0.6,3.7-1.6c0.9-1,1.5-2.3,1.6-3.7c0.1-1.6,0.3-3.1,0.4-4.5
			c3.3,2,7.4,2,11.2,2c1,0,2,0,2.9,0l15.1,0.5c9.7,0.3,19.5,0.7,29.2,1c31.1,1,68,2,105.2,2.6h2.7c16.3,0.3,33.2,0.5,49.9,0.5l0,0
			c9.8,0,18.5-0.1,26.6-0.3c4.5-0.1,8.9-0.4,13-0.8c2.2-0.2,4.4-0.5,6.6-0.9l0,0c1.3-0.2,2.7-0.4,4-0.6c0,0.3,0,0.7,0,1
			c0.1,0.3,0,0.9,0.1,1.4c0,0.3,0,0.6,0,0.8v0.1c0.1,3.2,0.3,6.9,2.4,9.5c0.9,1.3,2.4,2.1,4,2.1c0.9,0,1.8-0.3,2.5-0.8
			c1.5-1.1,2.6-2.7,2.9-4.5c0.4-1.8,0.6-3.7,0.5-5.6c-0.1-2.1-0.2-4.3-0.3-6.4l0,0c-0.1-1-0.1-2-0.2-3c-0.3-6.5-0.7-12.9-1-19.3
			c-1.4-27.5-3.2-55.2-4.8-78.9c-0.1-2-0.3-4-0.4-6.1c-0.7-10.4-1.4-21.2-2-31.8c-0.3-6.3-0.4-11.1-0.4-15.5c4.4,0,8.4-0.1,12.3-0.3
			c-3.2,1.5-11.2,5-13.5,7.4c-0.9,1.1-1.1,2.6-0.5,3.9c0.4,1.1,1.4,1.7,2.5,1.8h0.4c4.4-0.5,13.5-4.7,17.4-6.8
			c1.1-0.6,2.1-1.1,3.2-1.7c5.5-2.8,10.2-5.1,14.9-7.5l7.7-3.9l1.3-0.6 M309.1,527.1c0.2,5,0.5,10.3,0.7,15.5c0.1,2,0.2,4.1,0.3,6
			v0.1c0.2,3.4,0.3,6.8,0.5,10.3c-1.6-0.2-3.3-0.5-4.8-0.8c-2.5-0.4-5.2-0.9-7.8-1.2c-4.5-0.5-9.1-0.8-13.6-1l-1.5-0.1
			c-7.7-0.4-15.5-0.7-23-0.9h-0.2l-5.9-0.2c-20.2-0.7-40.8-1.2-60.7-1.7h0c-14.6-0.4-29.6-0.7-44.5-1.2c-17.5-0.5-35.1-1.1-52.6-1.7
			c-8.8-0.3-17.8-0.6-26.6-1l-13-0.5l-2.3-0.1c-1.5-0.1-3-0.2-4.5-0.2h-0.1c-1.7,0-3.3,0.4-4.7,1.2c0.6-8.2,1.1-16.5,1.5-24.5v-0.2
			c0.2-2.8,0.3-5.6,0.5-8.4l0.7-12.2l0,0l0,0c0.7-12,1.5-24.5,2.1-36.7c1.1,0.4,2.3,0.4,3.4,0.1c12.9,0.6,25.8,0.6,38.9,0.6h7.5
			c2.4,0,5.5,0,8.7,0h15.6c31.9,0,60-0.4,85.7-1.2c19-0.6,35.8-1.3,51.2-2.1c7.5-0.4,16.3-1,25-1.9h0.4c4.2-0.4,8.6-0.9,12.9-1.5
			l1.4-0.2c2-0.3,4.1-0.6,6.1-1c0,1.1,0.1,2.4,0.1,3.7c0.3,9.7,0.7,19.9,1.2,31.3l-20.2-0.5c-10.4-0.3-21.2-0.6-31.9-0.8
			c-28.9-0.7-58.3-1.2-86.7-1.6h-1.4l-13.1-0.2c-17-0.3-34.2-0.7-51.1-1.1c-8.3-0.2-16.7-0.5-25-0.7l-7.8-0.2h-0.3l-5.5-0.2
			l-1.7-0.1h0l-4.5-0.1H58c-0.2-0.7-0.7-1.4-1.3-1.8c-0.7-0.4-1.5-0.6-2.3-0.6c-0.6,0-1.3,0.1-1.8,0.3c-1.7,0.5-2.9,2.1-3,3.8
			c-0.1,1,0.2,2.1,0.7,3c0.5,1,1.3,1.8,2.3,2.3c1.9,0.8,3.9,1.2,6,1.1l6.1,0.2h0.3l2,0.1c5.6,0.2,11.2,0.3,16.1,0.5l0,0
			c41.6,1.1,76.4,1.6,109.5,1.6h5.3c32.5-0.1,67.5-1.2,110.1-3.5c0.4,10.4,0.8,19.8,1.2,28.8c-17.6-1.3-34.9-2-55.5-2.7
			c-6.9-0.2-13.9-0.5-20.7-0.7l0,0c-10.3-0.4-21-0.8-31.5-1c-13.3-0.3-26.7-0.5-39.8-0.7l-11.3-0.2c-17.7-0.3-35.5-0.5-52.1-0.7
			L75,519.4h-2.9l-8.1-0.1l-5.5-0.1c-0.7,0-1.4,0-2.1-0.1c-0.8,0-1.7-0.1-2.6-0.1c-0.6,0-1.1,0-1.6,0c-1.9,0.2-3.7,1.1-5,2.5
			c-0.5,0.5-0.8,1.1-0.8,1.8c0,0.7,0.3,1.4,0.8,1.9c1.6,1.6,3.7,2.6,6,2.6c1.5,0.1,2.9,0.1,4.3,0.1h3l14.6,0.2l9.8,0.1l19.4,0.2
			l15,0.2h0.4c26.4,0.3,53.6,0.5,80.5,0.5h7.5c10.3,0,20.7-0.2,30.8-0.3c7-0.1,14.2-0.2,21.4-0.3c19.3-0.2,34.9-0.6,49.3-1.3l0,0
			L309.1,527.1z M282.5,456.2c-9.5,0-19,0.2-28.2,0.4l-21,0.4c-26.3,0.5-53.5,1.1-80.3,1.3c-7.5,0-15.1,0.1-22.6,0.1
			c-9.5,0-19.1,0-28.6-0.1c-7,0-14.1-0.2-21-0.4c-8.7-0.2-17.6-0.4-26.5-0.4h-3.8h-0.5c0.4-6.9,0.7-13,1-18.7
			c0.7-14.1,1.2-26.8,1.4-39l0-2.2v-0.9c7.4,0.3,15,0.8,22.3,1.2l0,0c4,0.2,8.2,0.5,12.3,0.7c15.8,0.9,31.9,1.1,47.4,1.3
			c5.5,0.1,11.2,0.2,16.8,0.3l64.2,1.3h0.8c21,0.4,42.6,0.9,64,1.1l8.5,0.1h0.1c6,0.1,12.1,0.2,18.2,0.2c-1,6.1-1.5,12.3-1.7,18.5
			c0,1.5-0.1,3.1-0.1,4.9c-11.1-0.5-22.8-0.8-34.7-0.8c-6.5,0-13.2,0.1-19.9,0.2c-31.8,0.8-65.7,1.5-98.9,1.8
			c-13,0.1-26.2,0.2-39.2,0.2h-9.8c-8.3,0-16.7-0.1-25-0.1l-12.5-0.1c-0.6,0-1.2,0-1.8,0l0,0c-0.7,0-1.4,0-2.1,0
			c-1.3,0-2.6,0.1-3.8,0.4c-1.3,0.4-2.5,1.1-3.5,2c-0.4,0.4-0.7,1-0.7,1.7c0,0.7,0.2,1.3,0.7,1.8c0.7,0.8,1.7,1.5,2.7,1.9
			c1,0.4,2.1,0.6,3.2,0.6c1.5,0.1,3,0.1,4.5,0.1h2.8l13.5,0.1c7.4,0,15,0.1,22.4,0.1h5.7c33,0,66.2-0.6,98.9-1.5
			c15.5-0.5,32.2-1,48.8-2.1c18-1.2,33.8-2.8,48.5-5.1c0,9.5,0.4,19.1,0.7,28.5v1.1c-2.3-0.3-4.6-0.4-6.9-0.4l0,0l-2.3-0.1
			c-4.9-0.2-9.9-0.2-14.6-0.2L282.5,456.2z M26.1,396c3.7,0.1,7.4,0.2,11,0.2l0,0c2.8,0,5.7,0.1,8.6,0.2c-0.3,2.9-0.6,5.1-0.8,7.1
			c-1.8-2.1-5.1-3.2-8-4.2c-0.6-0.2-1.2-0.4-1.7-0.6C32.2,397.7,29.2,396.8,26.1,396z M379.6,367.5L379.6,367.5
			c0,0.1,0.1,0.2,0.1,0.4l0,0c0,0.2,0.1,0.3,0.1,0.5c1,4,0.1,6.8-2.9,9.1c-2.4,1.7-4.9,3.1-7.6,4.3c-0.7,0.3-1.4,0.6-2,1l-8.5,4.1
			l-0.2,0.1l-16.1,7.9l-6.2,3.1c-6.7-0.8-13.9-1.3-21.9-1.7c0.1-2.3,0.3-4.4,0.5-6.3c0.2-1.3,0.2-2.6,0.2-3.9c0-1.3-0.2-2.6-0.6-3.9
			c0-0.1-0.1-0.1-0.2-0.1c-0.1,0-0.1,0-0.1,0c-2.3,2-3.2,4.9-4.1,8.2c-0.5,1.8-0.9,3.7-1.4,5.7c-7.7-0.3-15.5-0.5-23-0.7h-0.1
			c-4-0.1-8.1-0.2-12.2-0.3c-30.8-0.9-62-1.6-92.3-2.2h-0.2c-12.1-0.3-24.7-0.5-37.1-0.8l-8.2-0.2h-0.1c-15.2-0.4-31-0.7-46.5-0.7
			c-3.4,0-6.8,0-10,0l-9.2,0.1c-5.6,0.1-11.3,0.2-17,0.2c0.1-4.3,0.1-7.6,0-10.6c0-1.2,0-2.5,0-3.7c0-2.8,0-5.7-0.3-8.5l50-1.4
			c39.3-1.1,81.6-2.1,124.4-2.1c4.9,0,9.7,0,14.5,0c24.7,0.1,49.1,0.7,69.6,1.1c7,0.2,14,0.4,20.9,0.6l0,0c15,0.5,30.5,0.9,45.8,0.9
			L379.6,367.5z M19.5,390.7L19.5,390.7c-1.9,0-3.6,0-5.3,0.1c-0.7,0-1.4,0.3-1.8,0.9c-0.4,0.6-0.6,1.4-0.4,2.1h-0.1h-0.2
			c3.2-14.2,6.1-25.6,8.9-36.1c2.5-9.3,5.3-19.2,8.5-29c3.1-9.6,6.7-19.1,10.9-28.3c-0.2,1.1,0,2.2,0.7,3.1c0.6,0.8,1.5,1.2,2.5,1.1
			c5.6,0,11.4,0.1,16.9,0.2c7.6,0.1,15.4,0.2,23.1,0.2c7.3,0,13.8-0.1,19.8-0.3c7.1-0.2,13.5-0.6,19.7-1.2
			c5.9,3.2,12.1,5.7,18.5,7.4c6.4,1.7,13,2.9,19.7,3.4c3.7,0.3,7.6,0.5,11.4,0.5c6.5,0,13-0.4,19.4-1.3c6.4-0.9,12.8-2.2,19-3.9
			c7.4-2,14.5-4.8,21.3-8.3c0.3,0.4,0.7,0.6,1.1,0.7c2,0.4,4,0.6,6.1,0.6h1.9l7.3,0.2l14.2,0.5h0.9c10.3,0.4,20.6,0.7,30.2,1
			c12.2,0.4,25.1,0.7,37.9,0.7c7,0,13.5-0.1,19.7-0.3c5.1,7.8,9.6,15.9,13.6,24.3c-5.5,0.2-11,0.5-16.4,0.8l0,0
			c-6,0.4-12.1,0.7-18.2,0.9c-5.2,0.1-10.6,0.2-16.1,0.2c-6.3,0-12.8-0.1-19.6-0.3c-20-0.6-40.3-1.6-60-2.5
			c-22.8-1.1-46.4-2.2-69.6-2.8c-21.4-0.5-43.2-0.8-64.6-0.8h-0.4c-11.4,0-22,0.1-32.4,0.2c-5.4,0.1-10.8,0.1-16.1,0.2l-8.9,0.2
			c-2.5,0.1-4.9,0.7-7.2,1.8c-0.9,0.3-1.4,1.2-1.4,2.1c0,0.6,0.2,1.3,0.6,1.8c0.4,0.5,0.9,1,1.5,1.2l0.2,0.1
			c1.5,0.7,3.1,1.1,4.7,1.2h0.7c0.7,0,1.4,0,2.1,0l0,0H45l9.4-0.2c5.7-0.1,11.7-0.2,18.2-0.3c10.3-0.1,20.7-0.2,31-0.2h5.5
			c20.7,0,42,0.4,65.3,1c19.9,0.5,41.3,1.2,65.2,2.2l5.2,0.2l0,0c15.7,0.7,31.8,1.3,47.8,1.3l0,0c3.6,0,7.1,0,10.5-0.1
			c11.1-0.2,21.9-0.8,32.1-1.8c5.7-0.5,10.7-1.1,15.2-1.9c5.1-0.8,10.1-1.9,15-3.2c2.2,4.8,4.4,9.9,6.4,14.9l0.9,2.2l0.1,0.2
			c2.2,5.8,4.6,11.7,6.3,17.7c-11.6-2-23.9-3.5-37.8-4.8s-27.5-2-38-2.5c-12.3-0.6-24.9-1.1-38.5-1.4c-12.1-0.3-24.7-0.4-38.6-0.4
			c-21.6,0-43,0.3-62.8,0.6c-45.5,0.8-91.8,2.2-136.5,3.6l-3.1,0.1c-1.2,0-2.3,0.5-3.1,1.5c-0.7,0.9-1,1.9-1,3c0,1,0.3,2,1,2.8
			c0.8,0.9,1.9,1.3,3,1.3h0.1l20.1-0.5h0.1l2,0l3.1-0.1c-0.2,1.1-0.3,2.2-0.4,3.3v0.2v0.4c-0.2,1.7-0.4,3.5-0.7,5.2
			c-0.2,1.9-0.5,3.8-0.7,5.7c-0.3,2.7-0.6,5.4-0.9,8l0,0c-4,0-8.1-0.1-12-0.3l0,0C29.4,390.8,24.4,390.7,19.5,390.7L19.5,390.7z
			 M332.2,280.6c3.3,3.4,6.5,7.1,9.6,11c3.1,3.9,5.9,7.7,8.6,11.8c-20.7-2-41.2-3.1-56.8-3.8c-11.4-0.5-21-1-30.8-1.4l-14.6-0.6
			c-1.4-0.1-2.7-0.2-4.2-0.3s-3.2-0.3-4.8-0.3c4.7-2.9,9.1-6.3,13.3-10c2.6-2.4,5-4.9,7.2-7.6c-0.2,1.2,0.2,2.4,0.9,3.3
			c0.8,0.9,1.8,1.4,3,1.4c3.4,0.1,7,0.2,10.9,0.2c6.8,0,13.6-0.2,20.3-0.4l4.3-0.1c5.2-0.2,10.5-0.4,15.6-0.7l2.1-0.1l1.3-0.1l0,0
			c2.5-0.1,5-0.2,7.5-0.5l1.1-0.1l0,0c1-0.1,2-0.2,3-0.4c0.7-0.1,1.4-0.4,1.9-0.9L332.2,280.6z"/>
	</g>
</g>
<g id="Layer_2_1_">
	<g id="head_Gray_Medium">
		<path id="_Background-2" class="st0" d="M144.2,241.9c9.9,0.1,19.7-2.3,28.5-6.9c10.7-3.8,22.4-5.8,31.1-14.2
			c4.2,1,8.6-3.7,12.1-6.5c5.7,22.8,35.6,19,48.2,4.3c7.7-7,10.8-24.4-2.6-29c22-16.1,29.9-43.9,28.4-74
			c-1.6-50.5-37.5-103-83.7-111.7c-9.1-1.7-18.5-1.6-27.5,0.5c-5.1,1.2-10,3.5-15.4,3.4c-21-3.6-44.1-3.2-61.5,11.4
			C74,39.1,70.1,79.3,73.4,111.5l-0.1,0.3c1.6,11.9,4.3,22.7,9.4,29.8c0.4,10.3,3.7,32.2,3.9,40.8
			C85.9,222.8,107.1,240.7,144.2,241.9"/>
		<polygon class="st2" points="229.1,227 215.1,215.5 222.1,205 233.1,177 248.1,174 256.1,164 253.1,143 242.1,136 226.1,133 
			188.1,108 146.1,56 138.1,53 100.1,95 81.1,137 75.1,124 72.4,100.3 73.5,71.4 83.7,39.7 107.1,14.8 142.1,5 163.1,9 196.1,4 
			223.1,11 246.4,24 266.1,48 279.1,74 288.1,106 288.1,139 281.1,165.8 264.2,188.1 269.1,199 268.9,210.5 255.1,224 241.1,229 		
			"/>
		<path id="_Ink-2" d="M142.9,244.5c3.8,0,7.6-0.3,11.3-0.8c3.6-0.5,7.2-1.3,10.7-2.4l1.1-0.4c5.1-1.8,10.1-4.1,13.1-8.2
			c0.6-0.8,0.6-1.8,0.2-2.7c-0.3-0.6-0.7-1-1.2-1.4c-0.5-0.4-1.1-0.6-1.6-0.6c-0.2,0-0.4,0-0.6,0.1c-1.8,0.6-3.5,1.4-5.1,2.5
			c-0.9,0.5-1.7,1-2.6,1.5c-7.2,3.3-15,5-22.9,4.9c-10.8-0.2-21.4-2.6-31.2-7.1l-0.5-0.2c-5.3-2.3-9.9-6-13.3-10.7
			c-1.7-2.3-3.1-4.8-4.2-7.4c-1.2-2.7-2.2-5.5-2.9-8.4c-1.5-6.1-2.6-12.4-3-18.7c-0.5-6.5-0.8-13-0.9-19.4
			c-0.2-8.3-0.5-16.1-1.5-22.6c-0.2-7,0.8-14,2.9-20.7c1-3.2,2.2-6.3,3.7-9.4c1.4-3,3-6,4.8-8.9c7-11.5,16.4-21.8,25.5-31.7
			c2.9-3.2,5.7-6.2,8.4-9.3l0.6-0.7c2.1-2.5,4.2-4.8,7-5.3c0.8,2.6,2.7,4.7,4.5,6.6l4,4.7c3.5,4.1,7.7,9,12.1,13.9
			c3.1,3.4,6.2,6.9,9.4,10.7c8.5,9.8,17.3,20,27.2,28c2.5,2,5,3.8,7.6,5.5c2.6,1.7,5.3,3.2,8.1,4.4c2.8,1.3,5.7,2.3,8.7,3.1
			c3,0.8,6.2,1.3,9.3,1.6c-0.8,0.8-1.5,1.6-2.3,2.4c-1,1.1-2.1,2.2-3.2,3.3c-0.3,0.4-0.4,0.9-0.2,1.3c0.2,0.6,0.8,0.9,1.4,0.8
			c1.7-0.5,2.9-2,4.1-3.5c0.2-0.3,0.5-0.6,0.7-0.9c5.1-2.4,11.1-1.3,15,2.7c2.7,2.6,4.7,5.9,5.8,9.4c1.1,3.4,1.3,6.9,0.6,10.4
			c-0.4,1.7-1,3.3-1.9,4.9c-0.9,1.6-2.1,3-3.5,4.1c-1.3,1.3-2.9,2.3-4.7,2.7c-1.9,0.5-3.8,0.8-5.8,1c-3.2,0.4-5.9,0.7-6.6,2.2
			c-0.3,0.9-0.2,2,0.3,2.8c-1,3.4-2.1,6.6-3.3,9.6c-1.2,3.2-2.6,6.3-4.2,9.2c-1.6,3-3.4,5.8-5.4,8.4c-2,2.6-4.2,5.1-6.7,7.2
			c-1.1,0.9-2.3,1.6-3.5,2.2c-2.3,1.3-4.6,2.6-5.9,4.8c-0.3,0.5-0.3,1.1-0.1,1.6c0.1,0.5,0.4,0.8,0.8,1.1c0.8,0.4,1.8,0.6,2.7,0.6
			c1.8-0.1,3.5-0.6,5-1.6c1.5-1,3-2,4.3-3.2c2,4.6,5.4,8.5,9.7,11.1c1.9,1.1,4,2,6.2,2.5c2.2,0.5,4.5,0.8,6.7,0.8
			c3.8,0,7.5-0.6,11.1-1.9c3.7-1.2,7.2-2.9,10.4-5c3.1-2.1,6-4.5,8.4-7.4c2.3-2.6,4.1-5.6,5.2-8.9c1.2-3.4,1.4-7.1,0.6-10.7
			c-1.1-4-3.4-7.6-6.5-10.4c3.6-3.4,6.9-7.2,9.9-11.3c2.8-3.9,5.4-8.1,7.5-12.5c4.2-8.7,7-18.1,8.3-27.6c1.3-9.8,1.4-19.7,0.2-29.6
			c-1.2-10-3.5-19.9-6.9-29.5c-3.7-10.6-8.7-20.8-14.8-30.3c-5.9-9.2-13-17.6-21.1-25c-7.7-7-16.5-12.8-26-17
			c-14.3-6.3-30.2-8-45.4-4.6c-2.7,1-5.5,1.8-8.4,2.3c-2.8,0.5-5.6,0.8-8.4,0.8c-3.3,0-6.7-0.4-9.9-1.3c-3.6-0.6-7.2-0.9-10.9-0.9
			c-9.4,0-18.7,2.2-27.2,6.3c-4.2,2-8.1,4.5-11.8,7.3c-3.7,2.9-7.2,6.1-10.3,9.6c-3.5,3.9-6.5,8.2-9.2,12.7
			c-5.5,9.4-9.1,19.8-10.8,30.6c-0.9,5.6-1.2,11.3-1,17c-0.4,8.3-0.2,16.6,0.6,24.8c0.5,5.5,1.4,11,2.9,16.4
			c1.4,5.3,3.6,10.4,6.5,15c0,3,0.8,9.9,1.7,17.4l0,0c0.9,7.8,1.9,16.6,2.2,22.1l0.1,2.2c0.5,10.7,1.6,22.1,6.1,32.2
			c2.4,4.7,5.7,9,9.5,12.7c3.8,3.5,8.1,6.5,12.7,8.7C122,242.3,132.4,244.6,142.9,244.5z M264.3,190.5L264.3,190.5
			c1.5,2.5,2.5,5.4,2.9,8.3c0.4,2.6,0.2,5.2-0.5,7.7c-0.5,1.7-1.2,3.3-2.1,4.8c-0.9,1.5-2,3-3.2,4.2c-1.3,1.3-2.7,2.6-4.2,3.6
			c-1.6,1.1-3.2,2.1-4.9,2.9c-2.2,1.2-4.5,2.2-6.9,2.9c-2.2,0.6-4.5,1-6.8,1c-3.8,0-7.5-1-10.8-2.8c-3.6-2.1-6.7-5.1-8.9-8.6
			c3.9-4.8,7.1-10.2,9.4-15.9c2.4-5.8,4-11.9,4.8-18.1c2.2,0.9,4.6,1.4,7,1.5l0,0c2,0,4-0.4,5.9-1.1c1.9-0.7,3.6-1.7,5.2-3
			c3.3-2.8,5.9-6.3,7.5-10.3c0.9-2.2,1.6-4.5,2-6.9c0.4-2.4,0.6-4.8,0.4-7.2c-0.2-2.4-0.6-4.7-1.5-7c-0.8-2.3-2-4.4-3.5-6.4
			c-1.7-2.6-3.8-4.8-6.4-6.4c-2.4-1.6-5.3-2.5-8.2-2.6c-2.5,0-5,0.8-7.1,2.2c-4.1-1.7-8-3.6-11.9-5.8c-3.8-2.2-7.5-4.5-11-7.1
			c-7.1-5.2-13.8-10.9-20-17.1c-5.7-5.7-11.6-12.2-18-19.9c-5.8-6.9-11.2-14-16.8-21.2l-1.2-1.4c-1.3-1.5-3-3.7-4.9-6
			c-3.8-4.6-8.1-9.8-8.7-10.7c-0.3-0.4-0.7-0.7-1.2-0.7c-0.5,0-1.1,0.3-1.4,0.7c-0.4,0.4-0.7,0.9-0.7,1.5c0,1.2,0,2.4,0.2,3.6
			c-4.1,2.9-7.5,7.3-10.5,11.2c-6.3,5.4-11.6,10.2-16.1,14.8c-5,5-9.6,10.3-13.8,16c-2,2.8-4,5.7-5.7,8.8c-1.8,3-3.4,6.2-4.8,9.4
			c-1.5,3.3-2.8,6.7-3.8,10.1c-1.1,3.6-2,7.3-2.7,11c-1.8-2.3-3.2-4.9-4.1-7.6c-1-2.8-1.7-5.6-2.3-8.5c-0.7-9.6-0.6-19.2,0.2-28.8
			c0.7-9.6,2.6-19,5.4-28.2c6.5-20,18-33.8,34.2-41.2c3.9-2.1,8-3.6,12.3-4.6c3.9-0.8,8-1.2,12-1.2c5.3,0.1,10.7,0.5,16,1.2
			c3.2,0.3,6.5,0.7,9.9,0.9l1.7-0.4c1.8-0.4,3.5-0.8,5.1-1.1l0,0c8.5-1.9,15.9-3.5,23.8-3.5c3.3,0,6.6,0.3,9.8,0.9
			c3.7,0.7,7.4,1.7,11,3c10.8,3.9,20.7,9.9,29.2,17.5c4.4,3.8,8.4,8,12.1,12.5c3.7,4.5,7.1,9.4,10.1,14.4
			c12.4,20.8,18.7,44.6,18.2,68.8c0,3.5-0.2,7-0.6,10.5c-0.4,3.6-1,7.2-1.8,10.8c-0.8,3.6-1.8,7.1-3.1,10.6
			c-1.2,3.4-2.7,6.7-4.4,9.9c-3.1,6.2-7.4,11.6-12.7,16.1c-5.2,4.4-11.6,7.2-18.3,8.1c-2.2,0.4-3.6,2.5-3.2,4.7
			c0.1,0.6,0.4,1.2,0.7,1.7c0.5,0.6,1.3,1,2.1,1h0.3c3.5-0.3,6.9-1,10.2-2.3C258.3,194.3,261.4,192.6,264.3,190.5L264.3,190.5z
			 M231.1,163.2c1.5,0,3-1.8,4.8-3.9c1.2-1.6,2.6-3,4.1-4.3c1.5-1.4,3.5-2.2,5.5-2.4c0.1-0.1,0.2-0.2,0.1-0.4
			c-0.2-0.6-2.6-0.9-4.8-0.9c-2,0-4.2,0.2-4.6,0.7l-0.2,0.1c-2.5,1-6.6,3.5-7.5,6.5c-0.3,1.2-0.1,2.6,0.7,3.6
			C229.7,162.8,230.3,163.1,231.1,163.2z"/>
	</g>
</g>
<g id="Layer_3">
	<path id="_Ink-3" d="M140.7,208c4.1,0,8.2-1.2,11.7-3.4c1.8-1.1,3.4-2.5,4.8-4.1c1.2-1.4,2.3-2.9,3-4.6c0.7-1.7,1-3.5,1-5.3
		c0-0.4-0.1-0.7-0.4-1c-0.3-0.3-0.6-0.5-1-0.6c-0.1,0-0.3,0-0.4,0c-0.2,0-0.5,0.1-0.7,0.1c-0.3,0.1-0.6,0.4-0.8,0.7l-1.3,1.6
		c-1.6,2-3.3,3.8-5.3,5.4c-1.9,1.5-4.2,2.6-6.6,3.1c-2.7,0.6-5.5,0.4-8.2-0.6c-2.8-1-5.2-2.8-7.2-5c-0.7-0.9-1.8-1.4-2.9-1.4l0,0
		c-1.2,0-2.3,0.5-3.1,1.4c-0.9,0.8-1.4,1.9-1.5,3.1c0,1.1,0.4,2.3,1.2,3.1c1.5,1.6,3.2,3,5.1,4.1c1.9,1.1,3.9,2,6,2.6
		C136.4,207.7,138.5,208,140.7,208z M134.1,177.6L134.1,177.6c2.4,0,4.7-0.5,6.9-1.4c2.9-1.1,5.6-2.7,8.1-4.5c0.6-0.4,1-1.1,1.1-1.8
		c0.1-0.7,0.1-1.4-0.2-2c-0.3-0.8-0.7-1.4-1.4-2c-0.6-0.5-1.3-0.8-2.1-0.8c-0.6,0-1.2,0.2-1.6,0.5l-0.5,0.4l0,0
		c-1.6,1.3-3.3,2.4-5.1,3.5c-1.8,1.1-3.9,1.8-6.1,1.9c-0.9,0-1.8-0.2-2.6-0.5c-3-1.2-4.6-4.4-3.8-7.5c0.5-2,1.5-3.8,3-5.2
		c1.3-1.4,2.8-2.6,4.5-3.6c0.5-0.4,0.6-1,0.4-1.6c-0.1-0.4-0.4-0.7-0.7-1c-0.4-0.3-0.8-0.4-1.3-0.4c-0.2,0-0.3,0-0.5,0
		c-1.9,0.3-3.7,0.9-5.3,1.9c-1.4,0.8-2.6,1.9-3.5,3.2c-1.8,2.5-2.6,5.5-2.3,8.6c0.1,1.6,0.5,3.1,1.2,4.5c0.6,1.4,1.5,2.7,2.6,3.9
		C127.4,176.3,130.7,177.6,134.1,177.6z M187.1,156.6c0.3,0,0.5,0,0.8-0.1c0.5-0.1,0.9-0.5,1-0.9c0.7-1.9,1.2-5.2-0.6-9.6
		c-0.9-2-2-3.9-3.4-5.5c-1-1.3-2.3-2.4-3.7-3.2c-1.8-1-3.8-1.5-5.8-1.5c-2,0-3.9,0.5-5.6,1.4c-1.5,0.8-2.8,1.9-3.9,3.2
		c-1.1,1.3-2.1,2.6-3,4c-0.4,0.6-0.8,1.2-1.2,1.7c-0.7,0.9-1,2.1-0.6,3.2c0.4,1.1,1.3,2,2.4,2.5c0.6,0.2,1.2,0.4,1.8,0.4
		c0.5,0,1.1-0.1,1.6-0.3c1.1-0.4,1.9-1.3,2.3-2.4c0.5-1.1,1.1-2.2,1.8-3.2c0.7-1,1.6-1.8,2.6-2.5c1.4-0.9,3.2-1.1,4.7-0.4
		c2.2,1.3,4.1,3.1,5.4,5.4c1.3,1.8,1.9,4,1.8,6.3c0,0.5,0.1,0.9,0.5,1.2c0.3,0.2,0.6,0.4,1,0.4L187.1,156.6z M106.9,148.9
		c0.3,0,0.7-0.1,1-0.2c0.6-0.2,1.1-0.5,1.6-0.9c0.4-0.4,0.7-1,0.9-1.6c0.3-1.5,1.1-2.8,2.2-3.7c1-0.8,2.3-1.2,3.6-0.9
		c1.5,0.3,2.9,1.1,3.9,2.3c0.3,0.4,0.6,0.8,0.8,1.2l0,0c0.4,0.8,1,1.5,1.6,2.1c0.3,0.2,0.6,0.4,1,0.4c0.1,0,0.3,0,0.4-0.1
		c0.6-0.6,1.1-1.2,1.4-2c0.2-0.5,0.3-1.1,0.3-1.7c-0.1-1.2-0.5-2.4-1.2-3.4c-0.9-1.3-2.1-2.4-3.5-3.4c-1.2-0.8-2.5-1.4-3.8-1.8
		c-0.7-0.2-1.4-0.2-2.2-0.2c-2.3,0-4.5,0.7-6.4,2c-2.6,1.8-4.4,4.4-5,7.5c-0.1,0.7-0.1,1.5,0.2,2.2c0.3,0.7,0.8,1.3,1.5,1.6
		C105.6,148.7,106.2,148.9,106.9,148.9L106.9,148.9z M197.1,134.3h0.1c0.2,0,0.4-0.1,0.6-0.3c0.9-0.9,1.4-2.2,1.2-3.4
		c-0.1-2-0.6-4-1.5-5.8c-0.9-1.7-1.9-3.3-3-4.9c-1.1-1.6-2.4-3-3.8-4.3c-3.1-2.8-6.7-5-10.6-6.4c-2.4-1-5-1.5-7.6-1.6h-0.4
		c-1,0-1.9,0.2-2.8,0.5c-0.9,0.3-1.8,0.9-2.5,1.5c-0.9,0.9-1.4,2.1-1.4,3.4c0,1.3,0.5,2.5,1.4,3.4c0.8,0.8,1.9,1.4,3,1.7
		c1.1,0.3,2.2,0.5,3.2,0.6c1.1,0.1,2.1,0.2,3.2,0.5c2.7,0.6,5.2,1.5,7.6,2.8c2.6,1.3,5.1,3,7.2,5c0.5,0.5,0.9,1,1.3,1.5l0,0
		c0.4,0.5,0.8,0.9,1.2,1.4s0.9,1,1.4,1.6c0.1,0.2,0.3,0.4,0.4,0.7s0.2,0.4,0.3,0.6c0.2,0.3,0.3,0.6,0.5,0.9c0.3,0.5,0.5,0.7,0.6,0.7
		C196.8,134.2,197,134.3,197.1,134.3L197.1,134.3z M102.3,133.1h0.2c0.2,0,0.4-0.1,0.5-0.3c0.2-0.1,0.3-0.3,0.3-0.5
		c0.5-2.5,1.5-4.8,2.9-6.9c1.5-2.1,3.5-3.8,5.8-4.9c2.6-1.2,5.3-2.1,8.1-2.7c0.8-0.2,1.6-0.3,2.4-0.4l0,0c1.3-0.1,2.6-0.4,3.8-0.8
		c1.2-0.4,2.3-1.1,3.1-2.1c0.5-0.6,0.9-1.3,1.1-2.1c0.2-0.7,0.3-1.5,0.1-2.3c-0.2-1.5-1.2-2.8-2.5-3.4c-1.1-0.6-2.3-0.8-3.6-0.8
		c-3,0-6.2,1.4-8.6,2.4l-0.2,0.1l0,0l-0.6,0.3c-3.7,1.4-7,3.6-9.8,6.4c-2.4,2.6-4.1,5.7-5,9.2c-0.8,2.8-0.4,5.8,1,8.4
		C101.6,133,102,133.1,102.3,133.1L102.3,133.1z"/>
</g>
</svg>
