<svg xmlns="http://www.w3.org/2000/svg" viewBox="0 0 427.89 616.47">
  <defs>
    <style>
      .cls-1 {
        fill: #fff;
      }

      .cls-2 {
        fill: #ffebd2;
      }

      .cls-3 {
        fill: #8e052b;
      }
    </style>
  </defs>
  <g id="Layer_1" data-name="Layer 1">
    <g id="body_Coffee" data-name="body Coffee">
      <path id="_Background" data-name=" Background" class="cls-1" d="M247.15,692.8h0a4.1,4.1,0,0,1-3.24-1.42,5.35,5.35,0,0,1-1.09-4.28c.55-3.67,1.09-7.4,1.61-11h0c.28-2,.58-4.05.88-6.08a135.87,135.87,0,0,1-34.61,4.76,107.09,107.09,0,0,1-14.75-1,96.05,96.05,0,0,1-14.51-3.18c-.23-.23-.31-.42-.25-.56s.62-.37,1.64-.37c.38,0,.78,0,1.19,0h.09l1,0a2.47,2.47,0,0,0,.54-.05,28.55,28.55,0,0,1-9.33-10.49,35.41,35.41,0,0,1-2.54-6.37,47.72,47.72,0,0,1-1.42-6.9,81.41,81.41,0,0,1-.44-14.64c.24-5,.75-9.86,1.25-14.61h0c.27-2.62.54-5.1.74-7.5,1.75-11.27,3.34-23,4.88-34.28h0c3.93-28.9,8-58.78,15.29-87.22,1.89-7.35,3.95-14.44,6.13-21.08,2.35-7.11,4.92-14,7.66-20.45,2.9-6.84,6.09-13.45,9.48-19.66a195.3,195.3,0,0,1,11.59-18.7,135.66,135.66,0,0,1,14.7-16.7A123.22,123.22,0,0,1,261,377.11a108.09,108.09,0,0,1,19.64-10.3,94.49,94.49,0,0,1,21.49-5.74l.82-.11c1.43-.19,2.91-.37,4.34-.53,7.51-.88,15.27-1.78,21.62-5.73,3.31-2.64,5.85-6.1,8.31-9.44a46.63,46.63,0,0,1,5.81-7,12.86,12.86,0,0,1,3.26-2.24,9.21,9.21,0,0,1,3.79-.86h.05a7.19,7.19,0,0,1,3.36,1.1,46.24,46.24,0,0,1,3.93,2.53c1.29.9,2.63,1.82,4,2.63C361.57,338.19,376,353.8,377,351c.76-1.86,17.93,8.93,18,8,.3-4-4.78,27.92,0,24,0,5,5.34,17.14,8,16,3.08-1.34,7.75,10.86,11,10,3.5-.93,6.41-16.52,10-17s-6.66-9-3-9c4.32,0,5.77-9.91,10-9s9.33-8.84,12-7c2.45,1.7,5.06-9.27,7-7s7.38-9,9-9c3,.05,3-8,9.32-2a13.83,13.83,0,0,1,3.29,2.55,8.37,8.37,0,0,1,1.91,3.15c1.31,1.6,1.9,4.88,2.46,8.06h0a31.3,31.3,0,0,0,1.44,6c4.15.66,8.18,1.5,12,2.49a106,106,0,0,1,10.72,3.42,89.72,89.72,0,0,1,9.54,4.3,80.4,80.4,0,0,1,8.44,5.13,74.07,74.07,0,0,1,7.43,5.91,76.53,76.53,0,0,1,6.49,6.62,83,83,0,0,1,5.63,7.31,90.44,90.44,0,0,1,4.86,7.93,118.87,118.87,0,0,1,7.72,17.52,187.07,187.07,0,0,1,5.58,19.42c3,12.82,5.1,26.4,7.34,42.85,3,16.86,7.1,34,11.08,50.58h0c2.59,10.76,5.26,21.88,7.6,32.85,2.64,12.31,4.57,23.11,5.92,33a262,262,0,0,1,2.51,33.23c0,5.67-.15,11.3-.56,16.72-.43,5.68-1.11,11.34-2,16.8a36.24,36.24,0,0,1,3.47,6.24,6.15,6.15,0,0,1,.83,3.3,6.85,6.85,0,0,1-.92,3.21,6,6,0,0,1-5.19,3.16h-.27c-1.77-.15-3.57-.33-5.31-.49h0c-4.42-.43-9-.88-13.51-1-9.19-.31-19.09-.47-30.26-.47-6.51,0-13.58.05-22.26.16l-2.39,0c-35.42.44-71.43,1.06-106.24,1.66C353.68,691.53,300,692.46,247.15,692.8ZM440.49,495h0c-1.21,5.22.74,9.47,2.81,14a47.59,47.59,0,0,1,2.9,7.37c.49,1.79.3,4.56.14,7-.07,1-.14,1.93-.14,2.69a13.47,13.47,0,0,0,1.63,4.64c1,2,2,4,1.62,5.89-.8,4.34-2.92,8.7-5,12.92a61.06,61.06,0,0,0-4.5,10.93,19.56,19.56,0,0,0-.68,5.44,14.68,14.68,0,0,0,1.2,5.42c3.28,6.44,13.15,9.74,19.68,11.93h0a29.12,29.12,0,0,0,5.73,1.5,41.74,41.74,0,0,0,6.41.49,52.35,52.35,0,0,0,19.07-3.7,38.71,38.71,0,0,0,8.11-4.38,23.44,23.44,0,0,0,5.86-5.85c2.63-3.93,5.58-11.71,8-18,1.45-3.85,2.71-7.17,3.65-9l.56-7.78c.64-9.13,1.33-19.55,1.28-27.68-.05-9-1-14.06-2.91-15.38-4.21-2.93-10.27-5.1-18-6.46A129.84,129.84,0,0,0,476,485.37c-8.22,0-15.43.55-20,1a60.78,60.78,0,0,0-9,1.3c-.66.43-1.21.76-1.7,1.05a7.5,7.5,0,0,0-3.16,2.82l-3.95.54c-.87.29-1.33.88-1.22,1.59a1.79,1.79,0,0,0,.72,1.11,2.59,2.59,0,0,0,1.59.5,3.5,3.5,0,0,0,1.27-.25Z" transform="translate(-169 -76.33)"/>
      <polygon class="cls-2" points="176 528.67 165 508.67 167 473.67 174 472.67 183 469.67 203 445.67 217 426.67 238 416.67 251 401.67 276 408.67 270 418.67 271 430.67 281 441.67 278.48 451.94 282 458.67 276.62 470.94 273.57 480.66 255 489.67 239 505.67 197 518.67 176 528.67"/>
      <polygon class="cls-2" points="195 225.67 221 240.67 282 248.67 287 268.67 294.14 270.23 282 282.67 251 304.67 255 315.67 245 332.67 228 315.67 224.39 303.54 227 294.67 226 286.08 222.82 280.6 216 279.67 188 262.67 195 225.67"/>
      <path id="_Ink" data-name=" Ink" d="M248.2,689.29a4.07,4.07,0,0,1-1.84-.45l-.13-.08-.22-.12a4.47,4.47,0,0,1-1.79-2.08,3.66,3.66,0,0,1-.16-2.72,62,62,0,0,0,1.94-7c.48-2,1-4.13,1.65-6.13l-1.15.51-1.5.65a148.68,148.68,0,0,1-18.95,6.94,72.7,72.7,0,0,1-19.78,3,51.92,51.92,0,0,1-13.47-1.74,35.55,35.55,0,0,1-11-5,25.59,25.59,0,0,1-8.09-8.93A36.1,36.1,0,0,1,170,654.65a90.92,90.92,0,0,1-.94-12.11,191.1,191.1,0,0,1,1.58-29.76A182.32,182.32,0,0,1,174.22,593a5,5,0,0,1-1.63-3.12c-.62-5.06.15-10.31.91-15.38v0c.17-1.15.34-2.34.5-3.5.85-6.42,1.74-12.34,2.7-18.1,2.1-12.52,4.51-24.73,7.16-36.28,2.42-10.52,5.28-21.21,8.5-31.76,3.16-10.32,6.75-20.78,10.68-31.1l.68-1.78c4.06-10.56,8-19.59,11.92-27.61a193.12,193.12,0,0,1,15.23-25.9,117,117,0,0,1,8.79-11.17,67.31,67.31,0,0,1,10.5-9.52,91.08,91.08,0,0,1,24.21-12.06,133.2,133.2,0,0,1,13-3.7c4.27-1,8.75-1.79,13.32-2.41l4.09-.53c7.81-1,15.88-2,23.12-5.2a4,4,0,0,1-.26-3.14,4.89,4.89,0,0,1,1.91-2.58,136.8,136.8,0,0,0,15-12.18l2.14-1.9a1.52,1.52,0,0,1,1.05-.42,1.59,1.59,0,0,1,1.35.76,1.49,1.49,0,0,1,0,1.51,61.68,61.68,0,0,1-6.29,10c-1.56,1.93-3.23,3.75-4.8,5.43,4.15,3.58,7.67,8,11.08,12.2l.21.26c1.06,1.32,2.12,2.67,3.15,4a143.73,143.73,0,0,0,10.3,12.14,44.24,44.24,0,0,0,7.74,6.3,42.84,42.84,0,0,0,9,4.34l1.31.46a51.49,51.49,0,0,1,9.65,4.31,21.34,21.34,0,0,1,7.51,7.23,1.35,1.35,0,0,1,0,1.4,1.49,1.49,0,0,1-1.26.77,1.32,1.32,0,0,1-.7-.2c-4.07-2.52-8.68-3.78-13.14-5-2.55-.7-5.18-1.42-7.69-2.36a49.86,49.86,0,0,1-9.45-4.77,56,56,0,0,1-8.28-6.59,143.08,143.08,0,0,1-11.72-13.26l0,0c-.74-.92-1.51-1.87-2.28-2.8a121.22,121.22,0,0,0-14.57-14.71,55.42,55.42,0,0,1-13,6.29c-4.38,1.53-8.91,2.69-14,3.93l-1,.26c-5.53,1.37-10,2.62-14.13,3.93a119.66,119.66,0,0,0-13.68,5.23,113.69,113.69,0,0,0-11.52,6,65.62,65.62,0,0,0-10.42,7.74c-7,6.4-12.38,14.68-16.89,21.94a210.32,210.32,0,0,0-14.09,27.15c-3.6,8.25-7.1,17.33-11,28.58-3.45,9.94-6.67,20.15-9.58,30.36s-5.55,20.51-7.89,30.85c-2.31,10.18-4.25,20.59-5.93,31.82-.75,5.08-1.44,10.28-2,15.46-.16,1.34-.29,2.71-.41,4h0A59.3,59.3,0,0,1,181.24,591a4.65,4.65,0,0,1-1.62,2.39,4,4,0,0,1-2.33.75h-.2l-.35,4.36c-.45,5.58-.89,11.53-1,17.46-.26,10.62-.08,20.14.57,29.09l.1,1.32a52.88,52.88,0,0,0,1.76,10.82,20.94,20.94,0,0,0,5.33,9.39,23.62,23.62,0,0,0,10,5.55,42.44,42.44,0,0,0,11.42,1.6h.71a62.59,62.59,0,0,0,12.13-1.27,89.1,89.1,0,0,0,11.86-3.29,234.64,234.64,0,0,0,22.67-9.68l1.89-.89c7.74-3.62,15.59-7.55,23.33-11.67,7.53-4,15.18-8.31,22.73-12.8s15.15-9.19,22.61-14c3.62-2.34,7.28-4.76,10.88-7.2l2.12-1.49h0c1.29-.92,2.62-1.87,4-2.68a3.32,3.32,0,0,1-1-1.76,2.62,2.62,0,0,1,.39-2,20.89,20.89,0,0,1-3.91-4.63,30,30,0,0,1-2.7-5.63,40.61,40.61,0,0,1-2.28-12,100.08,100.08,0,0,1,1.08-15.79v0c.1-.82.2-1.68.3-2.52.37-3.16.83-6.28,1.27-9.18.07-.5.14-1,.21-1.54.1-.73.2-1.48.32-2.23-8.1,4.46-16.49,8.75-24.92,12.78s-16.93,7.8-25.6,11.37-17.38,6.78-26.93,9.94l-1.85.61c-5.22,1.71-9.25,2.94-13.07,4-4.82,1.34-9.17,2.35-13.29,3.1h-.08a.55.55,0,0,1-.51-.43.36.36,0,0,1,.24-.42c5.76-2.55,11.75-4.86,17.55-7.1,2.93-1.14,6-2.31,8.94-3.5l1.44-.59a3.24,3.24,0,0,1-.52-.07c-3.65-.89-7.34-2.12-10.9-3.32h0c-1.47-.49-3-1-4.46-1.47s-3-.9-4.56-1.31a50.1,50.1,0,0,1-9.83-3.41.3.3,0,0,1-.17-.35.4.4,0,0,1,.35-.32c.5,0,1-.05,1.54-.05a53.62,53.62,0,0,1,10.29,1.37c1.15.22,2.24.44,3.33.63l1.82.32c2.79.49,6,1.08,9.21,1.87a3.88,3.88,0,0,1,1.48-2.64c7.4-5.48,8-15.58,8.57-24.5h0c.11-1.83.22-3.55.38-5.21l.7-7.28c1.2-12.3,2.54-25.37,4.55-38.15a.5.5,0,0,1,.51-.43.63.63,0,0,1,.65.58c.07,10.75-.47,21.65-1,32.18-.24,4.84-.49,9.85-.68,14.78l-.09,2.57v.41c-.32,9.54-.66,19.4-6.66,26.73a2.4,2.4,0,0,1,1.23-.34,1.86,1.86,0,0,1,1.46.66,5,5,0,0,1,1.32,3.25c5.3-2.22,10.82-4.6,16.43-7.08,8.6-3.82,17.35-8,26-12.31,8.41-4.24,16.95-8.79,25.38-13.54a3.19,3.19,0,0,1,4.37,1.08l0,0,.13,0h.21a4.9,4.9,0,0,1,2.46-.6,7.7,7.7,0,0,1,5.1,2.11l.14.14,0,0a27,27,0,0,0,7.1-4.66,58.37,58.37,0,0,0,6.16-6.61c1.73-2.16,3.46-4.56,5.29-7.34,1.5-2.28,3-4.67,4.38-7,2.16-3.5,4.38-7.12,6.79-10.5A60.73,60.73,0,0,1,382,502a48.58,48.58,0,0,1,11-7.57,67,67,0,0,1,12.44-4.78.85.85,0,0,1,.24-.69,1.18,1.18,0,0,1,.82-.47,1.06,1.06,0,0,1,.5.13.28.28,0,0,1,.1.09l.83-1.43c.61-1,1-1.6,1.1-1.77,1-1.22,2-2.45,3-3.64a25.72,25.72,0,0,1,6-5.42,11.32,11.32,0,0,1,6.1-1.69c3.06,0,6.19,1,9.21,2l.07,0,6.06,2h.05l3.19,1.06.31.11.6.19a16.38,16.38,0,0,1,3.18,1.24,4.85,4.85,0,0,1,2.55,5.36A104.14,104.14,0,0,1,475,483.75a134,134,0,0,1,21.36,1.77A155.15,155.15,0,0,1,517,490.34a2.58,2.58,0,0,1,1.81,1.81,156.92,156.92,0,0,1,2.56,19.06,125.7,125.7,0,0,1-.12,19.21,108.65,108.65,0,0,1-2.64,16.34,88.38,88.38,0,0,1-5.38,15.64l-.26.57a68.92,68.92,0,0,1-8.53,14.34,34.08,34.08,0,0,1-6,5.86,21.68,21.68,0,0,1-7.2,3.65,30.7,30.7,0,0,1-8.47,1c-2.48,0-5-.18-7.45-.36-1.28-.09-2.6-.18-3.88-.24s-2.85-.13-4.25-.19h0a128.87,128.87,0,0,1-14.66-1.16,23.66,23.66,0,0,1-7.7-2.58,19.51,19.51,0,0,1-6.11-5.29c-3-3.91-4.53-8.68-5.78-13.25-.67.22-1.22.41-1.73.61a19.09,19.09,0,0,0-6.29,4.24c-1.76,1.71-3.37,3.61-4.93,5.45a59.91,59.91,0,0,1-6.05,6.49,46.48,46.48,0,0,1-12.39,7.74,81.73,81.73,0,0,1-11.8,4c-4,1-8.15,1.9-12.15,2.72h0c-1.72.36-3.5.72-5.25,1.1l-.69.15c-3.11.68-7.18,1.63-11.12,2.91a52.69,52.69,0,0,0-10.46,4.6,4.49,4.49,0,0,1-1.48,2.91,3.69,3.69,0,0,1,1.13,2,3.31,3.31,0,0,1-.5,2.41c-2.37,3.77-6.22,6.21-9.94,8.56h0l-2.19,1.4-.28.19c-4.3,2.85-8.7,5.68-13.08,8.42-8.57,5.37-17.5,10.58-27.3,15.93-7.61,4.16-15.2,8.14-22.55,11.82-7.74,3.87-15.48,7.55-23,10.93a51.36,51.36,0,0,1,.76,7.63,62.44,62.44,0,0,0,.52,6.25l.11.65a4.46,4.46,0,0,1-1.28,4.25l-.12.12v0l-.11.1,0,0h0a4.35,4.35,0,0,1-.41.34l-.19.12A3.75,3.75,0,0,1,248.2,689.29Zm88.73-136.82v1.12c0,.55,0,1.08,0,1.61.07,2.38.1,4.92.1,7.55,0,1.9,0,3.84-.07,5.71-.07,3.32-.13,6.74,0,10.11a43.84,43.84,0,0,0,.78,7,23.52,23.52,0,0,0,2.31,6.66,17.73,17.73,0,0,0,2.84,3.93,26.93,26.93,0,0,0,3.58,3.08,58.74,58.74,0,0,1,10.19-4.85,100.58,100.58,0,0,1,10.91-3.26c2.91-.71,5.9-1.35,8.79-2h0a162.87,162.87,0,0,0,18-4.6,47,47,0,0,0,11.89-5.79c3.57-2.46,6.41-5.77,9.16-9l0,0,.71-.84.48-.55c3-3.47,6.45-7,10.92-8.92A34,34,0,0,1,432.3,558c2.63-.71,5.34-1.43,7.39-3,1.69-1.32,1.86-3.21,2-5.2v-.11a11.64,11.64,0,0,1-1.45.09,25.78,25.78,0,0,1-3.61-.34h0l-1.42-.19-1.1-.12a45.76,45.76,0,0,1-5.92-1,.39.39,0,0,1-.26-.48.4.4,0,0,1,.26-.26,49.68,49.68,0,0,1,6.73-1.1l.29,0,.56-.07.83-.11h0a27.53,27.53,0,0,1,3.62-.34,9.92,9.92,0,0,1,2.1.22,17.66,17.66,0,0,1,1.69-4.21c.33-.59.74-1.19,1.17-1.83a11.14,11.14,0,0,0,2.23-4.58,3.65,3.65,0,0,0-.39-2.08L447,533a1.68,1.68,0,0,0-.52-.63.54.54,0,0,1-.2.1,3.2,3.2,0,0,1-3.81-1.52,59.07,59.07,0,0,1-6.52.33c-1.11,0-2.17,0-3.18.07l-3,.15c-1,0-2.31.09-3.63.1A28.57,28.57,0,0,1,420,531a.52.52,0,0,1-.39-.49.46.46,0,0,1,.26-.49c3.25-1.39,7-1.95,10.7-2.49l1.61-.24c1.49-.23,3-.42,4.49-.61h0l2.23-.29c.47-.06,1-.14,1.46-.22h0a28.28,28.28,0,0,1,3.17-.39,9,9,0,0,0,1.85-4.08,10.14,10.14,0,0,0-.2-4.35,9.62,9.62,0,0,0-1.91-3.7,8,8,0,0,0-3.36-2.43,6.2,6.2,0,0,1-2.48.49,18.75,18.75,0,0,1-2.12-.18h0l-1.29-.14c-2.39-.2-4.37-.3-6.23-.3h-.23a53.46,53.46,0,0,0-5.36.4,51.21,51.21,0,0,1-5.53.39,17.63,17.63,0,0,1-2.3-.12,1.14,1.14,0,0,1-.92-.77.73.73,0,0,1,.27-.8,16,16,0,0,1,5.74-2.85,43.14,43.14,0,0,1,6.4-1.27l.86-.12c.38,0,.78-.1,1.17-.16,1.12-.15,2.39-.33,3.68-.44a2.73,2.73,0,0,1,2.18-1.51l.87-.09h.09v0a1.93,1.93,0,0,0,1.61-1,6.82,6.82,0,0,0,.17-5.27,6,6,0,0,0-3.9-3.25,18.13,18.13,0,0,0-5.57-.75c-.82,0-1.67,0-2.68.1A80.09,80.09,0,0,0,410,495.9,63.21,63.21,0,0,0,396.31,501a42.31,42.31,0,0,0-11.21,8.69,78.35,78.35,0,0,0-8.62,11.33l-.25.38c-.84,1.31-1.7,2.7-2.53,4h0c-2.14,3.45-4.36,7-6.87,10.29a38.47,38.47,0,0,1-8.66,8.52,40.76,40.76,0,0,1-13.8,6.43,2.52,2.52,0,0,1-1.61,1.24l-.34.07a20.43,20.43,0,0,1-4.27.51A8.24,8.24,0,0,1,336.93,552.47Zm-79.5,27.68-.15.2-.08.1.43-.18Zm206.07-93c-4.85,0-9.78.13-14.41.26a7.89,7.89,0,0,1-2.68,3.77,7.41,7.41,0,0,1-4.26,1.67,12.44,12.44,0,0,1,2,6,13.11,13.11,0,0,1-1,6.15,16.24,16.24,0,0,1,4.76,2.89,15.59,15.59,0,0,1,4.89,8.27,15.36,15.36,0,0,1,.36,3.83,16.26,16.26,0,0,1-2,7.3,9.78,9.78,0,0,1,2.47,3.62,10.56,10.56,0,0,1,.79,4.37c-.13,2.91-1.66,5.42-3.15,7.86l-.58.95a17.2,17.2,0,0,0-2.09,7c-.08.57-.16,1.17-.26,1.78a11.29,11.29,0,0,1-2.84,5.91,15.77,15.77,0,0,1-5.39,3.66l.23.87a44,44,0,0,0,2,6.27,16.71,16.71,0,0,0,3.5,5.43c3.67,3.65,9.25,3.89,14.17,4.11l1.18,0h.25c3.91.2,7.88.42,11.72.64h0l2.63.15,3.59.2c1.13.07,2.46.13,3.77.13a23.53,23.53,0,0,0,6-.66,14.37,14.37,0,0,0,5.53-2.78A42.16,42.16,0,0,0,504,565.64a77.91,77.91,0,0,0,6.23-13.31,88.23,88.23,0,0,0,3.84-14,105.94,105.94,0,0,0,1.68-14.43,126.64,126.64,0,0,0-.15-14.58c-.31-4.66-.87-9.53-1.66-14.45A159.29,159.29,0,0,0,482.17,488,171.2,171.2,0,0,0,463.5,487.14Zm-36.67-1a26.8,26.8,0,0,1,6.55.73,16,16,0,0,1,5.69,2.65s0,0,0,0l0,0a14.17,14.17,0,0,1,1.81-2.12l0,0a1.62,1.62,0,0,0,.19-.18l.37-.39-.84-.29c-1.27-.45-2.7-1-3.55-1.31l-.69-.26h0l-1.16-.39h0c-1.85-.63-3.78-1.28-5.66-1.95-.34-.11-.67-.24-1-.37a13.59,13.59,0,0,0-4.67-1.16,7,7,0,0,0-.92.07,11.06,11.06,0,0,0-4.39,1.94,41.61,41.61,0,0,0-4,3.24h0c-.7.62-1.36,1.19-2,1.72l1.54-.29A68.45,68.45,0,0,1,426.83,486.18ZM530.89,688.77a1.64,1.64,0,0,1-1-.35,1.47,1.47,0,0,1-.56-1l-.25-2.36a40.18,40.18,0,0,0-1.69-8.83,48.3,48.3,0,0,1-2.15-10.44c-.64-5.59-.92-11.32-1.15-16.71l-.16-3.86c-.53-12-.75-23.84-.67-35,.09-12,.54-23.78,1.33-35l.12-1.66c.49-6.74,1-11.9,1.56-16.74.76-6.19,1.67-11.68,2.81-16.77,2.75-12.4,6.82-22.59,12.45-31.15a.42.42,0,0,1,.35-.19.46.46,0,0,1,.34.16.4.4,0,0,1,.06.35c-2.83,11.6-5.7,24.07-7.55,36.62-.72,4.94-1.28,10-1.69,15.45-.38,4.85-.63,9.93-.78,15.5-.27,10.35-.13,20.88,0,31.07v.1c0,1.72,0,3.49.07,5.24v1.16c.12,10.75.3,23.47.73,36.3.05,1.47.11,3,.17,4.43.18,4.59.38,9.33.21,14a41.92,41.92,0,0,1-.7,5.58c-.24,1.35-.48,2.75-.61,4.16a47.66,47.66,0,0,0,0,7.17c0,.46.05,1,.07,1.47a1.28,1.28,0,0,1-.33,1,1.36,1.36,0,0,1-1,.39Zm60.28-1a4.85,4.85,0,0,1-3.52-1.44,3.47,3.47,0,0,1-.94-2.68,362.72,362.72,0,0,0,.9-40.28c-.6-13.31-1.87-26.85-3.76-40.25-1.17-8.33-2.8-16.72-4.38-24.83-.54-2.83-1.11-5.76-1.66-8.66l-.32-1.76c-1.64-8.86-3.35-17.85-5-26.55v0l-.35-1.87-2.69-14.18c-3.68-19.36-8-41.84-12.8-63.62l-.27-1.24a197.51,197.51,0,0,0-9-30.42,116.84,116.84,0,0,0-6.86-14.32,86.48,86.48,0,0,0-9-13A76.3,76.3,0,0,0,526,396.9c-1.85-1.75-3.85-3.47-6-5.1a102.4,102.4,0,0,0-13-8.56c-4.1-2.29-8.7-4.58-14.08-7-4.93-2.21-10-4.31-14.5-6.16a.7.7,0,0,1-.45-.8.6.6,0,0,1,.61-.5l.19,0,1.55.37c10.85,2.6,22.35,5.57,33.26,10.78a71.21,71.21,0,0,1,14.72,9.41A77.35,77.35,0,0,1,540.44,402a107,107,0,0,1,15.65,29.66,248.51,248.51,0,0,1,8.64,32.59c2.42,11.67,4.78,23.57,7.06,35.07,2.5,12.62,5.08,25.67,7.76,38.48l1,4.56c2.85,13.69,5,24.25,6.8,34.24,2.32,12.48,4.19,23.75,5.72,34.44l.23,1.68a352.56,352.56,0,0,1,3.46,36c.24,6.28.23,12.37,0,18.09a169,169,0,0,1-1.74,18,3.35,3.35,0,0,1-1.34,2.28,4.16,4.16,0,0,1-2.44.72Zm-164.47-20a2.6,2.6,0,0,1-2.48-1.78,29.92,29.92,0,0,1-1.17-8.82c0-3,.25-6.11.5-9.08h0c.08-.87.15-1.69.21-2.51l.4-5.09c.35-4.56.75-9.94,1.06-15.26.4-7,.75-14.21,1.06-20.91.1-2.15.21-4.38.33-6.79l.19-3.4c0-.37,0-.75.05-1.12.12-2.55.24-5.18,1.27-7.46A.91.91,0,0,1,429,585a1.08,1.08,0,0,1,1,.52c1.27,2.34,1.53,5.32,1.75,8h0c0,.28,0,.58.08.86l0,.3c.41,4.3.66,7.6.82,10.72.35,6.8.51,13.66.49,20.37,0,7.81-.2,14.65-.53,20.89l-.11,1.86a81,81,0,0,1-.94,9.33,28.52,28.52,0,0,1-2.85,8.75,2.23,2.23,0,0,1-2,1.19ZM191.15,619.3l-.09,0a2.54,2.54,0,0,1-1.68-1.32,4.36,4.36,0,0,1,.38-3.41c1.53-3.5,4-6.7,6.46-9.8l.05,0,.71-.9a90.44,90.44,0,0,1,8.33-9.28l.88-.85c.34-.33.68-.68,1.05-1a33.52,33.52,0,0,1,4-3.62,8,8,0,0,1,4.67-1.78h.36a2.39,2.39,0,0,1,2.34,2.44,2.42,2.42,0,0,1-.07.54c-.55,2.61-2.74,4.23-4.85,5.8-.61.44-1.18.87-1.71,1.31-2.7,2.24-5.21,4.61-7.75,7-2.18,2.08-4.3,4.24-6.5,6.6l-.78.85c-.14.15-.42.42-.78.77h0c-1.71,1.66-5.24,5.12-4.77,6.16l0,.06a.27.27,0,0,1,0,.31.35.35,0,0,1-.29.19Zm207.41-67.52a4.92,4.92,0,0,1-3.46-1.46,7.83,7.83,0,0,1-2-3.52,14.45,14.45,0,0,1-.3-4.1,11.71,11.71,0,0,0-.54-4.71,13.73,13.73,0,0,0-1.19-2.11,14.34,14.34,0,0,1-1.18-2,13.58,13.58,0,0,1-1-4.58,11.38,11.38,0,0,1,.71-3.87c.56-1.9,1.15-3.85.27-5.46a1.12,1.12,0,0,1,.05-1.08.82.82,0,0,1,.71-.44h.1a4.69,4.69,0,0,1,2.84,1.42,6.25,6.25,0,0,1,1.54,2.86,26.11,26.11,0,0,1,.54,3.06,12.52,12.52,0,0,0,1.81,5.82c2.06,3,3.23,5.35,3.51,8.92,0,.46.06.93.08,1.38h0a16.46,16.46,0,0,0,.32,3.06l.24,1a9.79,9.79,0,0,1,.34,3.32,2.44,2.44,0,0,1-1.71,2.24A5.34,5.34,0,0,1,398.56,551.78ZM294.82,498.07a41.3,41.3,0,0,1-6.29-.43.53.53,0,0,1-.45-.51.71.71,0,0,1,.45-.73,72.41,72.41,0,0,1,12.66-2.2l2.95-.35c4.53-.56,10.48-1.33,16.4-2.25s11.23-1.83,16.3-2.77c2.43-.45,4.9-.93,7.33-1.43.52-.1,1-.23,1.6-.37a15.68,15.68,0,0,1,3.78-.65,5.3,5.3,0,0,1,2,.36,2,2,0,0,1,1.26,1.43,1.63,1.63,0,0,1-.48,1.52c-1.47,1.48-3.53,1.79-5.52,2.09l-1.17.19-.21,0c-2.76.51-5.6,1-8.42,1.48-5.38.89-10.74,1.67-15.92,2.31-6.12.76-11.5,1.32-16.43,1.73l-2.13.17C300.08,497.89,297.43,498.07,294.82,498.07Zm132.29-25.29a1.89,1.89,0,0,1-1.66-1c-2.15-3.56-3.24-7.67-4.3-11.65-.53-2-1.08-4.07-1.76-6-.88-2.58-1.84-5.17-2.76-7.68h0c-1.14-3.09-2.32-6.28-3.37-9.46a71.78,71.78,0,0,1-2.86-11.47,44.3,44.3,0,0,1-.34-11.73l0,0a.31.31,0,0,1,0-.1l-.63-1.36c-1.67-3.64-3.31-6.9-6.43-9.86-.79-.75-1.61-1.49-2.39-2.21a42.31,42.31,0,0,1-6.88-7.31,16.86,16.86,0,0,1-2.27-4.72,19.6,19.6,0,0,1-.8-4.87,53.22,53.22,0,0,1,.85-10c.3-2.06.62-4.19.78-6.28l.07-1.08c.14-2.1.13-4.4-1-5.6-1-1-2.83-1.5-4.48-1.92-.67-.17-1.3-.32-1.82-.51a100.8,100.8,0,0,1-13.51-5.83,85.39,85.39,0,0,1-11.85-7.4l-1.89-1.42c-3-2.26-6.07-4.71-8.06-7.76a.5.5,0,0,1,0-.5.5.5,0,0,1,.42-.28l.16,0a49,49,0,0,1,7.17,3.94h0l2.32,1.43c0-.12.11-.23.17-.35a39.39,39.39,0,0,0,4.09-11,41.33,41.33,0,0,0,.74-11.69,2.79,2.79,0,0,1,.68-2.19,3.14,3.14,0,0,1,2.31-.93,3.7,3.7,0,0,1,2.31.78,3.26,3.26,0,0,1,1.2,2.34,46.11,46.11,0,0,1-5.72,25.94l-.06.11,0,0c3.19,1.66,5.84,2.93,8.35,4,3.89,1.68,7.51,3,11.07,4.19,1,.31,2,.57,3,.83,2.64.66,5.37,1.34,7.42,3a9.74,9.74,0,0,1,3,4.13,16,16,0,0,1,1,5.17,50.7,50.7,0,0,1-1.16,10.73c-.07.39-.15.8-.22,1.18l-.18,1c-.57,3.26-1,6.72.41,9.92s4,5.48,6.54,7.76l0,0,.65.58.54.49a35.9,35.9,0,0,1,6.88,7.78,46.19,46.19,0,0,1,5.3-8h0l.79-1c1.33-1.76.81-2.57-.06-3.93-.2-.32-.43-.68-.65-1.08a11.66,11.66,0,0,1-1.23-3.17,9.37,9.37,0,0,1-.11-3.38,9.92,9.92,0,0,1,1-3,13.53,13.53,0,0,1,1.75-2.61,24.27,24.27,0,0,1,4.8-4.13q3.57-2.34,7.35-4.32c1.78-1,3.63-2,5.39-3.05a175.14,175.14,0,0,0,24.49-18,.22.22,0,0,1,.17-.07.3.3,0,0,1,.25.14.23.23,0,0,1,0,.24,95.44,95.44,0,0,1-21.52,23.52c-3,2.3-6.13,4.3-9.19,6.24l-1.62,1-1.05.68c-1.7,1.1-3.36,2.33-4,3.87-.51,1.24.21,2.28.91,3.27a11.16,11.16,0,0,1,.62,1,9.79,9.79,0,0,1,1.19,3.18,8.74,8.74,0,0,1,0,3.06,13.06,13.06,0,0,1-2.82,5.74l-.14.17c-2.92,3.61-5.08,6.93-6.12,11.41a35.89,35.89,0,0,0,0,14.76,93.83,93.83,0,0,0,4.15,14.32l.13.36c.43,1.2.87,2.42,1.3,3.6h0c1.34,3.67,2.72,7.46,3.89,11.25l.42,1.39c1.4,4.64,2.53,9.19,1,13.91a2.07,2.07,0,0,1-2,1.44Zm17.46-66.14c-.43,0-.86,0-1.3-.05a17.46,17.46,0,0,1-7.33-2.1,16.62,16.62,0,0,1-2.59-2.06c-1.65-1.5-3.36-3.05-5.25-3.05a3.46,3.46,0,0,0-1.06.17H427a.39.39,0,0,1-.35-.26.31.31,0,0,1,.09-.35,4.44,4.44,0,0,1,2.85-1c1.89,0,3.82,1.12,5.7,2.21a18.38,18.38,0,0,0,3.5,1.73,13.68,13.68,0,0,0,15-4.73,152.34,152.34,0,0,0,10.43-15.23,73.13,73.13,0,0,0,4.35-8.15,26.88,26.88,0,0,0,1.54-5,36.51,36.51,0,0,1,1.09-3.84,3.7,3.7,0,0,1,1.53-1.89,4.33,4.33,0,0,1,2.24-.63,3.48,3.48,0,0,1,2.55,1,3.22,3.22,0,0,1,.81,2.48c-.17,3-1.38,5.84-2.55,8.56l-.33.78-.14.32a60,60,0,0,1-4.71,9,113.68,113.68,0,0,1-12,15.44,21.34,21.34,0,0,1-6.31,4.85,17.17,17.17,0,0,1-7.65,1.8Zm31.75-46.41a3.34,3.34,0,0,1-2.29-1,64.85,64.85,0,0,1-7-7.67,31.51,31.51,0,0,1-5-9,.58.58,0,0,1,.09-.51.64.64,0,0,1,.52-.27.61.61,0,0,1,.3.08,44.42,44.42,0,0,1,4.88,3.88h0c.74.64,1.5,1.3,2.26,1.92,2.63,2.16,5.3,4.28,7.94,6.31a3.8,3.8,0,0,1,1.38,1.91,3.3,3.3,0,0,1-.06,2A3.42,3.42,0,0,1,476.32,360.23Zm-18.41-10.61a3.31,3.31,0,0,1-2.12-.77A22.55,22.55,0,0,1,448.43,338a23.88,23.88,0,0,1-1.12-6.49,23.34,23.34,0,0,1,.74-6.61,2.91,2.91,0,0,1,2.94-2.31,3.62,3.62,0,0,1,2.8,1.3,3,3,0,0,1,.55,2.61l0,.12a16.7,16.7,0,0,0,.37,9.6,17.68,17.68,0,0,0,5.52,7.86l.19.16a2.89,2.89,0,0,1,1,1.45,2.47,2.47,0,0,1-.06,1.52A3.78,3.78,0,0,1,457.91,349.62Z" transform="translate(-169 -76.33)"/>
    </g>
    <polygon class="cls-3" points="303.99 459.8 292.82 448.22 309.06 446.46 316.93 432.32 323.49 446.94 339.52 449.78 327.33 460.58 329.37 476.47 315.28 468.53 300.51 475.5 303.99 459.8"/>
  </g>
  <g id="Layer_2" data-name="Layer 2">
    <g id="head_Long_Bangs" data-name="head Long Bangs">
      <path id="_Background-2" data-name=" Background" class="cls-2" d="M510.62,162.78c-5.7-20.58-27.5-29.56-47.13-31-53.14-5.52-107.24,24.1-130.8,72.14-18.86,36.48-19.45,74.8,21.09,95.63,2.21,1.22,4.52,2.53,6.89,3.71a51.23,51.23,0,0,0,6.47,5.28c22.07,14.52,49.17,20.8,75.43,19.43,38.76-.78,52.61-27.09,61.07-60.82,8.94-33.59,13.93-70,7-104.38Z" transform="translate(-169 -76.33)"/>
      <path id="_Ink-2" data-name=" Ink" d="M536.07,356.8c-1.81-5.48-4.08-10.79-6.2-16.15a59.31,59.31,0,0,1-.83-8.09c-.29-9.71,1.53-19.5,3.56-28.95,4.14-19.22,8.53-38.23,10.74-57.8,3.93-35,1.59-71.39-14.33-103.34-13.79-27.68-37.17-50.31-67.36-58.79a130.06,130.06,0,0,0-27.37-4.44c-1.14-.19-2.28-.36-3.42-.54A182.89,182.89,0,0,0,392,76.64C370.4,78,349,84.22,331.07,96.48s-30.93,29.64-36.91,50.75c-6.22,22-5.69,45.74-16.43,66.33-3.17,6.08-6.88,11.86-10.41,17.74-9.37,10.46-19.55,22.08-21.78,36.46-2.75,17.77,7.48,32.79,17.15,46.65,8.75,12.52,20.62,29.81,11.62,45.23-4.25,7.27-11.05,12.71-16.16,19.35a64.29,64.29,0,0,0-11.57,23.23A49.4,49.4,0,0,0,257,447c5.59,6.45,12.77,10.72,20.54,14.05,8,3.4,15.73,6.62,22.3,12.41a83.52,83.52,0,0,1,8.36,8.57,65.52,65.52,0,0,0,8.43,10.57c3.51,3.57,10.37-1.31,7.15-5.51l-.7-.93c-2.36-3.07-4.72-6.13-7.19-9.1-7.38-11.69-10.22-26-6.55-39.66a48.85,48.85,0,0,1,4-10.09c.35.93.74,1.84,1.15,2.74a53.66,53.66,0,0,0,6.67,11.19,29.7,29.7,0,0,0,1.19,7.19c4.38,14.62,19,21.83,32.26,27.45l3.83,1.61c3.45,1.44,7.1-3.48,4.95-6.45-.56-.78-1.11-1.57-1.63-2.38a47.44,47.44,0,0,1-7.48-32.52c1.76-12.09,8.89-22.1,16-31.7,6.95-9.44,14.42-19.08,17.53-30.6,3.44-12.73.31-25.41-5-37.12-4.86-10.72-11.34-20.6-16.78-31,1.86,1.85,3.78,3.65,5.76,5.38,2.22,1.95,4.51,4.17,7.15,5.55a2,2,0,0,0,2.35-3.06c-2-2.16-4.62-3.82-6.87-5.75s-4.27-3.77-6.31-5.75c-2.53-2.43-4.93-5-7.24-7.59A120.65,120.65,0,0,1,356.16,280c-1.69-6.65-3.25-13.73-3.13-20.63.12-7.07,3.8-12,8.69-16.78,2.08-2,4.17-4,6.26-6,4.45-3.26,8.64-6.91,12.72-10.55,7.26-6.48,14.28-13.33,21-20.38,1.8-1.89,3.58-3.81,5.35-5.74q9.24-9.48,17.57-19.75a82.84,82.84,0,0,0,15.74-7.77c-2.16,2.18-4.34,4.34-6.51,6.52a120,120,0,0,1-15.45,13.67.64.64,0,0,0-.2.87.65.65,0,0,0,.68.27,61,61,0,0,0,20-7.57c6.33-3.84,11.9-9.06,17.1-14.29a63.9,63.9,0,0,0,8.38-4.73c.14-.08.28-.18.42-.27-2.56,8.11-6.31,17.28-14.31,20.17-.26.1-.24.53.07.51A24.39,24.39,0,0,0,467,179.74a112.21,112.21,0,0,0,9.85-8,119.58,119.58,0,0,0,8.64-8.8c-3.82,7.55-8.09,14.94-12.3,22.24-.23.39.24.91.64.64,8.89-6,15.64-13.79,21.16-23,.81-1.35,1.59-2.73,2.35-4.11q-.85,3.25-1.87,6.46c-1.21,3.88-2.4,7.77-3.61,11.65A60.55,60.55,0,0,1,489.5,183a14.17,14.17,0,0,0-1.57,4.45.16.16,0,0,0,.16.16h0c3.55-.89,6.85-4.93,9.38-7.44a40.58,40.58,0,0,0,3.94-4.54c.22,9.3.38,18.61.17,27.94-.38,17.14-1.48,34.27-2.9,51.35-1.25,15.1-2.18,30.95-10.6,44.07-6.52,10.16-17.09,17.19-28.58,20.59-1,.31-2,.58-3,.82-16.63,3.95-33.19-.52-47.9-8.43-4.41-2.37-8.19,4.07-3.93,6.72,16,9.93,36.18,13.31,54.23,8.86-.57,21.33,9.94,41.56,20.4,59.65,5.85,10.12,11.71,20.18,15.84,31.16a106.24,106.24,0,0,1,6.7,28.94c.95,11.72,0,23.51-1.62,35.13l-.27,1.9c-.37,2.5,1.87,4.59,4.3,3.31C515,482,519.61,470,522.43,458.86a209.62,209.62,0,0,0,5.42-31.75,96.67,96.67,0,0,1,3.56,12.38c.13.61.25,1.21.37,1.82.7,3.52,6,3.27,6.89,0,.15-.6.3-1.19.44-1.79a149.88,149.88,0,0,0-3-82.72" transform="translate(-169 -76.33)"/>
    </g>
  </g>
  <g id="Layer_3" data-name="Layer 3">
    <polygon class="cls-1" points="236 205.67 263 215.67 290 211.67 290 205.67 235 196.67 236 205.67"/>
    <path id="_Ink-3" data-name=" Ink" d="M449.84,264.08h0a18.32,18.32,0,0,1-6.83-1.43,34.33,34.33,0,0,1-8-4.75,3.26,3.26,0,0,1-1.12-1.86A4,4,0,0,1,434,254a4.81,4.81,0,0,1,1.35-2,3.22,3.22,0,0,1,2.11-.85,2.82,2.82,0,0,1,1.63.52l.54.43h0a43.75,43.75,0,0,0,5,3.64,12,12,0,0,0,6,2,6.22,6.22,0,0,0,2.55-.52,7.13,7.13,0,0,0,2.37-1.75,7.82,7.82,0,0,0,1.38-6.1,11.58,11.58,0,0,0-2.94-5.41,21.45,21.45,0,0,0-4.44-3.74,1.47,1.47,0,0,1-.37-1.65,2.17,2.17,0,0,1,.68-1,2,2,0,0,1,1.31-.45,2.61,2.61,0,0,1,.48,0,14.21,14.21,0,0,1,5.23,2,12.09,12.09,0,0,1,3.53,3.38,13.89,13.89,0,0,1,2.25,9,15.2,15.2,0,0,1-1.15,4.71,13.81,13.81,0,0,1-2.6,4.06A12.16,12.16,0,0,1,449.84,264.08Zm-44.43-32.14a4.4,4.4,0,0,1-2.91-1.18,4.76,4.76,0,0,1-1.52-3,35.74,35.74,0,0,1,.17-9c.1-.87.21-1.77.29-2.74a5.46,5.46,0,0,1,1.94-3.83,5.87,5.87,0,0,1,3.7-1.35,4.44,4.44,0,0,1,2.79.92,4.35,4.35,0,0,1,1.54,2.85,24.93,24.93,0,0,1-2.41,14.8,4.71,4.71,0,0,1-1.6,1.93A3.57,3.57,0,0,1,405.41,231.94Zm65.22-2a3.85,3.85,0,0,1-3.07-1.37,12.56,12.56,0,0,1-1.87-3.31,15.18,15.18,0,0,1-1-4c-.28-3,.51-5.63,2.22-7.27a4.73,4.73,0,0,1,.35-.56,5,5,0,0,1,3.86-2.31,3.93,3.93,0,0,1,1.18.18,5.7,5.7,0,0,1,3.77,3.43,12.68,12.68,0,0,1,.47,6.63,23.33,23.33,0,0,1-1.93,6.26,4,4,0,0,1-1.67,1.72,5,5,0,0,1-2.35.6ZM385.72,208.6a.69.69,0,0,1-.59-.38.86.86,0,0,1-.05-.81,28.09,28.09,0,0,1,6.07-8,37.54,37.54,0,0,1,8.12-5.79,34.11,34.11,0,0,1,9.64-3.5l1-.19a24.91,24.91,0,0,1,4.21-.48c2.35,0,4.05.66,5.19,2a4.75,4.75,0,0,1,1.05,3.27,3,3,0,0,1-1.05,2.13,7.77,7.77,0,0,1-5.48,1.68l-1.31,0h0c-.41,0-.89,0-1.35,0s-.82,0-1.18,0a36,36,0,0,0-8.16,1.45c-5.8,1.73-10.56,4.87-15.74,8.49A.65.65,0,0,1,385.72,208.6ZM485,204.27h0l-.43-.12a24.23,24.23,0,0,1-4.76-1.93l-1.55-.8a41.77,41.77,0,0,0-5.52-2.45,63.38,63.38,0,0,0-12.58-2.89,5,5,0,0,1-2.52-1,4,4,0,0,1-1.42-2.24,4.21,4.21,0,0,1,.44-3.36,4.26,4.26,0,0,1,2-1.79,4.33,4.33,0,0,1,1.7-.33,4.59,4.59,0,0,1,1,.1l.79.17a54.84,54.84,0,0,1,13.59,4.59,27.54,27.54,0,0,1,6,4.1,18,18,0,0,1,4.23,5.69c.14,1.18,0,1.48-.15,1.68l0,.06,0,.05a1.1,1.1,0,0,1-.67.47Z" transform="translate(-169 -76.33)"/>
    <path id="_Ink-4" data-name=" Ink" d="M420.8,308.72a39.36,39.36,0,0,1-9.77-3.24,28,28,0,0,1-8.1-5.86,29.77,29.77,0,0,1-7.25-13.85,32.54,32.54,0,0,1-.87-8.34c0-.26,0-.54,0-.82,0-2,.08-4.47,1.12-6.12a3.74,3.74,0,0,1,2.95-1.76,13.48,13.48,0,0,1,3.64.35l.6.11,3,.54c2.53.45,5.15.91,7.72,1.4,5.52,1,11.13,2.14,16.55,3.21h0l5.83,1.14,4.67.9,8.78,1.7c5.45,1.09,9.42,2,12.53,2.78a3.11,3.11,0,0,1,2.07,2.24,7.79,7.79,0,0,1,.38,2.91c-.55,6.19-3.68,11.72-9,16a33.73,33.73,0,0,1-8.32,4.79,38.24,38.24,0,0,1-9.38,2.45,53.75,53.75,0,0,1-8.42.43,50.67,50.67,0,0,1-8.68-.95Zm-13.72-30.55a5.13,5.13,0,0,0,1.73,3.23c1.3.82,10.83,3.27,19.24,5,2.27.46,4.31.82,6.06,1.09a84.88,84.88,0,0,0,13.49.43c2.12-.05,4.24-.22,6.35-.48,1.77-.25,2.74-.57,2.81-.93.28-1.39,0-2.94-.63-3h0c-2.36-.22-20.57-3.66-33.87-6.17h0c-5.85-1.1-10.47-2-12.23-2.28l-.74-.14c-.65-.13-1.31-.28-1.93-.42A5.88,5.88,0,0,0,407.08,278.17Z" transform="translate(-169 -76.33)"/>
  </g>
</svg>
