<svg id="Layer_1" data-name="Layer 1" xmlns="http://www.w3.org/2000/svg" viewBox="0 0 595.14 583.87">
  <defs>
    <style>
      .cls-1 {
        fill: #ffe9cf;
      }

      .cls-2 {
        fill: #a0bbef;
      }
    </style>
  </defs>
  <g id="body_Striped_Pocket_Tee" data-name="body Striped Pocket Tee">
    <path id="_Background" data-name=" Background" class="cls-1" d="M185.45,697.64c-3.48,0-6.87-.13-10.1-.38a29.25,29.25,0,0,1-8.56-2.29,38.24,38.24,0,0,1-7.47-4.37c-4.69-3.45-8.91-7.85-13-12.11h0c-2.23-2.32-4.54-4.73-6.86-6.9-10.72-11-21.15-22.38-31-33.93s-19.56-23.8-28.55-36l-.38-.52c-1-1.3-2-2.63-3-3.91A86.51,86.51,0,0,1,69.5,587a31.33,31.33,0,0,1-2.5-5.54c-.66-1.93-3.88-1.45-4-3.49a13.41,13.41,0,0,1,0-4c.17-.9-.42-4.18,0-5,.83-1.66,1.58-4.81,3-6l5-4c3.68-5.29,5.57-7.56,9-12,3.88-5,8.19-8.73,12-13,4.12-4.62,7.83-8.12,12-12,4.36-4.07,6.2-6.46,11-10,0-1.08,4.53-5,5-6s1,1.33,1.92.66l80.52-58.27c6.65-4.58,13.26-9.49,19.64-14.23,6.8-5.06,13.82-10.28,20.93-15.12a205.29,205.29,0,0,1,22-13.3,100.82,100.82,0,0,1,9.61-4c3.06-1.1,6.28-2.12,9.86-3.11,6.63-1.83,13.49-3.3,20.13-4.71,5.49-1.17,11.16-2.38,16.69-3.8A139.17,139.17,0,0,0,337.66,385c.22-3,3.14-4.84,5.55-5.87a22,22,0,0,1,7.57-1.75c.54,0,.88.06,1,.18a.12.12,0,0,1,0,.1,64.65,64.65,0,0,0,17-14.35,43,43,0,0,0,4.94-7.52,34.26,34.26,0,0,0,2.77-7.45,53.38,53.38,0,0,0,1.1-7.24c.35-3.29.67-6.4,2-8.89,1.44-2.77,3.94-4.54,7.88-5.57,3.28-.24,6.58-.36,9.83-.36A117.83,117.83,0,0,1,417,327.84a76.11,76.11,0,0,1,18.72,5.56,51.69,51.69,0,0,1,8.2,4.63,42.74,42.74,0,0,1,7,6.08,38.67,38.67,0,0,1,5.48,7.65,40.69,40.69,0,0,1,3.64,9.4,41.21,41.21,0,0,0,2.3,7.43,31.56,31.56,0,0,0,3.26,5.88,67.32,67.32,0,0,0,9.81,10.37,54.36,54.36,0,0,1,5.79,9A32.93,32.93,0,0,1,484.1,402a21.6,21.6,0,0,1-1.64,14.15,28.84,28.84,0,0,1-9.16,10.43,58.33,58.33,0,0,1-14.84,7.56,102,102,0,0,1-18.79,4.59,140.27,140.27,0,0,1-21.07,1.56c-4.63,0-9.29-.22-13.87-.65s-9.24-1.08-13.65-1.94a105.87,105.87,0,0,1-24.93-7.87,58.92,58.92,0,0,1-18.8-13.34,35.58,35.58,0,0,1-9.15-19c-9.65,3.51-19.9,5.69-29.81,7.79s-20.42,4.33-30.19,7.93c-10.75,4-20.42,10.26-29.26,16.46-21.36,15.17-42.9,30.85-63.73,46-15.59,11.34-31.72,23.07-47.66,34.52,10.61,4.89,28.23,19.9,32.35,34.25,1.6,5.58,1,10.53-1.73,14.72-2.1,2.69-3.33,2.83-6.17,4.78l-1-1c-.65.45-2.35.54-3,1l-2,3c-1.73,1.24-3.42,4.35-5.74,6-2.82,2-5.74,4.14-7.75,5.57l-.66.48c-.22.17-.5.37-.82.59A620.72,620.72,0,0,0,231.18,684a5,5,0,0,1,1.45,2.67,6.38,6.38,0,0,1-.14,3.1,5.55,5.55,0,0,1-1.35,2.32,4.43,4.43,0,0,1-2.42,1.25l-5,.73C211.46,695.89,198.36,697.64,185.45,697.64Zm406-.45h0c-15.35-.06-31-.72-46.08-1.35-11.27-.48-22.91-1-34.36-1.21a8.48,8.48,0,0,1-4.84-2.75,5.63,5.63,0,0,1-1.07-4.27,12.4,12.4,0,0,1,2.27-5.37,24,24,0,0,1,5-5.13,27.37,27.37,0,0,1,6.75-3.85,21.1,21.1,0,0,1,7.65-1.51,16.09,16.09,0,0,1,8,2.07c2.56,1,4.5,2.92,6.38,4.82s3.74,3.79,6.2,4.71a4,4,0,0,0,.77.09c1,0,1.24-.66,1.71-1.85l.19-.46.1-.25c.87-2.07,1.74-4.17,2.57-6.21h0c.4-1,.85-2.06,1.29-3.15,10.08-24.81,20.86-49.82,31.28-74l.74-1.73,1.92-4.44a9.23,9.23,0,0,0-.14-7.87,17.52,17.52,0,0,0-5.32-6.12,44.52,44.52,0,0,0-4.51-2.92c-2.84-1.72-5.79-3.5-5.59-4.19,0-.2.38-.31,1-.31a26.58,26.58,0,0,1,4.86.76,23.92,23.92,0,0,1-2-9.28,29.22,29.22,0,0,1,1.42-9.09c1.59-5.12,4.51-10.52,8.92-16.52a55.52,55.52,0,0,1,5.34-6.88,32.4,32.4,0,0,1,5.28-4.65,20.32,20.32,0,0,1,5.19-2.64,16.14,16.14,0,0,1,5.07-.84,17.42,17.42,0,0,1,6.09,1.16,25.35,25.35,0,0,1,5.81,3.21,51.26,51.26,0,0,1,10.59,11,110.08,110.08,0,0,1,8.88,14.28c2.38,4.49,4.65,9.33,6.75,14.38a55.71,55.71,0,0,1,2.84,12.41,67.49,67.49,0,0,1,.15,12.87,90.91,90.91,0,0,1-2.07,13.12,126.26,126.26,0,0,1-3.84,13.17A212.37,212.37,0,0,1,631.51,642c-4.17,8.28-8.68,16.34-12.66,23.46h0c-1,1.72-1.88,3.36-2.78,5-1.39,1.88-2.89,4.26-4.48,6.78a101.93,101.93,0,0,1-9,12.78C598.74,694.43,595.1,696.76,591.45,697.19ZM483.91,587.13a59.49,59.49,0,0,1-12.55-1.37,66.8,66.8,0,0,1-32.83-17.83c-7.35-10.07-4.6-22-1.93-33.63a112.62,112.62,0,0,0,2.4-12.53,54.06,54.06,0,0,1-2.39-9.39c-.24-1.24-.46-2.41-.72-3.57l-.11-.5-3.58-15.64a7,7,0,0,1,1.39-5.74,5.45,5.45,0,0,1,1.69-1.44,4.46,4.46,0,0,1,2.2-.55,5.44,5.44,0,0,1,.57,0,364.37,364.37,0,0,0,41.5,2.37c7.52,0,15.13-.24,22.64-.7s15.1-1.18,22.56-2.11a2.83,2.83,0,0,1,.41,0,5.74,5.74,0,0,1,3.46,1.41,5.3,5.3,0,0,1,2,3.07c3.1,19.69-.49,39.23-4.43,57.56l-.75,3.47c-.73,3.34-1.53,6.88-2.63,10.35a42.57,42.57,0,0,1-4.32,9.7,33.25,33.25,0,0,1-7.09,8.1,37.34,37.34,0,0,1-9.2,5.6A49.19,49.19,0,0,1,483.91,587.13Z" transform="translate(-59 -115.47)"/>
    <rect class="cls-2" x="373" y="364.53" width="95" height="113"/>
    <path id="_Ink" data-name=" Ink" d="M600.57,699.35a5.26,5.26,0,0,1-2.3-.55,5,5,0,0,1-1.78-1.49,4.14,4.14,0,0,1-.57-3.79c.11-.33.21-.68.31-1a25.59,25.59,0,0,1,1.81-4.68c.49-.92,1-1.84,1.56-2.73l.82-1.4,2.37-4.14h0l2.36-4.13c1.53-2.66,3.13-5.34,4.67-7.93,1.81-3,3.69-6.21,5.47-9.35,6.36-11.2,11.56-21.3,15.9-30.9l.57-1.24c1.83-4.09,4.19-9.48,6.17-14.95a97.29,97.29,0,0,0,4.32-15.54,53.27,53.27,0,0,0,.83-8.25,54.38,54.38,0,0,0-.46-8.07,70.25,70.25,0,0,0-4.12-15.81c-2.26-6-4.79-11.69-6.75-16l-.46-1-.65-1.43c-2.08-4.49-4.22-9.13-5.3-14.06a.42.42,0,0,1,.4-.51.44.44,0,0,1,.28.12c4,3.84,7.07,8.57,10.07,13.14.81,1.24,1.66,2.53,2.5,3.77s1.58,2.3,2.36,3.42a88.06,88.06,0,0,1,8.24,13.47,51.51,51.51,0,0,1,4.77,17.6,71.38,71.38,0,0,1-1.24,18.42,107.52,107.52,0,0,1-4.79,17.51c-2.31,6.46-5.07,12.67-6.94,16.79-4.41,9.65-9.71,19.88-16.23,31.29l-2.09,3.65c-2.43,4.24-5,8.75-7.88,13.16l-1.68,2.66h0c-2.76,4.4-5.62,8.94-9.39,12.67A4.42,4.42,0,0,1,600.57,699.35Zm-50.27-5.76a3.57,3.57,0,0,1-2.72-1.35,3.22,3.22,0,0,1-.63-2.74,78,78,0,0,1,2.95-9.19c.51-1.37,1-2.79,1.5-4.18l1.53-4.56,0-.07c1-2.86,2-5.82,2.95-8.72,2.6-7.52,5.42-14.84,8.57-22.94l2.94-7.55c2.6-6.68,5.66-14.44,8.91-22.06l.34-.8.7-1.65,0-.07c1.51-3.6,3.08-7.32,5-10.84a40.32,40.32,0,0,1,6.77-9.56.46.46,0,0,1,.29-.13,19.32,19.32,0,0,1-4-2.86l-.06-.06a22.29,22.29,0,0,1-3-4.42c-.74.27-1.54.54-2.44.85a4.12,4.12,0,0,1-1.26.22,3.16,3.16,0,0,1-2.16-.85l-1.57,1a11.43,11.43,0,0,1-5.37,2.06h-.16a5.66,5.66,0,0,1-3-.88,7.5,7.5,0,0,1-2.25-2.27c-.41-.62-.76-1.27-1.11-1.9a14.81,14.81,0,0,0-2.12-3.18,31.91,31.91,0,0,0-4.69-4l-2-1.42a53.79,53.79,0,0,1-10-8.73l-.74-.89h0a21.49,21.49,0,0,1-3.52-5,3.26,3.26,0,0,1-.3-1.15c-.22,1.47-.44,3-.59,3.94-1.55,10.27-2.74,19.36-3.64,27.77-1.07,10-1.76,19.11-2.1,27.93-.42,11.12-.45,19.64-.09,27.63.2,4.55.54,9.18,1,13.78.2,2,.45,4.45.75,6.88l.06.53a9.76,9.76,0,0,1,.07,2,7,7,0,0,1,2.72,2.63,21,21,0,0,1,1.7,3.43,3.83,3.83,0,0,1,.19,2.41,4.59,4.59,0,0,1-1.13,2,19.42,19.42,0,0,1,3.46,4.2.3.3,0,0,1,0,.29.37.37,0,0,1-.3.16.33.33,0,0,1-.21-.07,23.83,23.83,0,0,0-5.15-3.14,5.1,5.1,0,0,1-1.81.34,4.33,4.33,0,0,1-1.13-.15,4.84,4.84,0,0,1-2.58-1.86,21.84,21.84,0,0,0-3.43-.28,20,20,0,0,0-6,.91,20.4,20.4,0,0,0-5.68,2.78,19.67,19.67,0,0,0-2.66,2.25l-.38.44,0,.06,1,.39a9.37,9.37,0,0,0,.89.31,21.67,21.67,0,0,0,2.67.35l1.34.11,1.89.15c2.21.17,4.5.34,6.71.71a26.07,26.07,0,0,1,6.47,1.87,1,1,0,0,1,.6,1.08,1.32,1.32,0,0,1-.9,1.18,24.52,24.52,0,0,1-6.55.78c-1.15,0-2.37,0-4-.16l-.76-.06c-.76-.06-1.55-.1-2.31-.14h0a36.77,36.77,0,0,1-7.78-1,4,4,0,0,1-.31,3.38,3.83,3.83,0,0,1-1.23,1.24,4.78,4.78,0,0,1-2,.68,90.24,90.24,0,0,1-12.07.75c-5.86,0-11.67-.44-17.08-.92-8.87-.78-19.19-1.66-29.42-2.19-16.35-.86-33.7-1.26-54.6-1.26-14.14,0-28.48.19-40.82.36l-18,.26c-10.52.15-21.82.29-33.22.29-3.36,0-6.66,0-9.79,0l-6.71-.06c-2.56,0-5.55-.06-8.5-.15l-1.7-.05c-.56,0-1.16,0-1.72,0H274c-3.08,0-6-.12-8.18-1.59a5.14,5.14,0,0,1-2.2-3.25,5.33,5.33,0,0,1,.7-3.84,10.71,10.71,0,0,1,1.61-1.94c1.2-10.3,1.91-20.82,2.59-31h0l.06-.9c.61-9.3,1-18.69,1.11-27.9s0-18.64-.39-27.83-1-18.59-1.91-27.76-2.07-18.55-3.49-27.69c-7.3,2.23-14.74,4.78-22.74,7.8-7,2.65-14.29,5.6-22.27,9-8.53,3.65-16.26,7.13-23.63,10.63-1.91.91-3.87,1.89-5.75,2.85-5.19,2.62-10.56,5.34-16.13,7a2.81,2.81,0,0,1-1.85.73,2,2,0,0,1-.67-.1l-.11,0h0a2.82,2.82,0,0,1-.71.09,3.46,3.46,0,0,1-1.79-.53l-.52-.32-.26-.16a26.45,26.45,0,0,1-7.27-6.31c-2,1.81-4.05,3.52-6.09,5.17l0,0-1.09.89c-3,2.41-5.54,4.54-7.89,6.5l-.83.68a20.73,20.73,0,0,0-2.27,2l-.13.15-.06.07c3.73,2.41,7.05,6,10,9.24l.05.06.49.53c3.38,3.68,6.69,7.52,9.75,11.13l3.09,3.65,2.73,3.22.06.07C178.31,621,189,633.61,200.38,645.3c6.12,6.3,11.9,11.8,17.69,16.8a195.91,195.91,0,0,0,19.34,14.84,4.25,4.25,0,0,1,1.72,2.25,4.53,4.53,0,0,1,0,2.58,4.92,4.92,0,0,1-1.41,2.22,3.6,3.6,0,0,1-2.34.93,3.91,3.91,0,0,1-2.18-.74,249.17,249.17,0,0,1-24-19c-6.42-5.68-12.68-11.81-19.15-18.74-5.72-6.14-11.47-12.76-17.56-20.25-5.12-6.28-10.58-13.29-16.68-21.42l-1.84-2.45c-2.35-3.12-4.84-6.45-7.24-9.9l-.49-.71a48.45,48.45,0,0,1-5.55-9.69,5.32,5.32,0,0,1-1.93,1.27,1.82,1.82,0,0,1-.77.14,3.05,3.05,0,0,1-2.77-2.15c-.82-3.24,1.84-5.22,4.18-7l.31-.24c3-2.22,6-4.36,8.86-6.36l1.06-.75.69-.49a91.69,91.69,0,0,1,10.82-6.94,2.34,2.34,0,0,1,.44-.45l.57-.45c-2.47-4-5-7.88-7.63-11.53-2.71-3.82-5.55-7.52-8.43-11a194.06,194.06,0,0,0-14.19-15.33l-2.24-2.18a117.19,117.19,0,0,0-10.71-9.46l-1.18,1.33c-1.42,1.61-3.09,3.48-4.85,5.23-3.41,3.39-6.73,6.81-9.84,10-5.31,5.49-10.51,11.23-15.82,17.12l-2.61,2.88c-1.43,1.59-2.91,3.2-4.35,4.75-4,4.36-8.17,8.86-11.79,13.59l-.25.32A16.39,16.39,0,0,0,65.71,569a8.73,8.73,0,0,0-.16,5.16c.83,3,2.63,5.77,4.38,8.41h0c.28.43.57.86.85,1.3l.2.3c8.32,13,17.06,25.26,26,36.53a353,353,0,0,0,30,33.69c5.54,5.43,11.19,10.5,16.79,15.06a205.7,205.7,0,0,0,18.18,13.28,3.21,3.21,0,0,1,1.35,1.7,3.48,3.48,0,0,1,0,2,3.67,3.67,0,0,1-1.11,1.73,2.79,2.79,0,0,1-1.85.73,3,3,0,0,1-1.67-.54,229.4,229.4,0,0,1-21.22-15.76c-6.45-5.37-13-11.38-19.5-17.86-5.47-5.45-10.83-11.29-16.4-17.86-4.88-5.77-9.83-12-15.1-19-4.7-6.24-9.28-12.73-13.61-19.27l-2.59-3.85h0c-3.49-5.15-7.11-10.47-9.55-16.09a18.86,18.86,0,0,1-1.53-5.72,14.08,14.08,0,0,1,.65-5.87c1.25-3.72,3.78-6.77,6.06-9.34l.23-.26c5.29-6,11-12.15,17.32-19,5.45-5.84,11.42-11.79,18.25-18.19a129,129,0,0,1,15.51-12.46c-.49-.36-1-.69-1.48-1a3,3,0,0,1-1.38-2.21,2.72,2.72,0,0,1,.8-2.26,113.22,113.22,0,0,1,8.55-7.54c1.09-.9,2.22-1.83,3.31-2.75l11.21-9.51,22.54-19.12.28-.23c9.85-8.36,19.84-16.9,29.49-25.17l0,0,11.33-9.69c4.55-3.89,9.22-7.81,13.73-11.6h0l3.38-2.84L229,405.32l5-4.17a53.58,53.58,0,0,1,8-5.86c5.6-3.15,12.12-4.82,18.43-6.44h0c1.34-.34,2.72-.7,4-1.06l.5-.13c9.21-2.52,17.51-4.61,25.38-6.4,8.44-1.92,17.06-3.69,25.65-5.28a149.37,149.37,0,0,1,23.48-2.85,10.42,10.42,0,0,1,3.66-.69,6.89,6.89,0,0,1,2.66.48,9.48,9.48,0,0,1,2.36,1.43c1.11-.4,2.23-.73,3.32-1.06a29.69,29.69,0,0,0,7.92-3.23,39.56,39.56,0,0,0,9.44-8.58,45.47,45.47,0,0,0,6.52-11.09,74.68,74.68,0,0,0,3.84-12.28.22.22,0,0,1,.22-.16.19.19,0,0,1,.19.16,32.36,32.36,0,0,1,.25,7.16,39,39,0,0,1-1.23,7.11,46.38,46.38,0,0,1-5.92,13.08,45.6,45.6,0,0,1-10.38,11.3l-.32.24a30.14,30.14,0,0,1-5.4,3.3,14.77,14.77,0,0,1-6.05,1.48,9.82,9.82,0,0,1-3.56-.66,3.22,3.22,0,0,1-.46-.21c.51.79,1,1.63,1.47,2.45l.06.1.14.25c.93,1.61,1.82,3.28,2.68,4.9.65,1.23,1.32,2.49,2,3.72A54.94,54.94,0,0,0,363.48,406a61.05,61.05,0,0,0,6.58,5.33,64.39,64.39,0,0,0,7.1,4.33,77.24,77.24,0,0,0,15.43,6A105.59,105.59,0,0,0,409,424.75a153.24,153.24,0,0,0,16.72.87h1.52l1.6,0H431a94.5,94.5,0,0,0,15.14-.88c5.77-1,10.11-2.89,13.28-5.86a25.9,25.9,0,0,0,5-6.76,75.14,75.14,0,0,0,3.44-7.73c1.37-3.45,2.47-7,3.53-10.49h0c.49-1.61,1-3.27,1.53-4.89a38.29,38.29,0,0,1-9.22-8.74,36,36,0,0,1-3.42-5.65A34.08,34.08,0,0,1,458,368.4l-.17-.64a32.93,32.93,0,0,1-1-5.64,11.33,11.33,0,0,1,.69-5.5.46.46,0,0,1,.45-.27.53.53,0,0,1,.49.27,13.25,13.25,0,0,1,1,3.21c.12.56.25,1.15.41,1.71a41.65,41.65,0,0,0,15,21.95,5.58,5.58,0,0,1,5.11-2.52,10.55,10.55,0,0,1,2.84.42,116.16,116.16,0,0,1,11.6,4.18l.75.32c.92.38,1.85.74,2.84,1.13h0a58.15,58.15,0,0,1,8.65,4c1,.45,1.9.91,2.81,1.36h0c1.14.56,2.22,1.08,3.28,1.58,8.26,3.88,17,8.24,28.39,14.13l2,1.05a60.48,60.48,0,0,1,11.26,7c3.46,2.89,6.12,6.79,8.69,10.55l0,.06c3.21,4.72,6.38,9.59,9.44,14.3h0c2.47,3.79,5,7.72,7.58,11.54l0,0c11.39,17,23.16,34.52,34.85,51.78.95,1.41,2,2.83,2.94,4.21h0c1.92,2.71,3.91,5.51,5.59,8.39a15.49,15.49,0,0,1,2,6.35,32.82,32.82,0,0,1-.15,6.72l-.08.85c-.86,8-2.32,16.47-7.24,24a49,49,0,0,1-6.4,7.82,57.28,57.28,0,0,1-7.67,6.41,73.63,73.63,0,0,1-8.62,5.17,96.25,96.25,0,0,1-9.21,4.14l.82.62a18.77,18.77,0,0,0,4,2.53,27.69,27.69,0,0,0,8.83,2.07c.66,0,1.33.06,1.9.06h1.41a16.36,16.36,0,0,1,3.28.24,6.43,6.43,0,0,1,2.92,1.35,2.52,2.52,0,0,1,.8,2,2.42,2.42,0,0,1-.8,1.9,7.15,7.15,0,0,1-4.76,1.47,28.89,28.89,0,0,1-3.35-.26h0l-.73-.09-.18,0a31.91,31.91,0,0,1-8.35-1.89c-.68-.27-1.34-.56-1.95-.87a.34.34,0,0,1,0,.2,60.27,60.27,0,0,1-2.49,10.16l-.67,2.12c-1.1,3.54-2.57,8.22-4.12,13-2.59,8-5.38,15.82-8.49,24.51l-2.52,7c-2.48,6.91-5.16,14.27-8.1,21.48l-4.3,10.47h0l-.44,1.08-.64,1.55c-.55,1.34-1.08,2.74-1.6,4.1a76.36,76.36,0,0,1-3.78,8.83A2.82,2.82,0,0,1,550.3,693.59ZM467,569.75c-2.72,0-5.16,1.1-7.84,2.42l4.6,2L474,578.51c1,.41,2,.81,2.93,1.2a66.9,66.9,0,0,1,7.23,3.26,1.88,1.88,0,0,1,.55.46c2.07-1.33,4.24-2.58,6.35-3.8,1.28-.74,2.6-1.5,3.89-2.27l2.32-1.39a24,24,0,0,1-7.75,1.43,16.76,16.76,0,0,1-4.77-.67,36,36,0,0,1-7-3.2,51.64,51.64,0,0,0-4.88-2.44,16.15,16.15,0,0,0-5.15-1.31Zm0-4.8a15,15,0,0,1,1.77.11c3.66.47,6.87,2.21,10,3.9a36.19,36.19,0,0,0,7.95,3.5,13,13,0,0,0,3.34.42c3.77,0,7.43-1.51,11-3a41.71,41.71,0,0,1,7.75-2.64,21.81,21.81,0,0,1,3.69-.4h.42l.18-.11c.4-.23.84-.46,1.31-.7a10.25,10.25,0,0,0,3.72-2.66,11.79,11.79,0,0,0,1.43-4.9h0c.08-.56.16-1.1.26-1.59,0-.18.08-.39.11-.6h0a11.27,11.27,0,0,0-2.09.17,30.7,30.7,0,0,0-6.42,2.09c-.91.38-1.81.78-2.69,1.17a65.43,65.43,0,0,1-9.25,3.52,34,34,0,0,1-8.85,1.26,24.56,24.56,0,0,1-3.64-.25,20.24,20.24,0,0,1-5.69-1.72,36.87,36.87,0,0,1-5.17-3l-.54-.37-.36-.24c-2.17-1.5-4.63-3.19-7.18-3.19a5.45,5.45,0,0,0-2.54.62,16.87,16.87,0,0,0-2.52,1.66,22.37,22.37,0,0,1-2.23,1.51,20.9,20.9,0,0,1-5.39,2.08,24.11,24.11,0,0,1-5.35.6,22.88,22.88,0,0,1-4.66-.47l0,4.52c2.69,1.11,5.33,2.23,7.55,3.18,1.59-.54,3.09-1.17,4.85-2l1.11-.5A19.52,19.52,0,0,1,467,565Zm1.08-14.44a10.15,10.15,0,0,1,1.74.16c3.19.58,5.91,2.47,8.55,4.29l.93.64.48.32a24.32,24.32,0,0,0,5.14,2.66,17.19,17.19,0,0,0,5.72,1h.18a29.05,29.05,0,0,0,6.5-.8,52.18,52.18,0,0,0,6.27-1.92c.87-.32,1.72-.65,2.55-1A41.69,41.69,0,0,1,516,553a16.25,16.25,0,0,1,2.2-.14,12.89,12.89,0,0,1,2.32.18c.21-1.16.4-2.27.58-3.39.38-2.36.73-4.81,1-7.3a11.51,11.51,0,0,0-3-.4c-4,0-8,2-11.8,3.95a43.41,43.41,0,0,1-7.37,3.22,23.32,23.32,0,0,1-6.49.9,24,24,0,0,1-6.46-.88c-3.35-.93-6-2.71-8.89-4.6l-1.35-.88-.61-.39a8.9,8.9,0,0,0-4.61-1.8,4.58,4.58,0,0,0-.83.08,9.62,9.62,0,0,0-3.4,1.7c-.49.33-1,.65-1.43.92a25.2,25.2,0,0,1-5.34,2.22,27.55,27.55,0,0,1-5.7,1c-.58,0-1.17.06-1.75.06a27.17,27.17,0,0,1-7.91-1.19l.11,10a15.35,15.35,0,0,0,3.54.72c.45,0,.89,0,1.33,0a17,17,0,0,0,4.81-.69,16.32,16.32,0,0,0,4.42-2.05l1.59-1.06c2.18-1.43,4.36-2.72,7.14-2.72Zm3.35-13.9a11,11,0,0,1,4.33,1,22.68,22.68,0,0,1,3.93,2.22l.91.62c3.39,2.3,6.78,4.39,11.16,4.79.53,0,1.07.07,1.61.07,4,0,7.7-1.43,11-3l.95-.44c4-1.83,8.19-3.51,12.15-3.51a10.55,10.55,0,0,1,4.93,1.13c.39-3.74.69-7.62.9-11.54a6.5,6.5,0,0,0-2.3-.46h0a18.82,18.82,0,0,0-6,1.3c-2.23.78-4.41,1.79-6.51,2.77h0c-1.81.84-3.67,1.7-5.56,2.42a25.85,25.85,0,0,1-9.23,1.83,18.72,18.72,0,0,1-3.08-.24,13.87,13.87,0,0,1-5.13-1.88,21.09,21.09,0,0,1-4.23-3.48l-.39-.4-.08-.09c-1.16-1.24-2.36-2.52-4-2.84a4.23,4.23,0,0,0-.79-.08,8.46,8.46,0,0,0-3.93,1.31c-1.14.64-2.26,1.36-3.34,2.07a25.48,25.48,0,0,1-7.45,3.76,18.91,18.91,0,0,1-4.73.58A29.75,29.75,0,0,1,445,531.9c0,3.11,0,6.27.07,9.25a22.67,22.67,0,0,0,3,.91,22,22,0,0,0,11.11-.33,21.19,21.19,0,0,0,4.9-2.39,19.5,19.5,0,0,1,5.26-2.48,8.87,8.87,0,0,1,2.06-.26Zm4.48-14.82a9,9,0,0,1,4.57,1.28,17.27,17.27,0,0,1,3.75,3.06l.28.29a15.43,15.43,0,0,0,4.29,3.33,11.38,11.38,0,0,0,5.12,1.15c.41,0,.84,0,1.27-.06,3.88-.31,7.56-1.87,11.11-3.37l1.46-.61.37-.15c3.08-1.27,6.67-2.62,10.2-2.62a11.88,11.88,0,0,1,1.79.13,12.24,12.24,0,0,1,3.35,1c.15-3.6.23-7.32.25-11.39a8.68,8.68,0,0,0-5.74-1.93,11.08,11.08,0,0,0-3,.42,30.49,30.49,0,0,0-7.21,3.52,42.38,42.38,0,0,1-5.31,2.86,17.24,17.24,0,0,1-6.57,1.4,14.28,14.28,0,0,1-5.13-1,32.83,32.83,0,0,1-6.53-3.74,46.94,46.94,0,0,0-4.43-2.77,12.19,12.19,0,0,0-5.61-1.72,6,6,0,0,0-.85.06c-2.15.28-3.57,1.76-4.83,3.25l-.7.84a29,29,0,0,1-3.64,3.71,13.7,13.7,0,0,1-4.58,2.49,14.16,14.16,0,0,1-4.24.65,15.63,15.63,0,0,1-6.88-1.65,32.43,32.43,0,0,1-3.31-2l-.22-.14.06,8.1a34.53,34.53,0,0,0,7.21,2.8,16.72,16.72,0,0,0,4,.51,14.32,14.32,0,0,0,4.5-.72,18.18,18.18,0,0,0,4.32-2.1l.43-.28,1-.69c2.74-1.83,5.57-3.72,8.91-3.92l.55,0Zm-31.06-15.44c0,1.45,0,2.92,0,4.34h0v1.71c.84.49,1.66,1,2.45,1.54l.61.39.35.23a13.77,13.77,0,0,0,7.11,2.47,9.38,9.38,0,0,0,2.88-.46c2.64-.86,4.22-2.76,5.9-4.77h0c.57-.68,1.16-1.39,1.79-2.05a12.49,12.49,0,0,1,3.66-2.67,10.42,10.42,0,0,1,4.39-1h.44c3.06.12,6.27,1.3,9.82,3.61.71.46,1.44,1,2.14,1.47h0a23.84,23.84,0,0,0,7,3.85,9.61,9.61,0,0,0,2.61.36,13.68,13.68,0,0,0,5.3-1.22,48.82,48.82,0,0,0,5.12-2.68c2.76-1.57,5.6-3.21,8.51-3.71a12,12,0,0,1,5.62.36,9.43,9.43,0,0,1,3.09,1.62c0-3.93-.1-8.24-.25-13.17-4.14.15-8.27,1.87-12.26,3.54a58.83,58.83,0,0,1-7.52,2.76,19.58,19.58,0,0,1-4.94.64,23.49,23.49,0,0,1-7.34-1.27,70.9,70.9,0,0,1-7.19-2.88h0l-.83-.36a22,22,0,0,0-8.62-2.3,11.45,11.45,0,0,0-1.85.15c-3.27.53-6.2,2.25-9,3.91l-.05,0-.67.4-.58.33a42.73,42.73,0,0,1-7.62,3.51,25.23,25.23,0,0,1-8.13,1.37c-.65,0-1.32,0-2-.09Zm-.66-10.8a4.26,4.26,0,0,1-.25.71,46.9,46.9,0,0,1,.72,5.54,21.49,21.49,0,0,0,2.41.13,20.6,20.6,0,0,0,4.21-.43c3.66-.75,6.89-2.63,10-4.44,1.34-.78,2.72-1.58,4.12-2.29l-2.84.12h0c-3.72.16-7.17.33-10.55.52-.69,0-1.4.13-2.15.21a28.93,28.93,0,0,1-3.21.26,8.54,8.54,0,0,1-2.46-.33ZM497.41,494c-4.17,0-8.48,0-12.72.14l-1.54,0H483c1.41.54,2.78,1.15,4.4,1.89l1.46.67a23.47,23.47,0,0,0,9.75,2.64c.36,0,.72,0,1.06,0a36.65,36.65,0,0,0,9.86-2.61l2-.74a28.48,28.48,0,0,1,9.31-1.78,18,18,0,0,1,2.55.18v-.08l0-1c-8.62.59-17.42.65-25.94.71Z" transform="translate(-59 -115.47)"/>
  </g>
  <path id="_Background-2" data-name=" Background" class="cls-1" d="M524.9,208.63a116.15,116.15,0,0,0-35.4-59.89c-55.77-55.14-158.2-25.21-157.73,57.89a110,110,0,0,0-2.15,29.58c.27,4.22,2.1,10.11-.35,13.91-5.55,7.11-8.77,12.35-6.88,21.81,1.57,8.26,7.2,14.11,14.78,17.22,4.55,1.31,8.86,4.15,10.55,8.48,10.12,18.54,17.63,34,33.59,46.59,4.12,3.26,46.36,22.76,60.28,22.76,40.75,0,92.11-14.76,93-60.28.15-10-1.6-20.11-2.7-30C529.17,254,530.11,230.58,524.9,208.63Z" transform="translate(-59 -115.47)"/>
  <path id="_Ink-2" data-name=" Ink" d="M455.91,371.83a47.44,47.44,0,0,1-14.11-2,34.9,34.9,0,0,1-6.51-2.77,31.89,31.89,0,0,1-5.91-4.21,5,5,0,0,1-1.62-2.87,5.77,5.77,0,0,1,.33-3.1,7.23,7.23,0,0,1,2.19-3,5.25,5.25,0,0,1,3.3-1.24,4.74,4.74,0,0,1,2.88,1,29.9,29.9,0,0,0,4.84,3,30.86,30.86,0,0,0,5.1,2,38.47,38.47,0,0,0,10.73,1.4,63.7,63.7,0,0,0,10.93-1c3.15-.55,6.57-1.33,10.74-2.43l.43-.11A112.32,112.32,0,0,0,497.45,350a76.62,76.62,0,0,0,8.52-4.57,63,63,0,0,0,7.8-5.69A46.56,46.56,0,0,0,526,323.41a54.3,54.3,0,0,0,4.58-20c.33-7.75-.34-15.37-1.2-23.8l-.09-.88c-.34-3.41-.7-6.87-1-10.22-.57-5.54-1.16-11.26-1.71-16.9-1-10-1.56-17.61-1.88-24.83l-.18-4.18c0-1.07-.09-2.18-.13-3.16-1.33-7.44-3.66-27.86-3.35-35.2a.25.25,0,0,1,.26-.24.23.23,0,0,1,.23.18c1,3.61,4.75,20.34,5.46,23.95.35,1.76.71,3.58,1.1,5.37,1.37,6.32,2.33,11.21,3.11,15.86,1.47,8.71,2.88,18.29,4.44,30.14l.33,2.52c.38,2.92.81,5.94,1.23,8.84,2.13,14.9,4.33,30.29,1.56,45.17a52.58,52.58,0,0,1-8.78,20.57,68.93,68.93,0,0,1-15.85,15.9,93,93,0,0,1-19,10.56,122.59,122.59,0,0,1-20.74,6.51c-3.16.71-6.23,1.25-9.1,1.62A71.72,71.72,0,0,1,455.91,371.83Zm-75.64-27.07a3,3,0,0,1-1.17-.24,14.87,14.87,0,0,1-4.78-3.46,55.84,55.84,0,0,1-4-4.74h0c-.49-.64-1-1.25-1.43-1.83l-.19-.24a97.79,97.79,0,0,1-8.15-11.73l-.81-1.35c-4.32-7.28-8.79-15.07-11.65-23.38a4.07,4.07,0,0,1-.59.51,8,8,0,0,1-4.75,1.4,16.64,16.64,0,0,1-4.86-.84,35.53,35.53,0,0,1-4.45-1.77,29.67,29.67,0,0,1-10.1-7.66,32.07,32.07,0,0,1-3.85-5.61,29.86,29.86,0,0,1-2.5-6.18,28.26,28.26,0,0,1-1-6.58,27.47,27.47,0,0,1,.63-6.77,29.61,29.61,0,0,1,5-11,28.46,28.46,0,0,1,9-8.1c-3.32-3.83-4.62-9-5.45-13.62a82.82,82.82,0,0,1-1.05-19,97.74,97.74,0,0,1,2.79-18.71A114.62,114.62,0,0,1,333,176a100.44,100.44,0,0,1,18.31-28.05,99,99,0,0,1,12.39-11.3,96.22,96.22,0,0,1,14.2-9.06A107.36,107.36,0,0,1,444,116.77a93.38,93.38,0,0,1,15.88,4,99.07,99.07,0,0,1,14.9,6.61,102,102,0,0,1,25.67,20.06A106.49,106.49,0,0,1,510.58,160a80.44,80.44,0,0,1,7.74,14.17,74.78,74.78,0,0,1,2.69,7.52,63.28,63.28,0,0,1,1.81,7.79,65.48,65.48,0,0,1,.95,8.26,22.89,22.89,0,0,1-.29,3.7,22.15,22.15,0,0,0-.29,3.81.34.34,0,0,1-.09.24.43.43,0,0,1-.28.11.33.33,0,0,1-.34-.25,20.39,20.39,0,0,0-2-4.67,32,32,0,0,1-1.49-3.13c-.83-2.14-1.79-4.23-2.62-6l-.79-1.7c-2.22-4.79-4.89-9.46-7.47-14l-.27-.47a102.47,102.47,0,0,0-20.66-25.5A91.88,91.88,0,0,0,463,134.33a88.56,88.56,0,0,0-13.64-4.69,85,85,0,0,0-14.26-2.36c-2.45-.19-4.94-.28-7.4-.28a95.7,95.7,0,0,0-26,3.56,93.25,93.25,0,0,0-24,10.51A88.86,88.86,0,0,0,341,187a101.36,101.36,0,0,0-5.69,29.59,134,134,0,0,0,.35,15.39l.17,2.43a38.76,38.76,0,0,1-.08,8.68,22.87,22.87,0,0,1,6.77-1.08,19.88,19.88,0,0,1,2.78.2c4.87.71,7.72,2.74,9.86,7a.25.25,0,0,1,0,.25.24.24,0,0,1-.21.11l-.12,0a9.38,9.38,0,0,0-4.12-.79A26.92,26.92,0,0,0,336,253.45a24.2,24.2,0,0,0-6.27,6.21,19.8,19.8,0,0,0-3.33,8.14,16,16,0,0,0-.09,4.26,18.15,18.15,0,0,0,1,4.12,20.67,20.67,0,0,0,4.5,7.17,24,24,0,0,0,3.31,2.89,19.52,19.52,0,0,0,3.83,2.16,25.58,25.58,0,0,0,3.61,1.13,14.74,14.74,0,0,1,5.83,2.48,3,3,0,0,1,1.2,2.62,4.88,4.88,0,0,1-1,2.74c3.09,3.39,6.06,7,8.93,10.5h0c2.81,3.43,5.73,7,8.76,10.32,2.58,2.84,5.56,6.14,8.38,9.49l1,1.21c.76.92,1.62,1.83,2.54,2.79,2.38,2.51,4.85,5.11,5.74,8.08a3.94,3.94,0,0,1-.73,3.41A3.68,3.68,0,0,1,380.27,344.76Zm-25.94-63.49a3.63,3.63,0,0,1-2.05-.61,4.14,4.14,0,0,1-1.51-2l-.06-.18a14.74,14.74,0,0,0-2.9-4.82,4,4,0,0,1-1.52,1.42,1.52,1.52,0,0,1-.72.16,1.27,1.27,0,0,1-1.34-1,4.51,4.51,0,0,1,.63-3.22l.08-.12a25.07,25.07,0,0,0-4.75-3,19,19,0,0,0-4.91-1.66.33.33,0,0,1,0-.63,29.52,29.52,0,0,1,5.46-.59,16.68,16.68,0,0,1,6.86,1.4,21.53,21.53,0,0,1,5.82,3.79,36.84,36.84,0,0,1,4.67,5.16,3.11,3.11,0,0,1,.43,3.42A4.84,4.84,0,0,1,354.33,281.27Z" transform="translate(-59 -115.47)"/>
  <path id="_Ink-3" data-name=" Ink" d="M546.64,282.52c-1.15-2.9-6.22-2.36-5.71,1.09.57,3.95-.54,8.45-4.23,10.59-3.87,2.23-8.45.67-11.07-2.66-2.28-2.89-3.91-6.08-6.72-8.56a23,23,0,0,0-9.06-5,18,18,0,0,0-7.83-.39c-6.5-1.09-13.75,2.62-17.47,7.84-.24.34-.46.68-.68,1-.42-.52-.87-1-1.33-1.53a3.5,3.5,0,0,0-3.88-1.07,23.28,23.28,0,0,0-25.66.17c-6.36,4.26-11.49,10.29-19.56,11.18-6.39.71-13.57-2.56-14.41-9.58-.44-3.67-5.62-6.45-8.25-2.9-5.51,7.49-6.17,17.07-2.42,25.55,3.95,8.94,11.34,15,20.45,18.28,9.84,3.56,21.19,4.36,31.57,3.46s19.56-5.4,25.34-14.23a27.84,27.84,0,0,0,1.81-3.19c6.49,7.39,16.19,10.12,25.88,9.81,10.15-.31,22-2.75,28.77-11a29.4,29.4,0,0,0,4.46-28.92" transform="translate(-59 -115.47)"/>
  <path id="_Ink-4" data-name=" Ink" d="M483.5,289.33h0a21.88,21.88,0,0,1-7.87-1.59,39.93,39.93,0,0,1-9.26-5.25,3.6,3.6,0,0,1-1.3-2.06,4.24,4.24,0,0,1,.19-2.31,5.27,5.27,0,0,1,1.56-2.25,3.81,3.81,0,0,1,2.43-.95,3.5,3.5,0,0,1,1.88.58l.63.49a50.81,50.81,0,0,0,5.8,4,14.27,14.27,0,0,0,6.95,2.21,7.4,7.4,0,0,0,2.93-.58,8.26,8.26,0,0,0,2.74-1.93,8.39,8.39,0,0,0,1.59-6.75,12.74,12.74,0,0,0-3.39-6,24.92,24.92,0,0,0-5.12-4.14,1.58,1.58,0,0,1-.43-1.82,2.35,2.35,0,0,1,2.3-1.64,3.27,3.27,0,0,1,.54,0,17.39,17.39,0,0,1,6.05,2.19,13.8,13.8,0,0,1,4.06,3.74,14.86,14.86,0,0,1,2.59,9.95,16.57,16.57,0,0,1-1.32,5.22,15.24,15.24,0,0,1-3,4.48,14.34,14.34,0,0,1-10.55,4.33Zm24.21-32.21a5.32,5.32,0,0,1-3.17-1.08,9.24,9.24,0,0,1-2.56-3,20.65,20.65,0,0,1,0-18.67,9.24,9.24,0,0,1,2.56-3,5.16,5.16,0,0,1,6.34,0,9.37,9.37,0,0,1,2.56,3,20.65,20.65,0,0,1,0,18.67,9.37,9.37,0,0,1-2.56,3,5.32,5.32,0,0,1-3.17,1.08ZM436.34,257a6,6,0,0,1-5.09-3.86,14.41,14.41,0,0,1-.58-7.42,7.85,7.85,0,0,1,1-2.72l.14-.22,0-.32v-.24c-3.82-.23-7.82-.61-12.21-1.17l-1.36-.18c-.59-.08-1.23-.14-1.9-.22-3.18-.34-7.13-.77-9.46-2.63a.16.16,0,0,1-.05-.14.17.17,0,0,1,.09-.14,9,9,0,0,1,4.22-.84l.61,0,.25,0c1.89-.09,3.78-.18,5.62-.24l1.87-.06c5-.14,10.1-.39,14.39-.62l2.18-.13.32,0a8,8,0,0,1,2.72-.62h.28a6.14,6.14,0,0,1,1.9.3l5.25-.45,1.74-.16,2-.17a50.71,50.71,0,0,0,5.49-.64l.42-.08a10,10,0,0,1,2-.22,5.85,5.85,0,0,1,3.89,1.6,2.7,2.7,0,0,1,1,1.94,4.35,4.35,0,0,1-1,3.13c-1.69,2-3.37,2-5.49,2h-1.41c-2.3.09-4.61.16-6.87.19h-1.88a14.26,14.26,0,0,1-2.16,7.7,22,22,0,0,1-5.51,5.87,3.85,3.85,0,0,1-2.37.82Zm51.94-27.37h-.06c-2.62-.61-3.68-3.17-4.11-5.2a18.54,18.54,0,0,1,.06-7.12,19.19,19.19,0,0,1,3.53-7.45,18.43,18.43,0,0,1,6.34-5.26,20.49,20.49,0,0,1,9-2,22.09,22.09,0,0,1,8.08,1.53l.36.14a22.58,22.58,0,0,1,7.93,5.44,11.94,11.94,0,0,1,2.44,4,8.43,8.43,0,0,1,.29,4.64,4.89,4.89,0,0,1-2,3.07,5.83,5.83,0,0,1-3.34,1,6.5,6.5,0,0,1-3.86-1.23,4.75,4.75,0,0,1-2-3.51,9.42,9.42,0,0,0-3.74-3,12,12,0,0,0-4.79-1,10.67,10.67,0,0,0-5.59,1.51,15.5,15.5,0,0,0-5.6,7.11,21.64,21.64,0,0,0-.93,2.82,12.9,12.9,0,0,1-1.89,4.47.2.2,0,0,1-.17.06Z" transform="translate(-59 -115.47)"/>
</svg>
