<svg id="Layer_1" data-name="Layer 1" xmlns="http://www.w3.org/2000/svg" viewBox="0 0 455.69 663.87">
  <defs>
    <style>
      .cls-1 {
        fill: #ffe5c5;
      }

      .cls-2 {
        fill: #d6d6d6;
      }
    </style>
  </defs>
  <g id="body_Turtleneck" data-name="body Turtleneck">
    <path id="_Background" data-name=" Background" class="cls-1" d="M271.4,346.71c28.05-6.44,44.69-6.44,54.11-16.42s11.12-27.1,15-40.32c2.15-7.28,23.24-13.9,43.69-12.86C400.9,278,417.69,285.29,419,290c2.89,10.44,7.54,55.13,22.82,62s47.9.6,57.23,17,40,83.23,40,98.81-299.48,10.81-299.48,10.81S243.34,353.15,271.4,346.71Z" transform="translate(-118 -48)"/>
  </g>
  <g id="body_Hoodie" data-name="body Hoodie">
    <path id="_Background-2" data-name=" Background" class="cls-2" d="M560.08,700.7c10.83-.53,6.48-19.47,5.7-26.43-8.57-25.42-6.56-53.14-9.93-79.78-2.1-24.87-4.8-49.66-7.07-74.51-4.46-50.44-36.49-153.12-73-169.63-4.6-20.2-23.62-39.06-47.68-39.06C437,390,373,395,337,335c-10.47.48,8.93-42.47-1.1-40.33-7.9-3.67-55.47-1.21-65.45,4.72-7,3.57-13.24,10.17-11.19,18.57,3.26,10.18-6.88-.84-28,10-43.13,25.91-17.35,60.56-16.21,61.64-26.92,37.45-50.45,67.84-61.34,113.61-7,34-6.26,69.08-12.17,103.24a304,304,0,0,1-8.75,34.78c-3.75,15.06-5.58,52.57-7.65,52.91-3.77.94,2.18,8.68,6.17,8.69,110.77,18.37,223.28.76,334.64-2.12C497.28,699.65,528.7,699.4,560.08,700.7Z" transform="translate(-118 -48)"/>
    <path id="_Ink" data-name=" Ink" d="M392.6,711.87a1.31,1.31,0,0,1-1.32-1.27c-1.62-23.62-2.68-47.14-3.71-69.89v0c-.72-16.16-1.19-32.75-1.41-50.71h-2.31c-12.11.06-24.64.11-37,.11-10.54,0-19.92,0-28.67-.12h0l.09.14c1.56,3.7,1.74,8.4,1.69,12.52a61.2,61.2,0,0,1-1.72,13.61A70.65,70.65,0,0,1,314.4,628a87.37,87.37,0,0,1-5.71,11,121.43,121.43,0,0,1-15.12,19.56l-.37.39L292,660.12l0,0c-2.3,2.38-4.69,4.85-6.06,7.85a41.6,41.6,0,0,0-2.55,9.31l-.48,2.42-.1.45-3.18,14.7c-.22,1-.4,2.08-.59,3.22-.7,4.21-1.5,9-4.41,11.62a5.91,5.91,0,0,1-4,1.65,6.3,6.3,0,0,1-5.66-4.19c-1.07-2.69-.33-5.57.39-8.35h0c.12-.48.25-1,.36-1.44l5.88-24.71c1-4.14,2.05-8.14,4.1-11.71s5.19-6.33,8.43-9.12l0,0a108.36,108.36,0,0,0,8.66-8.35,102.87,102.87,0,0,0,7.64-9.28,89.58,89.58,0,0,0,11.52-21,75,75,0,0,0,3.36-11.56,53.4,53.4,0,0,0,.74-5.44,54,54,0,0,1,.82-5.82.71.71,0,0,1,.52-.5.34.34,0,0,1,0-.28.29.29,0,0,1,.23-.12l17.89-1.15c15.27-1,31.62-2.07,47.69-3.28l2.81-.21c-.2-20.57-.08-42.71.37-67.68.14-7.76.23-15.66.32-23.3v0c.14-12.7.29-25.83.68-38.75.31-10.58,1-21,1.7-30.76.58-8.2,1.46-16.49,2.31-24.5.24-2.23.48-4.53.72-6.82a.4.4,0,0,1,.79,0l.78,7.55c.87,8.39,1.85,18.13,2.53,27.69.83,11.59,1.39,23.26,1.65,34.67,1,41.88,1.12,84.41,1.2,121,5.31-.37,10.81-.73,16.36-1.09l11.11-.7,9.44-.57,3.89-.24,1.11-.08h0c.71-.07,1.43-.13,2.13-.13a5,5,0,0,1,4.21,1.72,2.74,2.74,0,0,1,.42,3.24c-1.48,2.39-3.68,2.46-6.22,2.56h-.54l-7.78.31c-4.91.19-10.73.41-16.66.58s-11.75.29-17.48.39c-.06,17-.76,33.84-1.53,51l-.35,7.65c-1,23.11-2,42.52-3.35,62.08A1.3,1.3,0,0,1,392.6,711.87Zm-167.7-2.21a3.49,3.49,0,0,1-3.1-1.75l.4.26a.35.35,0,0,0,.12.07s-.4-.33-1.28-1l-.94-1.22a7.64,7.64,0,0,1-1.3-3.27,19,19,0,0,1,.08-4.39c.05-.5.09-1,.13-1.51l2.16-33.41c.62-9.6,1.29-19.3,1.94-28.69,1.11-16.13,2.26-32.81,3.19-49.24.62-10.77,1.2-23.51.85-36.37-.2-7.31-.46-12.92-.84-18.18-.48-6.65-1.16-12.56-2.08-18.08a1.13,1.13,0,0,1,.25-.93,1.1,1.1,0,0,1,.81-.39,1,1,0,0,1,.86.51,78.63,78.63,0,0,1,5,9.2,84.37,84.37,0,0,1,3.7,9.59A104.13,104.13,0,0,1,239,551.2a166.78,166.78,0,0,1,.91,18.7c0,6.75-.34,13.55-.63,18.72-.72,13.16-1.56,26.32-2.43,39.77l-1.31,20.32-3.31,51a15.87,15.87,0,0,1-1,5.05,12.79,12.79,0,0,1-4.49,4.48,3.84,3.84,0,0,1-1.82.46Zm-98.33-.83a5.32,5.32,0,0,1-3.32-1.16,6.19,6.19,0,0,1-2-2.95,59.78,59.78,0,0,1-2.66-12.89,114.16,114.16,0,0,1-.52-13.2,152.74,152.74,0,0,1,2.79-26.24c2.13-11.65,5.1-23.32,8-34.62h0v0c1.33-5.21,2.7-10.6,4-15.91,1.76-7.37,3.26-14.88,4.45-22.31s2.12-15,2.75-22.59c.33-3.88.63-7.83.92-11.64v0c.89-11.69,1.81-23.77,3.63-35.57a162.87,162.87,0,0,1,5.2-22.67,155.71,155.71,0,0,1,8.5-21.64c6.78-14.05,15.31-26.95,22-36.62,5.06-7.32,10.27-14.3,15.49-20.74,5.57-6.87,11.35-13.37,17.17-19.32a6.67,6.67,0,0,1-3.21-1,9.7,9.7,0,0,1-3.52-4,16.81,16.81,0,0,1-1.51-5.2,72,72,0,0,1-.53-12.37,58.77,58.77,0,0,1,1.83-12.23,45.57,45.57,0,0,1,8.93-17.52,39.56,39.56,0,0,1,7.16-6.7,36,36,0,0,1,8.76-4.66A32,32,0,0,1,241,323.23h2.58l1.62,0a19.25,19.25,0,0,0,5.85-.72,10.57,10.57,0,0,0,5.45-4.55,39.21,39.21,0,0,0,3.28-6.66c.13-.31.26-.61.38-.91l.09-.2a40.94,40.94,0,0,1,4.25-7.94,24.69,24.69,0,0,1,6.37-6.32c5.93-4,13.42-5.7,19.29-6.7l.42-.07a98.17,98.17,0,0,1,16-1.38c11.2,0,21.12,2.23,29.45,6.63a.12.12,0,0,1,.06.14.12.12,0,0,1-.12.1h0l-4.45-.17c-5.38-.21-9.89-.35-14.42-.35-5.11,0-9.64.18-13.83.57a96.61,96.61,0,0,0-13.74,2.21l-1.42.34a60.45,60.45,0,0,0-7.47,2.22,24.18,24.18,0,0,0-6.74,3.78,18.84,18.84,0,0,0-4.42,5.54,61.84,61.84,0,0,0-3,6.52l-.17.42-.24.59a35.18,35.18,0,0,1-3.32,6.31,18.59,18.59,0,0,1-5,5.06,18,18,0,0,1-6.88,2.71,55.36,55.36,0,0,1-7.38.71h0c-1.12.06-2.29.12-3.42.21a24.67,24.67,0,0,0-7.6,1.85,28.12,28.12,0,0,0-6.63,3.94,32.28,32.28,0,0,0-5.46,5.56,34.67,34.67,0,0,0-4,6.69,48.09,48.09,0,0,0-4,18.41,58.92,58.92,0,0,0,.29,9.67,15.62,15.62,0,0,0,.81,2.68c.28.72.82,1.93,1.2,1.93h0a3.44,3.44,0,0,1,.46,0,2.87,2.87,0,0,1,2.7,1.71c3.59-3.47,7.23-6.78,10.83-9.84a207.68,207.68,0,0,1,29.79-21.21,193.21,193.21,0,0,1,25.27-12.87h-.1a4.25,4.25,0,0,0-1.95.47.28.28,0,0,1-.39-.11l0,0a.29.29,0,0,1,.06-.31,9.34,9.34,0,0,1,3.16-2.22,8.81,8.81,0,0,1,3.44-.66,12.14,12.14,0,0,1,2.81.34c.76-.24,1.46-.46,2.14-.65l.09,0a.29.29,0,0,1,.28.22.33.33,0,0,1-.13.37l-.82.53c3.62,1.21,7.15,3.57,10,5.47l.05,0c7.37,4.93,14.06,10.95,20.51,16.77l0,0,2,1.79,1.32,1.18a154.61,154.61,0,0,0,20.17,15.8,70.93,70.93,0,0,0,12,6.25c.81.32,1.73.61,2.71.92,3.32,1.05,7.09,2.25,8.39,5.18a3.4,3.4,0,0,1,.81,2.7,3.92,3.92,0,0,1-1.69,2.65,5.77,5.77,0,0,1-4.49,1.72,23.15,23.15,0,0,1-7.87-1.93,82.55,82.55,0,0,1-12.25-5.88,130.18,130.18,0,0,1-21.14-15.91c-4.52-4.09-8.95-8.42-13.23-12.61-2.17-2.12-4.41-4.31-6.64-6.46-1.4-1.33-2.79-2.7-4.15-4s-2.93-2.87-4.41-4.29l-1.45-1.37-.7-.66a27.94,27.94,0,0,0-5.1-4.16c-1.61,1-3.26,1.92-4.85,2.85-2.58,1.5-5.24,3.06-7.82,4.65-5.22,3.22-10.8,7-17.05,11.44a261.74,261.74,0,0,0-30.33,25.48c-4.23,4.14-8.44,8.54-12.5,13.1-3.93,4.4-7.83,9.07-11.62,13.88A354.24,354.24,0,0,0,182.13,442l-1,1.55c-4.29,6.86-7.62,12.54-10.47,17.88a161.36,161.36,0,0,0-8.67,18.8A138.92,138.92,0,0,0,155.8,502a212.72,212.72,0,0,0-3.24,22.46c-.65,6.89-1.11,13.9-1.56,20.68-.52,8-1.06,16.24-1.92,24.33-.75,7.18-1.89,14.64-3.47,22.82-1.29,6.68-2.87,13.84-5,22.53l-.87,3.56-.52,2.12,0,.13h0C136.15,633.12,133,646,131.38,659a159.55,159.55,0,0,0-1.32,22.17,158,158,0,0,0,1.7,18.07v0c.17,1.3.35,2.65.52,4a4.44,4.44,0,0,1-1.38,3.69,6.35,6.35,0,0,1-3.51,1.86A5.79,5.79,0,0,1,126.57,708.83Zm441-7.51a6.35,6.35,0,0,1-4.17-1.49,6,6,0,0,1-2-4.44,304.79,304.79,0,0,0-3.17-31.48c-1.54-10.41-3.47-20.94-5.34-31.12h0c-1.5-8.17-3.05-16.62-4.39-25-1.63-10.12-2.92-21.26-3.94-34-.92-11.4-1.55-23-2.16-34.27h0c-.77-14.37-1.58-29.23-3-43.76-.76-7.82-1.63-14.92-2.66-21.72-1.16-7.62-2.49-14.67-4.07-21.53a226.47,226.47,0,0,0-8.84-29.4,198.43,198.43,0,0,0-13-27.79c-2.63-4.61-5.35-8.95-8.1-12.91a130.87,130.87,0,0,0-9.38-12A162.24,162.24,0,0,0,474.75,352a4,4,0,0,1-2.88,1.12,5.23,5.23,0,0,1-2.82-.84,4.68,4.68,0,0,1-1.9-2.37,15.74,15.74,0,0,1-.68-4,20.86,20.86,0,0,0-.37-2.95,34.1,34.1,0,0,0-1.94-6.18,40.36,40.36,0,0,0-7-11,43.07,43.07,0,0,0-5-4.76,46.77,46.77,0,0,0-5.64-3.95,35.88,35.88,0,0,0-7.81-3.17c-1.58-.5-3.21-1-4.8-1.68a.16.16,0,0,1-.11-.16.15.15,0,0,1,.11-.14,13.58,13.58,0,0,1,4.51-.69,35.88,35.88,0,0,1,10.17,1.92,33.81,33.81,0,0,1,7.11,3.18,43,43,0,0,1,6.34,4.54,40.57,40.57,0,0,1,10,12.8l.23.47a45.53,45.53,0,0,1,3,7.7,16.85,16.85,0,0,1,.57,8c0,.14-.07.28-.12.41a103.6,103.6,0,0,1,13,7.55,89.06,89.06,0,0,1,11.64,9.5,128,128,0,0,1,11.72,13.12A143.7,143.7,0,0,1,522,395a164.87,164.87,0,0,1,8.13,15.39c2.35,5.09,4.53,10.47,6.48,16,1.85,5.25,3.55,10.81,5,16.53,1.42,5.36,2.71,11,3.85,16.91,2,10.38,3.63,21.67,4.93,34.5,1.2,11.9,2,23.65,2.68,34.57l.7,11.59c.86,13.93,1.67,25.64,2.84,37.46,1.36,13.8,3.06,26,5.2,37.21l.34,1.78c1,5.42,2.21,10.93,3.34,16.27h0c2.13,10.1,4.33,20.53,5.89,30.88.84,5.57,1.43,10.66,1.8,15.56a148.82,148.82,0,0,1,.42,15.66,6,6,0,0,1-2,4.46,6.28,6.28,0,0,1-4.12,1.48Zm-69.26-4.65a4.57,4.57,0,0,1-3.42-1.49c-3.16-3.42-3.39-8.94-3.59-13.81h0c-.05-1.38-.11-2.68-.22-3.89-.43-4.62-.93-9.29-1.48-13.9l-.28-2.31c-.11-.85-.21-1.72-.31-2.56a123.32,123.32,0,0,0-2.07-13.23,22.24,22.24,0,0,0-6.4-11.29c-1-1-1.95-1.92-2.91-2.84h0c-2.35-2.27-4.79-4.61-7-7.15a100.09,100.09,0,0,1-8.88-12.11A81.64,81.64,0,0,1,456,600.54l-.28-.66c-.28-.69-.6-1.4-.94-2.16-1.55-3.5-3.31-7.46-3.21-11a.25.25,0,0,1,.25-.23.26.26,0,0,1,.16.07,16.33,16.33,0,0,1,2.78,3.82c.31.52.62,1.05.95,1.55,1.37,2.11,2.8,4.16,4.26,6.11,3,4,6.42,7.85,9.66,11.39a138.13,138.13,0,0,0,9.88,9.78c1.3,1.16,2.68,2.3,4,3.4a72.56,72.56,0,0,1,7.29,6.62c6.62,7.21,8,16.92,9.42,26.31v0c.09.64.19,1.29.28,1.94l.17,1.07c.88,5.72,1.7,11.69,2.46,17.76h0c.33,2.66.7,5.68,1,8.65l.09.92a21.25,21.25,0,0,1,.06,4.22,8.72,8.72,0,0,1-1.36,4,5.6,5.6,0,0,1-2,1.85,5.52,5.52,0,0,1-2.6.69Zm34.29-2a6.06,6.06,0,0,1-4.9-2.81c-1.85-2.65-2-6.85-2.12-10.55,0-1.32-.09-2.57-.2-3.69-.53-5.12-1-9.27-1.46-13.06-1.07-8.6-2.5-17.27-3.88-25.36-1.63-9.5-3.69-19.1-5.68-28.39-1.68-7.84-3.43-16-4.9-24-3.82-20.83-5.64-38.07-5.73-54.27-.07-12.52.83-25.24,1.69-37.53h0c.41-5.79.83-11.77,1.14-17.66.92-17.17,2-35.48,3.36-56a.41.41,0,0,1,.43-.4.39.39,0,0,1,.41.38v0c.09,4.31.18,8.66.29,13.86.18,8.5.29,17.15.4,25.52h0c.18,14.12.37,28.73.88,43.08.56,16.1,1.46,30.16,2.75,43,.83,8.24,2,16.77,3.63,26.06,1.35,7.77,3,16.22,5.13,25.82.93,4.27,1.9,8.59,2.84,12.77v0c1,4.42,2,9,3,13.51.34,1.58.7,3.19,1,4.74l0,.19c1.51,6.82,3.06,13.88,4.26,20.86a258,258,0,0,1,3.34,25.64l.07,1.12c.05.79.13,1.65.22,2.55a46.9,46.9,0,0,1,.3,6,10.93,10.93,0,0,1-1.36,5.4,5.93,5.93,0,0,1-5,3ZM390.76,384.42a15.33,15.33,0,0,1-6.65-1.61,36.83,36.83,0,0,1-5.95-3.76l-.43-.33c-4.4-3.32-8.34-6.5-12.06-9.71a189.89,189.89,0,0,1-22.28-22.38,155.08,155.08,0,0,1-9.46-12.49,82.38,82.38,0,0,1-7.59-13.69.63.63,0,0,1,.06-.62.55.55,0,0,1,.45-.26.6.6,0,0,1,.4.18c2.1,2,4.08,4.08,5.74,5.85,0-1.21-.06-2.46-.14-3.66a31.5,31.5,0,0,1-.05-5.23c.11-1.08.18-2.21.25-3.31a34.72,34.72,0,0,1,1.05-7.75,6.62,6.62,0,0,1,6.29-4.75,6.28,6.28,0,0,1,1.67.22,7,7,0,0,1,4.15,3.53,5.47,5.47,0,0,1,.38,4.44,38.55,38.55,0,0,1-4,7.26h0c-.55.84-1.12,1.72-1.66,2.6a34.94,34.94,0,0,1-3.27,4.29,37.71,37.71,0,0,0-3.1,4l2.06,2.21c.91,1,2,2.13,3.1,3.28l3.59,3.72c2.66,2.75,5.52,5.68,8.48,8.54,5.08,4.89,9.07,8.59,12.94,12,4.8,4.23,9.28,7.87,13.69,11.13,2,1.45,4.26,3.12,6.59,4.67l.84.55a9,9,0,0,0,4.69,1.85l.42,0c3.86-.35,7.41-3.92,10.27-6.78.51-.51,1-1,1.44-1.42l.16-.16a174,174,0,0,0,21-23.92c1.33-1.84,2.65-3.75,4-5.83-2.44-2.84-2.43-7.89-2.43-11.95h0c0-1,0-1.87,0-2.68-.11-2.82-.13-5.68-.14-8.45v-1.38c0-1.87-.08-3.64,1.14-5.18a.23.23,0,0,1,.17-.08.28.28,0,0,1,.15,0c1.58.83,2.16,2.16,2.82,3.71l0,.06.15.34.08.18c.69,1.58,1.38,3.21,2,4.77h0l0,.06.56,1.31c.79,1.86,1.53,3.78,2.25,5.63l.34.87c.35.91.72,1.9,1.13,3.05l.7,1.95.05.05a5.37,5.37,0,0,1,.81.84,4.07,4.07,0,0,1,2.09,2.65c.75,2.68-.69,4.88-2.07,7l-.21.32a175.79,175.79,0,0,1-20,25.51c-3.65,3.85-7.56,7.6-11.61,11.13l-.71.61a41.38,41.38,0,0,1-5.75,4.3,18.19,18.19,0,0,1-6.67,2.51A14,14,0,0,1,390.76,384.42Z" transform="translate(-118 -48)"/>
  </g>
  <g id="head_Shaved_2" data-name="head Shaved 2">
    <path id="_Background-3" data-name=" Background" class="cls-1" d="M477.47,138.79c-3.85-13.88-3.3-15.37-9-28.63-19-38.51-146.28-25.62-159.26,12.83-7.05,20.85-5.39,50.22-7.23,68.3l-1.68,28.77-.6,9.93q-.59,9.66-1.14,19.33c-2.39,19.86,7.59,21.88,24.71,21.3a70.39,70.39,0,0,0,20.91,27.45c-2.19,5.94,5.74,9,10,11.39,23.26,13,51.83,20.91,77.6,13.61,7.57-2.14,38.83-9.58,48.44-32.58,4.72-11.3,14.32-69.8,1.66-122.43Z" transform="translate(-118 -48)"/>
    <path id="_Ink-2" data-name=" Ink" d="M417.87,329.54a90.18,90.18,0,0,1-18.46-1.92,60.8,60.8,0,0,1-10.14-3.08,38.09,38.09,0,0,1-9.49-5.87,2.32,2.32,0,0,1-.72-2.45,3.17,3.17,0,0,1,.68-1.31,2.22,2.22,0,0,1,1.22-.72l1.33-.27c.86-.18,1.74-.37,2.62-.53l.3,0a2.15,2.15,0,0,1,1.61.81,1.56,1.56,0,0,1,.36,1.31l2.55.66,2.55.67,1.27.34a101,101,0,0,0,11,2.47,78.12,78.12,0,0,0,12.32,1,85.68,85.68,0,0,0,10.62-.68,78.44,78.44,0,0,0,18.88-4.71,59.11,59.11,0,0,0,16.75-9.79A48.19,48.19,0,0,0,475,290.82a45.93,45.93,0,0,0,3.94-11.26,118.23,118.23,0,0,0,1.85-11.83,265.51,265.51,0,0,0,1.69-34.41c-.12-10.39-.75-21.65-1.92-34.42-1.09-12-2.63-24-4-34.16-.22-1.62-.45-3.28-.66-4.88v0h0c-.56-4.12-1.14-8.38-1.64-12.58a12.44,12.44,0,0,1-4.33-2.1,4.31,4.31,0,0,1-1.64-2.25,5.69,5.69,0,0,1-3.52-2.22l-.12-.16c-2.49-3.61-6.89-5.6-10.44-6.94-2-.77-4.13-1.46-6.16-2.12l-.94-.31c-.68-.23-1.39-.49-2.07-.74a25.36,25.36,0,0,0-5.61-1.61,12.58,12.58,0,0,0-1.5-.09c-1,0-2,.1-3,.19h0c-1,.09-2,.19-3,.19a12.81,12.81,0,0,1-1.39-.07,11.26,11.26,0,0,1-7-3.2,10.19,10.19,0,0,1-1.74-2.29,38.76,38.76,0,0,1-8.11.76c-2.74,0-5.55-.2-8.28-.38h0c-2.74-.19-5.58-.38-8.39-.38-1.13,0-2.17,0-3.18.09a32.37,32.37,0,0,0-8.36,2.05c-3,1-6.07,2.07-9.31,2.07h-.24a7.18,7.18,0,0,1-4.57-1.67A116,116,0,0,0,356,130.46h0l-2.17.73c-3.18,1.07-6.33,2.36-9.38,3.62-2.22.91-4.52,1.86-6.81,2.71h0a4.12,4.12,0,0,1-1.58,2.22,4.33,4.33,0,0,1-2.52.74,6.35,6.35,0,0,1-1-.08,46.94,46.94,0,0,1-11.08-4,52.27,52.27,0,0,0-9.62-3.67c-.38,1.37-.76,2.76-1.14,4.1-1.58,5.68-3.22,11.56-4.4,17.49a218.51,218.51,0,0,0-3.17,22.37c-.66,7.3-1,14.94-1,22.68,0,3.32.07,6.89.23,11.58,0,.67.06,1.38.11,2.12.17,2.73.36,5.84-.56,8.29l-.1.26h0a.76.76,0,0,1-.69.52.59.59,0,0,1-.45-.21c-1.95-2.27-2.57-5.69-3.12-8.71-.07-.38-.14-.74-.2-1.09-.65-3.38-1.14-7-1.6-11.75-.38-3.92-.61-7.9-.7-11.83s0-7.91.17-11.86A194.91,194.91,0,0,1,297.81,153a138.49,138.49,0,0,1,6-23.11h-.15c-.47,0-1.15-.23-1.71-1.32a6.67,6.67,0,0,1-.63-2.32,35.54,35.54,0,0,1,.69-8.41l.49-2.85a47.85,47.85,0,0,1,1.87-7.93,67,67,0,0,1,9.3-17.54,68.75,68.75,0,0,1,14.19-14.31,70.89,70.89,0,0,1,17.68-9.68,3.33,3.33,0,0,1,1.21-.23,3.08,3.08,0,0,1,1,.16A171.5,171.5,0,0,1,384.33,51c3.48-.94,7.61-2,11.81-2.75a17.8,17.8,0,0,1,2.91-.27c3.17,0,5.45,1.15,6.78,3.42a6.93,6.93,0,0,1,.86,2.28,80.21,80.21,0,0,1,17.54-1.91,89.11,89.11,0,0,1,12.54.91,3.62,3.62,0,0,1,2.76,2.14,5.08,5.08,0,0,1,0,4.56c-.13.22-.27.46-.42.69a52.71,52.71,0,0,1,9.4,1.64,5.15,5.15,0,0,1,3.09,2.69,3.75,3.75,0,0,1,.21,3.12l-.26.59h0v0a32.34,32.34,0,0,1,7.13,2.07A31,31,0,0,1,465.16,74a6,6,0,0,1,1.32,1.38,42.4,42.4,0,0,1,4.91-.27,46,46,0,0,1,21.8,5.54A5.14,5.14,0,0,1,495.6,84a4.54,4.54,0,0,1-.57,3.66,22.75,22.75,0,0,1-1.54,2,19.57,19.57,0,0,1,4.94,2.64,15.24,15.24,0,0,1,3.87,4.25,16.4,16.4,0,0,1,2.21,6.21,15.36,15.36,0,0,1-.44,6.5,11.64,11.64,0,0,1,3,10.69,10.57,10.57,0,0,1-6,7.43,5.27,5.27,0,0,1-1.22,5.23,20.65,20.65,0,0,1-7.16,4.83,4.55,4.55,0,0,1-.53,2.07,14.79,14.79,0,0,1-5.36,5.63,17.18,17.18,0,0,1-7.51,2.51c1.79,7.54,3.28,15.25,4.65,22.5,1.28,6.8,2.4,13.56,3.32,20.1,1,6.84,1.75,13.65,2.33,20.23l.14,1.68A334.73,334.73,0,0,1,491.08,247c-.11,6.06-.46,11.93-1,17.45a171.15,171.15,0,0,1-2.59,17.16,52,52,0,0,1-3.31,10.33,54.61,54.61,0,0,1-5.28,9.33,58.49,58.49,0,0,1-7,8.17,63.4,63.4,0,0,1-8.38,6.87,73.27,73.27,0,0,1-20,9.46,88.7,88.7,0,0,1-21.81,3.7C420.48,329.51,419.17,329.54,417.87,329.54Zm-65.52-19.92a11.15,11.15,0,0,1-5.38-1.77,43,43,0,0,1-4.69-3.24l-.45-.33a64.32,64.32,0,0,1-10.56-9.7,52.82,52.82,0,0,1-7.91-12.23,29.91,29.91,0,0,1-2.35-7.73,21.17,21.17,0,0,1-8.34,1.68,22.46,22.46,0,0,1-12.55-3.76,21.39,21.39,0,0,1-8-10.74A40.1,40.1,0,0,1,290,248.33v-.54a47.57,47.57,0,0,1,.52-6.74,35.69,35.69,0,0,1,1.67-6.68,20.25,20.25,0,0,1,8.08-10.59A15.93,15.93,0,0,1,304.5,222a18.91,18.91,0,0,1,5-.68,13.12,13.12,0,0,1,5.82,1.22,7.88,7.88,0,0,1,3.92,4.1.3.3,0,0,1,0,.29.42.42,0,0,1-.35.19h-.09l-.71-.18a17.82,17.82,0,0,0-4.29-.65,9.72,9.72,0,0,0-3.65.71,15.47,15.47,0,0,0-6.52,4.67,17.33,17.33,0,0,0-2.3,4.09,22.77,22.77,0,0,0-1.25,4.52,40.6,40.6,0,0,0-.38,9.41l0,.3a27,27,0,0,0,1.64,8.3,13.76,13.76,0,0,0,2.07,3.63,9.91,9.91,0,0,0,3.25,2.64,14.94,14.94,0,0,0,6.87,1.23h1.84a31.39,31.39,0,0,1,9.53,1.36,2.73,2.73,0,0,1,1.81,2,2.31,2.31,0,0,1-.69,2.26,15.4,15.4,0,0,1-1.52,1.26c1.92,2,3.36,3.65,4.68,5.23,2.58,3.08,5.34,6.06,8.17,8.86a74.31,74.31,0,0,0,8.85,7.59c1.22.87,2.54,1.65,3.82,2.41a31.08,31.08,0,0,1,6.35,4.51,4.23,4.23,0,0,1,1.28,3.2,5.49,5.49,0,0,1-1.28,3.22A5,5,0,0,1,352.35,309.62ZM326.1,250.91a7.85,7.85,0,0,1-4.54-1.56,17.49,17.49,0,0,1-2.62-2.54,18.59,18.59,0,0,0-2.5-2.44,10.79,10.79,0,0,0-6.47-2,12.44,12.44,0,0,0-6.49,1.79.23.23,0,0,1-.32-.05v0a.31.31,0,0,1,0-.28,13.67,13.67,0,0,1,2.1-3.12,12.73,12.73,0,0,1,2.81-2.31,13.69,13.69,0,0,1,7.11-1.93h.3a16.39,16.39,0,0,1,8,2.56l.25.15c.57.34,1.19.66,1.84,1h0a25.09,25.09,0,0,1,3.06,1.77,6.63,6.63,0,0,1,2.23,2.5,4.09,4.09,0,0,1-.62,4.81A5.64,5.64,0,0,1,326.1,250.91Z" transform="translate(-118 -48)"/>
  </g>
  <path id="_Ink-3" data-name=" Ink" d="M430.32,302.5a21.33,21.33,0,0,1-7.67-1.33l-.36-.15c-3.34-1.38-6.33-4.12-7.45-6.82a4.41,4.41,0,0,1,1.77-5.88,1.36,1.36,0,0,1,.81-.22,2.83,2.83,0,0,1,1.89.75c3,3.16,5.75,3.82,7.56,3.82H427a13.17,13.17,0,0,0,6.34-2.07l1.35-.77a14.35,14.35,0,0,1,4.12-1.77,8.06,8.06,0,0,1,1.55-.15,9.86,9.86,0,0,1,3.44.65,9.72,9.72,0,0,1,2.92,1.7,4.66,4.66,0,0,1,1.66,2.59,3.06,3.06,0,0,1-.68,2.45,15.71,15.71,0,0,1-4.73,4,25.11,25.11,0,0,1-6.52,2.52A26.58,26.58,0,0,1,430.32,302.5ZM434,271.63h0a24.63,24.63,0,0,1-8.77-1.77A44.52,44.52,0,0,1,414.91,264a3.89,3.89,0,0,1-1.44-2.29,4.78,4.78,0,0,1,.2-2.57,5.88,5.88,0,0,1,1.74-2.51,4.21,4.21,0,0,1,2.7-1.06,3.9,3.9,0,0,1,2.1.64l.7.55a56.41,56.41,0,0,0,6.46,4.49,15.91,15.91,0,0,0,7.74,2.46,8.36,8.36,0,0,0,3.27-.64,8.94,8.94,0,0,0,3-2.16,9.33,9.33,0,0,0,1.78-7.51,14.26,14.26,0,0,0-3.77-6.67,27.24,27.24,0,0,0-5.71-4.61,1.76,1.76,0,0,1-.48-2,2.64,2.64,0,0,1,.88-1.27,2.7,2.7,0,0,1,1.68-.56,4.07,4.07,0,0,1,.61,0,19,19,0,0,1,6.73,2.44,14.88,14.88,0,0,1,4.52,4.17A16.52,16.52,0,0,1,450.55,256a18.35,18.35,0,0,1-1.48,5.82,16.77,16.77,0,0,1-3.33,5A16,16,0,0,1,434,271.63Zm-52.88-27h0a15.62,15.62,0,0,1-4.25-.58,17.83,17.83,0,0,1-5.5-3,29.25,29.25,0,0,1-5.84-6c-3.6-5-3.93-9.2-3.58-11.85a2,2,0,0,1,1-1.42,3.31,3.31,0,0,1,1.3-.42l.26,0a2.3,2.3,0,0,1,1.12.28,1.85,1.85,0,0,1,.92,1.37,13.49,13.49,0,0,0,4,7.34c2.78,2.83,6.35,4.78,8.3,5.17a6.9,6.9,0,0,0,1.36.14,5.93,5.93,0,0,0,4.34-1.92l.21-.22a12.93,12.93,0,0,0,2.32-3.85,21.14,21.14,0,0,0,1.22-4.35,5.47,5.47,0,0,1,2.15-3.65,5.27,5.27,0,0,1,3.16-1,5.86,5.86,0,0,1,1,.09,5.39,5.39,0,0,1,3.71,2.39,4.51,4.51,0,0,1,.2,4.25c-.35.83-.69,1.69-1,2.53h0l-.29.73c-1.5,3.78-3.1,7.4-6.21,10.19a14.83,14.83,0,0,1-10,3.79Zm77.39-10h0a13.57,13.57,0,0,1-2.77-.29,14.83,14.83,0,0,1-4.89-2.3,17.09,17.09,0,0,1-4.41-4.32,8.62,8.62,0,0,1-1.6-4.4,5,5,0,0,1,.36-2.19,8.09,8.09,0,0,1,1.82-2.55,1.77,1.77,0,0,1,.56-.09,2,2,0,0,1,1.27.48,10.68,10.68,0,0,1,2,2.69l.17.27a9.34,9.34,0,0,0,.9,1.29,8.76,8.76,0,0,0,4.93,2.95,6.24,6.24,0,0,0,1,.08,5.87,5.87,0,0,0,3.61-1.28,8.24,8.24,0,0,0,2.87-4.78,3.93,3.93,0,0,1,1.1-2,4.83,4.83,0,0,1,2-1.18,4.4,4.4,0,0,1,5.26,2.48,5.12,5.12,0,0,1,.25,2.85,15.39,15.39,0,0,1-6.3,9.65A14.1,14.1,0,0,1,458.5,234.6Zm-104-29.3h0c-.63-.06-1.26-.09-1.88-.09-.44,0-.88,0-1.31,0l-.46,0h-.11a.68.68,0,0,1-.66-.46.63.63,0,0,1,.28-.7c1.1-.74,2.16-1.51,3.18-2.26a46.87,46.87,0,0,1,8.48-5.26,82.74,82.74,0,0,1,11.73-4.2l1.53-.42,1.55-.42,1.06-.28c3.59-.94,6.51-1.59,9.19-2.06a53.76,53.76,0,0,1,9.3-.9,34.21,34.21,0,0,1,3.92.22,6.4,6.4,0,0,1,3.4,1.33,4.84,4.84,0,0,1,1.71,3.17,5.65,5.65,0,0,1-.79,3.57,4.27,4.27,0,0,1-2.94,2.15A121,121,0,0,1,389,199.92a118.82,118.82,0,0,0-12.92,1.19c-2.8.46-5.62,1-8.36,1.54h0c-1.4.27-2.83.55-4.25.81-1.87.35-3.82.57-5.69.78-1.33.15-2.7.31-4,.51l.74.1a.19.19,0,0,1,.16.22h0A.22.22,0,0,1,354.45,205.3Zm122.37-2.38a14.52,14.52,0,0,1-5.06-1.28c-.51-.2-1-.4-1.55-.58l-1.62-.56a76.52,76.52,0,0,0-7.4-2.19,40.83,40.83,0,0,0-9.08-1.08h-.43c-.92,0-1.87.09-2.79.17s-2.06.18-3.08.18a10.06,10.06,0,0,1-3.95-.68,6.06,6.06,0,0,1-3.67-4.22,4.74,4.74,0,0,1,1.41-4.34,11.15,11.15,0,0,1,4.73-2.75,19.82,19.82,0,0,1,5.88-.79,39,39,0,0,1,13.42,2.65,31.56,31.56,0,0,1,10.36,6.1l.3.28.45.43a17.51,17.51,0,0,1,2.85,3.45,6.56,6.56,0,0,1,1.1,4.1,1.08,1.08,0,0,1-.78,1,6.59,6.59,0,0,1-1.09.09Z" transform="translate(-118 -48)"/>
</svg>
