<svg xmlns="http://www.w3.org/2000/svg" xmlns:xlink="http://www.w3.org/1999/xlink" viewBox="0 0 439.33 667.76">
  <defs>
    <style>
      .cls-1 {
        fill: none;
      }

      .cls-2 {
        fill: #ffdbac;
      }

      .cls-3, .cls-4 {
        fill: #ba1313;
      }

      .cls-4 {
        stroke: #000;
        stroke-miterlimit: 10;
        stroke-width: 5px;
      }

      .cls-5 {
        clip-path: url(#clip-path);
      }
    </style>
    <clipPath id="clip-path" transform="translate(-61 -33.32)">
      <path id="_Ink" data-name=" Ink" class="cls-1" d="M218.63,323a82.3,82.3,0,0,0,12-.92,64.78,64.78,0,0,0,13.6-3.39,25.81,25.81,0,0,0,6.37-3.48,29.35,29.35,0,0,0,5.19-5.14,4.24,4.24,0,0,0,.42-4.13,2.45,2.45,0,0,0-2.29-1.55,2.6,2.6,0,0,0-.4,0,72,72,0,0,0-13.3,2.7l-.63.2a63.91,63.91,0,0,1-13.63,3,69.33,69.33,0,0,1-7.05.35,67.76,67.76,0,0,1-21.12-3.32,60.46,60.46,0,0,1-10.65-4.69,65.54,65.54,0,0,1-9.66-6.62,68.67,68.67,0,0,1-24.34-43.31c-1.56-9.38-1.7-19.05-1.64-27.26.15-19.54.76-40,1.83-60.74l.18-3.38c.45-8.55,1-19.83,1.55-31.24.17-3.82.41-6.94.76-9.82a25.47,25.47,0,0,0,9.06-9,87.88,87.88,0,0,0,12.93,4.2,75.29,75.29,0,0,0,18.47,2.34,70.68,70.68,0,0,0,10.87-.84,84.46,84.46,0,0,0,8.06,3l2.21,1a132.36,132.36,0,0,0,20.21,7.18l1.7.44a68.51,68.51,0,0,0,11.52,2.13,15.68,15.68,0,0,0,2.08.66,32.65,32.65,0,0,0,8,1c1,0,1.92,0,2.87-.12a5.35,5.35,0,0,0,4.31-2.87,4.65,4.65,0,0,0,.51-2.2,5,5,0,0,0-.67-2.39c-1.41-2.49-2.86-5-4.31-7.55a131.59,131.59,0,0,0,15.5,5.51c4.68,1.36,9.78,2.64,16.07,4,1.42.32,2.87.62,4.28.91h0c1.43.3,2.9.6,4.35.92.46.1,1,.19,1.51.29,1.91.33,4.08.71,5.38,1.8s2.06,3.57,2.62,5.67c.15.59.3,1.16.46,1.65,1,3.06,1.83,5.89,2.58,8.67q2.37,8.73,3.86,17.68a173.28,173.28,0,0,1,2.05,18c.15,2.49.21,5,.28,7.49.08,3.49.17,7.11.53,10.64a4.25,4.25,0,0,0,1.22,2.63,3.37,3.37,0,0,0,2.39,1,3.65,3.65,0,0,0,2.47-1l.87-.79.42-.4a45.1,45.1,0,0,0,5.81-6.38c.29-.42.58-.87.86-1.34a.21.21,0,0,0,.13,0l.46-.36c4.88-3.75,9.08-5.65,12.49-5.65a7.44,7.44,0,0,1,6.17,3.13,20.56,20.56,0,0,1,3.08,7.29l1.19,4.57a84.6,84.6,0,0,1,1.91,9.05,36.07,36.07,0,0,1,0,10.63,19.7,19.7,0,0,1-4.11,9.6,11.57,11.57,0,0,1-7.14,4.18,8.47,8.47,0,0,1-1.23.08,20.67,20.67,0,0,1-2.83-.26h0l-.58-.07a7.71,7.71,0,0,0-1.18-.07c-.42,0-.84,0-1.25,0h0c-.41,0-.84,0-1.26,0a9.71,9.71,0,0,1-1,0h-.28a2.48,2.48,0,0,0-2.18,1.29,3.85,3.85,0,0,0-.2,3.51,12,12,0,0,0,1.78,2.72,17.55,17.55,0,0,0-1.56,1.55,7.87,7.87,0,0,0-3.81,2.93,6.88,6.88,0,0,0-1.29,3.64c-.08.29-.15.6-.23,1l-1.36,2.27c-.33.56-.62,1-.89,1.48A70.36,70.36,0,0,1,320,271.52c-1.7,1.6-3.48,3.16-5.2,4.67a114.83,114.83,0,0,0-8.67,8.14l-.51.54a34.33,34.33,0,0,0-5.44,7.27,12.22,12.22,0,0,0-1.24,8.76,3,3,0,0,0,2.76,2.14,2.13,2.13,0,0,0,1.3-.44c2.77-2.12,4.76-5.05,6.68-7.88a51.51,51.51,0,0,1,4.22-5.62c2.06-2.25,4.26-4.42,6.39-6.52h0c2.07-2,4.21-4.16,6.21-6.34a51.21,51.21,0,0,0,9.16-14.14,7.22,7.22,0,0,0,5.07,2.14,6.79,6.79,0,0,0,3.83-1.21,8,8,0,0,0,2.67-3.12,22.23,22.23,0,0,0,2.7,1.06,5.4,5.4,0,0,0,1.59.26,4.67,4.67,0,0,0,4-2.35,6.58,6.58,0,0,0,.94-2.88,6.41,6.41,0,0,0-.51-3.09,19.81,19.81,0,0,0-3.68-5.68,23,23,0,0,0,12.55-6.29,26.93,26.93,0,0,0,7.08-14.07,40.84,40.84,0,0,0,.69-8,52.67,52.67,0,0,0-.72-8,82.07,82.07,0,0,0-4.59-16.41c-.4-1-.78-1.9-1.17-2.73a.8.8,0,0,0,.62-.31c.48-.67,1-1.31,1.5-1.93a18.64,18.64,0,0,0,2.64-3.87l.64-1.34a46.57,46.57,0,0,0,2.13-4.85,61.5,61.5,0,0,0,2.82-13.76,107.15,107.15,0,0,0-.75-27.94,114.79,114.79,0,0,0-16.45-44.26,7.73,7.73,0,0,0,1.3-.9l.2-.18.33-.31A5.69,5.69,0,0,0,362.77,88a6.58,6.58,0,0,0-1.72-4.64l-.69-.71A17.88,17.88,0,0,0,357.31,80l-.63-.41A6.68,6.68,0,0,0,354,70.71a10.79,10.79,0,0,0-5.25-1.2,18.37,18.37,0,0,0-7.83,1.85,100.8,100.8,0,0,0-20.54-14.7,193.82,193.82,0,0,0-28-12.22,237.14,237.14,0,0,0-29.41-8.1,129.14,129.14,0,0,0-26.49-3c-1.22,0-2.43,0-3.62.06l-.78,0a85.67,85.67,0,0,0-12.27,1.19A29.8,29.8,0,0,0,208.23,39a1.45,1.45,0,0,0-1-.45,1.13,1.13,0,0,0-.54.13c-7.29,3.59-15.26,6.26-23,8.85l-1.83.62a109.23,109.23,0,0,1-25.45,5.34,5.18,5.18,0,0,0-2.52.94,5.24,5.24,0,0,0-1.73,2,4.22,4.22,0,0,0,.28,4.19c.5.8,1,1.6,1.44,2.34l-.72-.08h0l-1.66-.18h-.35a4.56,4.56,0,0,0-3.3,1.63A5.11,5.11,0,0,0,146.45,68c.09,1.64.27,3.27.52,4.9h-.18A6.75,6.75,0,0,0,140,78.8a26.75,26.75,0,0,0-.12,7.22c.55,6.87,3.11,13.31,7,17.66a28,28,0,0,0-4,5.59,31.49,31.49,0,0,0-2.68,6.65,32.61,32.61,0,0,0-1.24,10.9l.09,1.1c.34,4.16,1,8.41,3.74,11.2A5.8,5.8,0,0,0,147,141l.59,0c-1,9.2-1.67,18.62-2.26,27.48l-.28,4.38c-.79,12.29-1.32,22.4-1.66,31.81-.43,11.53-.57,21.94-.45,31.84a141.47,141.47,0,0,0,.92,14.7,105.8,105.8,0,0,0,2.66,14.25A82.72,82.72,0,0,0,151.34,279a72.92,72.92,0,0,0,7.39,12.61,80.86,80.86,0,0,0,8.87,10.22A79.53,79.53,0,0,0,178,310.31a74.61,74.61,0,0,0,11.63,6.53,69.85,69.85,0,0,0,12.63,4.28A71.33,71.33,0,0,0,218.63,323Zm118.51-99.64h.11a6.69,6.69,0,0,0,4.37-1.82,22.77,22.77,0,0,0,3.16-3.81l1-1.36a4.62,4.62,0,0,0,1.06,1.34l.29.23a5.21,5.21,0,0,0,3.18,1.33h.17a6,6,0,0,0,2.61-.73,4.83,4.83,0,0,0,2.15-2.59,5.71,5.71,0,0,0-1.93-6.64l.38-.27a7.85,7.85,0,0,0,2.14-2.12l.13-.22h-.05a2.16,2.16,0,0,0-.7-2.91,2.06,2.06,0,0,0-.48-.21,6.14,6.14,0,0,0-1.9-.3c-2.69,0-5.67,1.44-8.07,2.59l-.73.35a43.12,43.12,0,0,0-10.1,7.23,5.91,5.91,0,0,0-1.44,5.64l0,.12c0,.16.06.32.1.48a4.44,4.44,0,0,0,1.69,2.6A4.72,4.72,0,0,0,337.14,223.36Z"/>
    </clipPath>
  </defs>
  <g id="Layer_1" data-name="Layer 1">
    <g id="body_Turtleneck" data-name="body Turtleneck">
      <path id="_Background" data-name=" Background" class="cls-2" d="M365.83,357.27c-26.77-5.9-42.65-5.9-51.64-15S302.73,308.11,299,296c-2.05-6.67-21.33-3.42-40.84-2.47-15.91.78-31.94,7.49-33.18,11.78-2.76,9.56-7.19,50.49-21.77,56.77s-45.72.56-54.62,15.57-38.14,76.22-38.14,90.49,285.8,9.9,285.8,9.9S392.6,363.17,365.83,357.27Z" transform="translate(-61 -33.32)"/>
      <path id="_Ink-2" data-name=" Ink" d="M489.19,701.07h0a10.77,10.77,0,0,0,6.75-2.14,9.88,9.88,0,0,0,2.64-3,11.63,11.63,0,0,0,1.31-3.51,33.94,33.94,0,0,0,.4-7.77v-.11c0-.17,0-.34,0-.51-.06-2.77-.13-5.54-.19-8.31s-.12-5.51-.19-8.27c-.21-9.4-.36-19-.51-28.23h0c-.28-17.15-.57-34.89-1.23-52.32-.74-19.56-1.88-36.62-3.48-52.17-1.15-11-2.48-20.91-4.08-30.22A296.18,296.18,0,0,0,484,474.64c-1.39-5-2.92-9.91-4.55-14.57-1.71-4.88-3.57-9.66-5.55-14.19-2.06-4.72-4.3-9.33-6.66-13.7-2.45-4.53-5.11-8.95-7.89-13.12a175.62,175.62,0,0,0-35.48-38.63,195.24,195.24,0,0,0-21.53-15.15A205.12,205.12,0,0,0,379,353.09a225.7,225.7,0,0,0-25.29-9.51c-4.26-1.31-8.66-2.36-12.91-3.38h0c-3.62-.87-7.37-1.76-11-2.81-3.88-1.12-6.45-2-9.35-4.11h0l-.22-.2c-.19-.15-.43-.36-.51-.43L319,332c-.24-.26-.37-.4-.45-.47-.21-.29-.4-.61-.57-.89a14.49,14.49,0,0,1-1.46-4.47v0l-.09-.39a25.68,25.68,0,0,0-1.14-4A10,10,0,0,0,313,318.2a13.77,13.77,0,0,0-4.74-3.12,6.15,6.15,0,0,0-2.43-.47,6.77,6.77,0,0,0-1.85.25,7.91,7.91,0,0,0-3.33-3.67h0l0,0a9.46,9.46,0,0,0-1.12,5.27h0c0,.24,0,.49,0,.73,0,1.24-.05,2.58-.11,3.9-3.34,2.28-7.84,3.07-11.8,3.76l-1.59.28c-8.37,1.53-14.83,2.48-21,3.09-5.26.53-10.71.8-16.18.8-1.82,0-3.68,0-5.53-.09-3.52-.11-7.09-.34-10.6-.69-.95-.1-2-.28-3.09-.48a31.2,31.2,0,0,0-5.19-.64,10.29,10.29,0,0,0-1.83.16h0l-.06,0-.44-.2a12,12,0,0,0,.38-1.3,9.91,9.91,0,0,0,0-3.95,4.46,4.46,0,0,0-2.12-3.17,2.19,2.19,0,0,0-1-.26,2.31,2.31,0,0,0-1.48.58,7.24,7.24,0,0,0-1.65,2.47,15.55,15.55,0,0,1-.75,1.39,9.09,9.09,0,0,1-1.14,1.33c-1.25-.37-2.51-.7-3.75-1a4.64,4.64,0,0,0-5,2c-2.38,3.37-4.06,7.8-5.28,14-.07.37-.15.75-.22,1.12h0a39,39,0,0,1-1.28,5.3,11.78,11.78,0,0,1-2.71,4.61,5.24,5.24,0,0,0-1.63,3.72,5.42,5.42,0,0,0,1.28,3.42,117.45,117.45,0,0,0-18.95,2.47,104.26,104.26,0,0,0-18.19,5.61,51.58,51.58,0,0,0-9.64,5.28,55.72,55.72,0,0,0-8.29,7,60.55,60.55,0,0,0-6.81,8.5,63.39,63.39,0,0,0-5.24,9.65,129.87,129.87,0,0,0-5.91,16.92c-1.62,5.76-3,11.7-4.34,17.43-.55,2.34-1.11,4.75-1.68,7.12-1.68,7-3.47,14-5.21,20.87h0c-2.22,8.79-4.53,17.87-6.62,26.85l-10.29,44-.26,1.1,0,.14c-3.75,16-7.62,32.62-11.44,48.94-2.16,9.25-4.43,19-6.25,26.75l-.16.67Q74,617.09,71.55,627.45L68.86,639c-.88,3.77-1.79,7.66-2.69,11.53l-1.47,6.28L63.23,663c-.21.93-.48,1.88-.76,2.89h0a28.79,28.79,0,0,0-1.46,8.3,8.53,8.53,0,0,0,5.52,8.07c3.1,1.39,7.06,1.8,10.55,2.16,1.09.12,2.13.23,3.09.36,2.15.29,4.34.62,6.45.94h0c5.44.81,11.06,1.66,16.6,2,1,.06,2,.1,3,.1,6.43,0,12-1.44,16.45-4.28l.16,1c.13.78.25,1.56.38,2.34a11.43,11.43,0,0,0,.69,4.41,6.8,6.8,0,0,0,2.38,3.41,6.3,6.3,0,0,0,5.53,1.08,6,6,0,0,0,2.42-1.28h0a23.69,23.69,0,0,0,4.6.54c5,.14,10.14.26,15.08.38h.48l8.74.21c7.34.17,14.92.36,22.4.55,44.45,1.16,78.56,1.73,110.6,1.87h.94c9.08,0,18.46.08,27.69.08,10.16,0,19.06-.05,27.22-.16,10.74-.14,19.44-.33,27.38-.6,5-.17,9.43-.36,14-.88.62-.07,1.25-.12,1.91-.18h0c2.38-.2,4.85-.42,6.84-1.48a3.43,3.43,0,0,0,2.07.71,2.58,2.58,0,0,0,2.62-2.17q1.62-7.08,3.23-14.15l1.07-4.65.55,1.25h0l2.1,4.76.14.32c1,2.28,2.05,4.64,2.94,7a13.91,13.91,0,0,0,3.23,5.42c1.86,1.78,4.25,2.6,7.51,2.6a41.12,41.12,0,0,0,5.76-.54c1-.15,2-.29,3-.38,4-.39,7.95-.58,11.85-.58a109.76,109.76,0,0,1,18.1,1.47,124.36,124.36,0,0,1,15.45,3.68A26,26,0,0,0,489.19,701.07Zm-1.65-11.6a.31.31,0,0,1-.18.22s0,0,0,0S487.38,689.59,487.54,689.47Zm1.82-1.3h0a.42.42,0,0,1-.34.17h0l.07-.05C489.29,688.18,489.34,688.17,489.36,688.17Z" transform="translate(-61 -33.32)"/>
    </g>
  </g>
  <g id="Layer_2" data-name="Layer 2">
    <path id="_Background-2" data-name=" Background" class="cls-2" d="M150.78,189.51c1.37-12.36-.4-38.2-.52-39.77-.74-9.92,3.76-49.11,12.27-45.5C176.81,92.57,195.82,90,213.6,88.76c36.93-2.56,76.22,3.31,104.74,29,14.1,13.34,27.83,32.72,26.73,52.91C357.88,189.79,376,216,360,238.41c-5.43,7.15-14.05,9.81-20.87,15.22C325.4,265.05,316.8,281.45,303,292.8c-36.67,34-98.94,41.15-135,2.44-27.87-28-23.36-70-18.46-105.73C152.81,165.48,148.13,213.62,150.78,189.51Z" transform="translate(-61 -33.32)"/>
    <rect class="cls-3" x="90" y="74.68" width="173" height="41"/>
    <path class="cls-4" d="M350.92,111.5c23.13-9.88,36.49-6,42-3.72,3,1.26,9.44,4,9,8.64-.52,5.77-11.33,11.36-16.83,13.46-16.33,6.25-30.63-1-37.48-5.44" transform="translate(-61 -33.32)"/>
    <path class="cls-4" d="M347.82,103.12c8.54-23.66,20.44-30.83,25.9-33.28,2.95-1.32,9.35-4.19,12.47-.71,3.87,4.31.59,16-1.62,21.5C378,106.84,363,112.35,355.06,114.35" transform="translate(-61 -33.32)"/>
    <path id="_Ink-3" data-name=" Ink" d="M218.63,323a82.3,82.3,0,0,0,12-.92,64.78,64.78,0,0,0,13.6-3.39,25.81,25.81,0,0,0,6.37-3.48,29.35,29.35,0,0,0,5.19-5.14,4.24,4.24,0,0,0,.42-4.13,2.45,2.45,0,0,0-2.29-1.55,2.6,2.6,0,0,0-.4,0,72,72,0,0,0-13.3,2.7l-.63.2a63.91,63.91,0,0,1-13.63,3,69.33,69.33,0,0,1-7.05.35,67.76,67.76,0,0,1-21.12-3.32,60.46,60.46,0,0,1-10.65-4.69,65.54,65.54,0,0,1-9.66-6.62,68.67,68.67,0,0,1-24.34-43.31c-1.56-9.38-1.7-19.05-1.64-27.26.15-19.54.76-40,1.83-60.74l.18-3.38c.45-8.55,1-19.83,1.55-31.24.17-3.82.41-6.94.76-9.82a25.47,25.47,0,0,0,9.06-9,87.88,87.88,0,0,0,12.93,4.2,75.29,75.29,0,0,0,18.47,2.34,70.68,70.68,0,0,0,10.87-.84,84.46,84.46,0,0,0,8.06,3l2.21,1a132.36,132.36,0,0,0,20.21,7.18l1.7.44a68.51,68.51,0,0,0,11.52,2.13,15.68,15.68,0,0,0,2.08.66,32.65,32.65,0,0,0,8,1c1,0,1.92,0,2.87-.12a5.35,5.35,0,0,0,4.31-2.87,4.65,4.65,0,0,0,.51-2.2,5,5,0,0,0-.67-2.39c-1.41-2.49-2.86-5-4.31-7.55a131.59,131.59,0,0,0,15.5,5.51c4.68,1.36,9.78,2.64,16.07,4,1.42.32,2.87.62,4.28.91h0c1.43.3,2.9.6,4.35.92.46.1,1,.19,1.51.29,1.91.33,4.08.71,5.38,1.8s2.06,3.57,2.62,5.67c.15.59.3,1.16.46,1.65,1,3.06,1.83,5.89,2.58,8.67q2.37,8.73,3.86,17.68a173.28,173.28,0,0,1,2.05,18c.15,2.49.21,5,.28,7.49.08,3.49.17,7.11.53,10.64a4.25,4.25,0,0,0,1.22,2.63,3.37,3.37,0,0,0,2.39,1,3.65,3.65,0,0,0,2.47-1l.87-.79.42-.4a45.1,45.1,0,0,0,5.81-6.38c.29-.42.58-.87.86-1.34a.21.21,0,0,0,.13,0l.46-.36c4.88-3.75,9.08-5.65,12.49-5.65a7.44,7.44,0,0,1,6.17,3.13,20.56,20.56,0,0,1,3.08,7.29l1.19,4.57a84.6,84.6,0,0,1,1.91,9.05,36.07,36.07,0,0,1,0,10.63,19.7,19.7,0,0,1-4.11,9.6,11.57,11.57,0,0,1-7.14,4.18,8.47,8.47,0,0,1-1.23.08,20.67,20.67,0,0,1-2.83-.26h0l-.58-.07a7.71,7.71,0,0,0-1.18-.07c-.42,0-.84,0-1.25,0h0c-.41,0-.84,0-1.26,0a9.71,9.71,0,0,1-1,0h-.28a2.48,2.48,0,0,0-2.18,1.29,3.85,3.85,0,0,0-.2,3.51,12,12,0,0,0,1.78,2.72,17.55,17.55,0,0,0-1.56,1.55,7.87,7.87,0,0,0-3.81,2.93,6.88,6.88,0,0,0-1.29,3.64c-.08.29-.15.6-.23,1l-1.36,2.27c-.33.56-.62,1-.89,1.48A70.36,70.36,0,0,1,320,271.52c-1.7,1.6-3.48,3.16-5.2,4.67a114.83,114.83,0,0,0-8.67,8.14l-.51.54a34.33,34.33,0,0,0-5.44,7.27,12.22,12.22,0,0,0-1.24,8.76,3,3,0,0,0,2.76,2.14,2.13,2.13,0,0,0,1.3-.44c2.77-2.12,4.76-5.05,6.68-7.88a51.51,51.51,0,0,1,4.22-5.62c2.06-2.25,4.26-4.42,6.39-6.52h0c2.07-2,4.21-4.16,6.21-6.34a51.21,51.21,0,0,0,9.16-14.14,7.22,7.22,0,0,0,5.07,2.14,6.79,6.79,0,0,0,3.83-1.21,8,8,0,0,0,2.67-3.12,22.23,22.23,0,0,0,2.7,1.06,5.4,5.4,0,0,0,1.59.26,4.67,4.67,0,0,0,4-2.35,6.58,6.58,0,0,0,.94-2.88,6.41,6.41,0,0,0-.51-3.09,19.81,19.81,0,0,0-3.68-5.68,23,23,0,0,0,12.55-6.29,26.93,26.93,0,0,0,7.08-14.07,40.84,40.84,0,0,0,.69-8,52.67,52.67,0,0,0-.72-8,82.07,82.07,0,0,0-4.59-16.41c-.4-1-.78-1.9-1.17-2.73a.8.8,0,0,0,.62-.31c.48-.67,1-1.31,1.5-1.93a18.64,18.64,0,0,0,2.64-3.87l.64-1.34a46.57,46.57,0,0,0,2.13-4.85,61.5,61.5,0,0,0,2.82-13.76,107.15,107.15,0,0,0-.75-27.94,114.79,114.79,0,0,0-16.45-44.26,7.73,7.73,0,0,0,1.3-.9l.2-.18.33-.31A5.69,5.69,0,0,0,362.77,88a6.58,6.58,0,0,0-1.72-4.64l-.69-.71A17.88,17.88,0,0,0,357.31,80l-.63-.41A6.68,6.68,0,0,0,354,70.71a10.79,10.79,0,0,0-5.25-1.2,18.37,18.37,0,0,0-7.83,1.85,100.8,100.8,0,0,0-20.54-14.7,193.82,193.82,0,0,0-28-12.22,237.14,237.14,0,0,0-29.41-8.1,129.14,129.14,0,0,0-26.49-3c-1.22,0-2.43,0-3.62.06l-.78,0a85.67,85.67,0,0,0-12.27,1.19A29.8,29.8,0,0,0,208.23,39a1.45,1.45,0,0,0-1-.45,1.13,1.13,0,0,0-.54.13c-7.29,3.59-15.26,6.26-23,8.85l-1.83.62a109.23,109.23,0,0,1-25.45,5.34,5.18,5.18,0,0,0-2.52.94,5.24,5.24,0,0,0-1.73,2,4.22,4.22,0,0,0,.28,4.19c.5.8,1,1.6,1.44,2.34l-.72-.08h0l-1.66-.18h-.35a4.56,4.56,0,0,0-3.3,1.63A5.11,5.11,0,0,0,146.45,68c.09,1.64.27,3.27.52,4.9h-.18A6.75,6.75,0,0,0,140,78.8a26.75,26.75,0,0,0-.12,7.22c.55,6.87,3.11,13.31,7,17.66a28,28,0,0,0-4,5.59,31.49,31.49,0,0,0-2.68,6.65,32.61,32.61,0,0,0-1.24,10.9l.09,1.1c.34,4.16,1,8.41,3.74,11.2A5.8,5.8,0,0,0,147,141l.59,0c-1,9.2-1.67,18.62-2.26,27.48l-.28,4.38c-.79,12.29-1.32,22.4-1.66,31.81-.43,11.53-.57,21.94-.45,31.84a141.47,141.47,0,0,0,.92,14.7,105.8,105.8,0,0,0,2.66,14.25A82.72,82.72,0,0,0,151.34,279a72.92,72.92,0,0,0,7.39,12.61,80.86,80.86,0,0,0,8.87,10.22A79.53,79.53,0,0,0,178,310.31a74.61,74.61,0,0,0,11.63,6.53,69.85,69.85,0,0,0,12.63,4.28A71.33,71.33,0,0,0,218.63,323Zm118.51-99.64h.11a6.69,6.69,0,0,0,4.37-1.82,22.77,22.77,0,0,0,3.16-3.81l1-1.36a4.62,4.62,0,0,0,1.06,1.34l.29.23a5.21,5.21,0,0,0,3.18,1.33h.17a6,6,0,0,0,2.61-.73,4.83,4.83,0,0,0,2.15-2.59,5.71,5.71,0,0,0-1.93-6.64l.38-.27a7.85,7.85,0,0,0,2.14-2.12l.13-.22h-.05a2.16,2.16,0,0,0-.7-2.91,2.06,2.06,0,0,0-.48-.21,6.14,6.14,0,0,0-1.9-.3c-2.69,0-5.67,1.44-8.07,2.59l-.73.35a43.12,43.12,0,0,0-10.1,7.23,5.91,5.91,0,0,0-1.44,5.64l0,.12c0,.16.06.32.1.48a4.44,4.44,0,0,0,1.69,2.6A4.72,4.72,0,0,0,337.14,223.36Z" transform="translate(-61 -33.32)"/>
    <g class="cls-5">
      <path class="cls-3" d="M308,105c-13,4,4,44,4,44h65V105H308" transform="translate(-61 -33.32)"/>
      <path d="M354,97c14,8,18,38,19,49,.17,1.83-3.44.13-2,2,1,1.33,4.47-.37,6-1,5.88-2.43,1.43-14.78,1-18,0,0-3.33-24.93-19-37-1-.78-3.67-2.83-5-2C352.42,91,352.68,96.25,354,97Z" transform="translate(-61 -33.32)"/>
    </g>
    <path d="M301,128c1.17.28,13,4,14-2,1.52-9.09,1-22-18-22" transform="translate(-61 -33.32)"/>
    <polygon points="90 119.72 316 116.68 315.66 112.68 90 115.68 90 119.72"/>
  </g>
  <g id="Layer_4" data-name="Layer 4">
    <path id="_Ink-4" data-name=" Ink" d="M268.7,196.13a8.4,8.4,0,0,0,4-1.53,5.91,5.91,0,0,0,2.32-3.53,13.52,13.52,0,0,0,.17-7.64,44.07,44.07,0,0,0-2.5-7.45l-.14-.34c7.27-2.67,14.75-5.17,22-7.59,7.81-2.62,15.88-5.32,23.71-8.23a.58.58,0,0,0,.32-.65.47.47,0,0,0-.45-.43A170.06,170.06,0,0,0,292.21,160c-3.87.46-7.95,1-12.13,1.76-6.48,1.1-13,2.38-19.46,3.79-3.41.76-6.8,1.55-10.08,2.36-.76.19-1.63.5-2.56.83a22,22,0,0,1-4.42,1.25,5.12,5.12,0,0,1-1.41,0,9.61,9.61,0,0,0-9.79,4.78,9.51,9.51,0,0,0-.66,8.48,9.27,9.27,0,0,0,4.15,4.73,9.61,9.61,0,0,0,5.83,1.09,10.49,10.49,0,0,0,6.16-3c2.46-1.22,4.93-2.37,7.34-3.44a10.6,10.6,0,0,0,1.17,2.27c.6.88,1.13,1.68,1.62,2.46h0s.42.78.74,1.35l.07.13.72,1.37c1.26,2.37,2.61,4.58,5.35,5.54A8.57,8.57,0,0,0,268.7,196.13ZM174.33,200h0a7.27,7.27,0,0,0,4.83-3.07,5.25,5.25,0,0,0,.93-4.25c-.11-.44-.21-.88-.32-1.35-.19-.82-.39-1.67-.62-2.51a10.26,10.26,0,0,0,3.27.13,12,12,0,0,0,4.88-1.73,11,11,0,0,0,3.6-3.6,11.26,11.26,0,0,0,.86-9.38,9.79,9.79,0,0,0-5.79-6.15,38.67,38.67,0,0,0-10.22-1.95c-1.23-.12-2.5-.25-3.76-.41-4.64-.62-9.36-1.43-14-2.4-4-.83-8.06-1.76-12-2.66l-1.72-.39c-2.39-.55-4.6-1-6.75-1.37-.37-.07-.8-.18-1.26-.31a8.72,8.72,0,0,0-2.32-.43,2,2,0,0,0-2-1,2.49,2.49,0,0,0-1.8,1.36,3.32,3.32,0,0,0-.26,2.6,7.37,7.37,0,0,0,1.47,2.56,28.87,28.87,0,0,0,4.7,4.2h0l.61.47.25.2c5.94,4.75,13,8.25,19.07,11,1.51.7,3,1.34,4.2,1.83a12,12,0,0,0-.47,1.58,13.84,13.84,0,0,0,.89,8.47,15.5,15.5,0,0,0,5.46,6.53,12.13,12.13,0,0,0,8.19,2Z" transform="translate(-61 -33.32)"/>
    <path id="_Ink-5" data-name=" Ink" d="M236.58,279.26h0A27.93,27.93,0,0,0,232.91,269a61.5,61.5,0,0,0-6.19-8.84,44.5,44.5,0,0,0-9-8.31,41.28,41.28,0,0,0-11-5.45,27.87,27.87,0,0,0-27.94,6.7,27.57,27.57,0,0,0-3.71,4.57A26.34,26.34,0,0,0,171,269.14a5.74,5.74,0,0,0,1.86,4.66,8,8,0,0,0,5.37,2.39,7,7,0,0,0,4.9-2,7.65,7.65,0,0,0,2.31-5.06,9.57,9.57,0,0,1,2.32-6.12,17,17,0,0,1,5.39-4.11,18.39,18.39,0,0,1,8-1.75,25.18,25.18,0,0,1,7.26,1.13,35,35,0,0,1,8.42,4,65.55,65.55,0,0,1,7.48,5.59c1.84,1.58,3.6,3.36,5.31,5.09l.13.14a61.32,61.32,0,0,0,6.77,6.22Zm-35.13-44.33h0a26.35,26.35,0,0,0,9.4-1.89,47.62,47.62,0,0,0,11.06-6.28,4.27,4.27,0,0,0,1.54-2.45,5.09,5.09,0,0,0-.22-2.76,6.29,6.29,0,0,0-1.86-2.69,4.55,4.55,0,0,0-2.9-1.13,4.13,4.13,0,0,0-2.24.69l-.76.58h0a61,61,0,0,1-6.92,4.81,17.07,17.07,0,0,1-8.3,2.65,9.14,9.14,0,0,1-3.5-.69,9.81,9.81,0,0,1-3.27-2.32,10,10,0,0,1-1.9-8,15.31,15.31,0,0,1,4-7.15,29.73,29.73,0,0,1,6.12-4.94,1.9,1.9,0,0,0,.51-2.18,2.87,2.87,0,0,0-.94-1.36,2.93,2.93,0,0,0-1.81-.59,4.6,4.6,0,0,0-.64,0,20.48,20.48,0,0,0-7.22,2.61,16.43,16.43,0,0,0-4.85,4.47,17.75,17.75,0,0,0-3.09,11.87,19.51,19.51,0,0,0,1.58,6.23,18.25,18.25,0,0,0,3.58,5.35A17,17,0,0,0,201.45,234.93Z" transform="translate(-61 -33.32)"/>
  </g>
</svg>
