<svg xmlns="http://www.w3.org/2000/svg" viewBox="0 0 468 669.53">
  <defs>
    <style>
      .cls-1 {
        fill: #578c56;
      }

      .cls-2 {
        fill: #ffdbac;
      }

      .cls-3 {
        fill: #fff;
      }
    </style>
  </defs>
  <g id="Sweater">
    <g id="body_Sweater" data-name="body Sweater">
      <path id="_Background" data-name=" Background" class="cls-1" d="M298.67,703.51c-34.29-.76-65.51,1.37-98.53-5.52l0-1.14c-7.08-.21-4.73-7-3.31-11.77C63.51,679,151.64,347.45,244,325c4.77-.81,9.17-2,14-2,6.43-2,13.28-3.16,20-5,.65-2.42.15-3.72,3-3,10.23-10.05,25.83-14.36,36-1,8.18-11.68,11-25,14.45-38.82l.55.1c1.45-3.68,3.83-8.33,6.73-9.1,4.5-1.54,13-1.18,17.9-1.81,10.63-.75,23-2.61,33.15-.1,25.45,6.4,14.59,38.63,35.22,58.73,9.47-4,23.93.2,33,5,5.84,4.81,3,7.92,2,13,65.16-6,82.6,69.49,96,120.7,5.4,17,10.75,28.59,19.94,41.74,11.94,15.38,18.64,35.51,6.41,51.73,17.46,35.81-1.5,69.47-21.55,96.5-3.93,4.33-10.3,16.37-16.05,17.2-1.56,1.46-4.06,3.27-5.82,4.58l2.12,2.86c.26,2.64.27,5.48,2,7.84,1.69,1.69,3.5,3.43,3.55,6-2.69,3.21-6.17-.38-8.73-2-1,2-.84,6.69-4,6.5-77.86,5.49-157.61,9.09-235.3,8.88" transform="translate(-125 -34)"/>
      <polygon class="cls-2" points="349 509 375 528 380 549 359 548 349 509"/>
      <polygon class="cls-2" points="192 284 219 297 267 304 301 297 289 270 250 261 206.86 250.18 192 284"/>
      <polygon class="cls-2" points="72 564 78 544 91.77 525.61 103 517 124 509 147 507 174 515 192 531 190 536 163 543 143 576 130 586 120 586 114 576 101 583 94 586 92 579 92 574 94 565 97 558 88 562 75 568 72 564"/>
      <path id="_Ink" data-name=" Ink" d="M198.13,703.53a5.89,5.89,0,0,1-4.8-2.41,7.46,7.46,0,0,1-1.35-3.58,14,14,0,0,1,.5-5.28,78.26,78.26,0,0,1-12-2.56,67.64,67.64,0,0,1-10.7-4.19,63.79,63.79,0,0,1-17.6-12.9,71.25,71.25,0,0,1-7-8.48,82.35,82.35,0,0,1-5.88-9.7,111.11,111.11,0,0,1-8.56-22.58,179,179,0,0,1-5.42-36.74,289,289,0,0,1,1.06-41.19,404,404,0,0,1,6.52-43.37c2.92-14.32,6.61-28.88,11-43.28,4.25-14,9.1-27.82,14.41-40.94A383.08,383.08,0,0,1,175.12,390a237.16,237.16,0,0,1,18.28-29.42c6.33-8.57,12.62-15.38,18.69-20.26a73.71,73.71,0,0,1,11.15-9.13,51.74,51.74,0,0,1,10.42-5.33c6.86-2.58,13.59-3.49,21.38-4.55,5.63-.76,12-1.62,19.11-3.28a5.56,5.56,0,0,1,1.72-2.72,4.46,4.46,0,0,1,2.9-1.15,3,3,0,0,1,.52,0A44,44,0,0,1,290,306.62a29,29,0,0,1,12.67-3.44A14.68,14.68,0,0,1,310,305a14.9,14.9,0,0,1,5.7,6.07,83.43,83.43,0,0,0,6.23-12.25,107.36,107.36,0,0,0,4.35-13.09c.23-.84.42-1.73.61-2.59.6-2.78,1.23-5.66,3-7.82,1.44,1.93,2.09,4.92,1.93,8.88a55.48,55.48,0,0,1-2.14,12.14,114.2,114.2,0,0,1-4.17,12.22,100.12,100.12,0,0,1-4.16,9.17A195.4,195.4,0,0,0,355.7,328.9,163.48,163.48,0,0,0,391.37,333a145.17,145.17,0,0,0,15.6-.84,135.64,135.64,0,0,0,15.49-2.59,37.74,37.74,0,0,1-6.5-9.48,72.54,72.54,0,0,1-5.16-13.15,51.58,51.58,0,0,1-2.16-13.34,24,24,0,0,1,.58-5.67,12.13,12.13,0,0,1,2-4.42l.33,1.75a131.1,131.1,0,0,0,4.78,19.16A48.22,48.22,0,0,0,426,321.28a56.75,56.75,0,0,1,14-1.67,48.09,48.09,0,0,1,13.23,1.69c4.44,1.31,7.72,3.32,9.73,6,2.31,3.05,2.91,6.94,1.78,11.55a88.12,88.12,0,0,1,10.4.64,74.2,74.2,0,0,1,9.47,1.79,65.27,65.27,0,0,1,8.6,2.88,63.8,63.8,0,0,1,14.82,8.65,71.74,71.74,0,0,1,6.35,5.61,87.58,87.58,0,0,1,10.86,13.39c13,19.55,20.63,45.34,28,70.28,2.58,8.76,5.25,17.81,8.07,26.23a201.79,201.79,0,0,0,9.32,23.64c1.84,3.06,3.88,6.19,5.85,9.23,5.82,9,11.84,18.23,14.61,27.86a41.13,41.13,0,0,1,1.42,7.3,33.1,33.1,0,0,1-2,15.18,40.83,40.83,0,0,1-4.06,7.92,89.92,89.92,0,0,1,6.29,24.87,64.59,64.59,0,0,1,.11,10.22,68.46,68.46,0,0,1-1.44,9.87,89.07,89.07,0,0,1-6.51,18.76c-5.65,12.1-13.42,23.33-20.94,34.19l-.19.28a68.58,68.58,0,0,0-4.66,6.19h0a70,70,0,0,1-5.67,7.37,17.15,17.15,0,0,1-7,4.87c-.75.67-1.57,1.33-2.44,2a7.94,7.94,0,0,1,.92,3.85c.11,1.54.22,3,1.15,4l.69.69c1.18,1.19,2.78,2.94,3.1,4.49l.15,1.35a2.47,2.47,0,0,0,0,.38,3.69,3.69,0,0,0,0-.47l0-.18a.28.28,0,0,1,0-.18h0s.05.08.1.24l0,.13a4.17,4.17,0,0,1-.31,3.28,4.76,4.76,0,0,1-2.88,2.42,5.93,5.93,0,0,1-2.88.76c-2.36,0-4.79-1.51-6.67-4.16a15.06,15.06,0,0,1-2.44-5.5,11.51,11.51,0,0,1,.11-5.8,55.19,55.19,0,0,1-13,3.78A89.57,89.57,0,0,1,507,688.31a144.68,144.68,0,0,1-16-.95c-5.29-.6-11-1.48-16.92-2.63A352.93,352.93,0,0,1,439.37,676c-10.23-3.09-20.95-6.7-32.78-11-9.83-3.61-18.78-7.1-27-10.35-3.23-1.33-6.44-2.87-9.54-4.35-3.92-1.87-8-3.81-12.1-5.36l-.55-.27c-1.45-.74-2.92-1.54-4.35-2.32h0c-5.72-3.11-11.63-6.34-18.07-6.34a19.15,19.15,0,0,0-4.64.58c-13.71,6-27.36,13.51-40.56,20.74-13.72,7.52-27.92,15.3-42.35,21.57A200.73,200.73,0,0,1,225.39,687c-3.82,1.15-7.65,2.15-11.37,3-3.9.86-7.83,1.54-11.66,2a12.77,12.77,0,0,1,1.52,5.11,6.53,6.53,0,0,1-.82,3.68,5.49,5.49,0,0,1-2.13,2A5.86,5.86,0,0,1,198.13,703.53ZM275.08,323a107.06,107.06,0,0,1-15.26,2.75A121.46,121.46,0,0,0,246.43,328a48.68,48.68,0,0,0-6.44,2.05,36.16,36.16,0,0,0-6.13,3.14,109,109,0,0,0-10.85,8,119.18,119.18,0,0,0-9.73,9.21,133.5,133.5,0,0,0-8.72,10.2c-2.66,3.43-5.29,7.13-7.81,11-8.5,13.08-16.17,28.55-24.13,48.71l-.4,1c-7.48,18.94-13.53,36.15-18.47,52.6-2.8,9.32-5.28,18.52-7.36,27.33-2.22,9.45-4.07,18.78-5.49,27.74-1.51,9.51-2.58,18.91-3.19,27.94a265.34,265.34,0,0,0-.42,27.92,225.57,225.57,0,0,0,2.79,27.71,201.82,201.82,0,0,0,6.47,27.28,70.35,70.35,0,0,0,8.32,16.77A54.47,54.47,0,0,0,166.33,669a48,48,0,0,0,14.07,7.61,50.2,50.2,0,0,0,16.12,2.6,63.6,63.6,0,0,0,21.3-3.9c8-2.65,16-5.72,24.46-9.38,7.57-3.26,15.36-6.91,23.82-11.18,15.72-7.92,31.41-16.78,46.58-25.35,10.72-6.06,21.82-12.33,32.82-18.21,12.34-6.59,23.27-12,33.4-16.48a300.78,300.78,0,0,1,34.56-13.07c6-1.83,12-3.42,17.9-4.71,6.16-1.36,12.35-2.44,18.42-3.22a48,48,0,0,0-.75-15,94.89,94.89,0,0,0-4.25-14.53,298.16,298.16,0,0,0-32,3.14c-10,1.49-20.29,3.46-31.55,6-20.91,4.76-41.91,10.88-62.22,16.8h0c-8.68,2.53-17.66,5.15-26.48,7.62-1.13,5.09-4.09,10.94-9.06,17.87-4.27,6-9.26,11.67-13.65,16.7h0l-3.46,4a23,23,0,0,1-12.42,8.4,19.07,19.07,0,0,1-4.75.64,12.4,12.4,0,0,1-8.12-2.72,11.54,11.54,0,0,1-2.86-3.6,16.76,16.76,0,0,1-1.61-5.28l-.38.45a58.23,58.23,0,0,1-8.1,7.76c-3.61,2.76-6.76,4.16-9.37,4.16-3.53,0-6-2.58-7.39-7.67a20.92,20.92,0,0,1,.89-8.5,64.72,64.72,0,0,1,3.18-8.05c1-2.19,2-4.46,2.75-6.72l-.27.2L216,596.9c-2.43,2-6.11,4.91-9.85,7.37a42.21,42.21,0,0,1-5.51,3.13,12.19,12.19,0,0,1-4.75,1.29,3.48,3.48,0,0,1-2.53-.9,4.83,4.83,0,0,1-1.25-3,54.75,54.75,0,0,1,9.46-30.31,107.16,107.16,0,0,1,21.65-21.93c.27-1.64.7-3.27,1.11-4.85h0c.23-.88.47-1.81.68-2.72a38.94,38.94,0,0,1,.28-8.83c.39-2.9,1-5.83,1.62-8.66h0a97.87,97.87,0,0,0,1.83-10.35c.63-2.51,1.12-5.65,1.65-9a118.16,118.16,0,0,1,2.45-12.65c1.24-4.56,2.81-7.73,4.77-9.7,1.53,1.68,2.21,5,2.1,10.15a136.32,136.32,0,0,1-1.38,14c-.46,3.4-.85,6.34-.92,8.41a105.25,105.25,0,0,0-1.22,10.49h0c-.24,2.83-.49,5.75-.92,8.6a43.89,43.89,0,0,1-2.06,8.46A63.82,63.82,0,0,1,247.39,540a65.87,65.87,0,0,1,14.82-2.33,15.12,15.12,0,0,1,1.86-6.91,11.86,11.86,0,0,1,4.29-4.27,18.71,18.71,0,0,1,6-2.18,37.87,37.87,0,0,1,7.13-.61,115.74,115.74,0,0,1,16.9,1.7h0c1.91.29,3.71.56,5.26.75a40.85,40.85,0,0,1,6.53-1.66c2.56-.47,5.55-.87,8.89-1.2,6.53-.64,14.4-1,22.76-1,7.88,0,15.87.29,23.75.86,8.32.59,16.05,1.47,23,2.6a119.11,119.11,0,0,1,18.89,4.43c5.49,1.88,9.34,4,11.44,6.33,7.13-.85,13.53-1.46,20.14-1.93,2.67-1.75,7.08-2.75,12.1-2.75a38.13,38.13,0,0,1,6.83.61,30.52,30.52,0,0,1,6.41,1.85c4.3,1.8,7.11,4.39,8.14,7.49,9.25,2.81,17.21,7.72,24.43,12.6A257.28,257.28,0,0,0,496.8,524c-.6-10.11-1.62-20.38-2.6-30.31s-2-20.45-2.63-30.69c-.33-5.52-.5-10.55-.54-15.39,0-5.44.09-10.49.4-15.44a18.63,18.63,0,0,1,.61-3,14,14,0,0,0,.65-3.9.19.19,0,0,1,.17-.21h0a.22.22,0,0,1,.23.21c2.63,8.2,3.82,16.93,5,25.37.53,3.87,1.08,7.88,1.76,11.78,1.12,8.5,2.59,17.08,4,25.39,2.2,12.88,4.49,26.2,5.49,39.45.19,4.85.13,9.89.07,14.77-.09,6.79-.18,13.81.41,20.61a79.91,79.91,0,0,0,1.47,10.09,56.53,56.53,0,0,0,3,9.77,6.78,6.78,0,0,1-3,7.55,50.17,50.17,0,0,1-20,4,70,70,0,0,1-20.69-3.35,96.05,96.05,0,0,1-19.22-8.5c-20.57,6.77-38.91,13.56-56,20.78-9.4,4-18.57,8.1-27.24,12.32-9.15,4.45-18.09,9.14-26.56,13.93,5.28,1.43,10.2,4.27,14.95,7,1.27.73,2.59,1.49,3.88,2.21,4.7,1.67,9.45,3.42,14,5.11l.05,0c3.87,1.42,7.87,2.89,11.81,4.31,6.79,2.11,13.77,4.38,20.52,6.57h0c33.47,10.89,68.08,22.15,103,22.15,3.14,0,6.27-.1,9.32-.28a44.15,44.15,0,0,0,9.14-2.54,32.68,32.68,0,0,0,7.18-4c4.36-3.22,8-7.5,12.08-12.93l1.37-1.82c.93-1.24,1.88-2.5,2.81-3.72l.06-.08c7-9.24,14.21-18.8,20-29A100.82,100.82,0,0,0,579,606.39a79,79,0,0,0,2.45-8.39,69.52,69.52,0,0,0,1.43-8.74,155.52,155.52,0,0,0-.39-20.16c-.1-1.48-.19-3-.28-4.52-1.33,1.4-2.76,2.77-4.14,4.09l-2,2a3.23,3.23,0,0,1-2.24,1,3.13,3.13,0,0,1-2.59-1.53,3.79,3.79,0,0,1-.29-3.55c1-3.23,2.37-6.46,3.66-9.57h0c1.24-3,2.52-6.11,3.55-9.22a43.63,43.63,0,0,0,2.11-9.58,28,28,0,0,0-3.53-13.32,86.86,86.86,0,0,0-7.62-11.62,86.55,86.55,0,0,1-5.38-7.63c-1.63-2.58-3.21-5.36-4.71-8.28a153.44,153.44,0,0,1-7.78-18.12c-4.6-12.66-8.22-26.51-11.73-39.91h0c-3-11.31-6-23-9.63-33.86-1.95-5.85-3.9-11-6-15.76a119.16,119.16,0,0,0-7.34-14.37,84.57,84.57,0,0,0-9.19-12.53,66.74,66.74,0,0,0-11.49-10.22,65.34,65.34,0,0,0-14.26-7.48,79.35,79.35,0,0,0-17.49-4.26,80.38,80.38,0,0,1-6.1,10.92,71.11,71.11,0,0,1-25.1,23A82,82,0,0,1,412,382.63a103.4,103.4,0,0,1-23,2.5c-21.5,0-44.76-6-65.49-17A141.5,141.5,0,0,1,309,359.32a129.45,129.45,0,0,1-13-10.26,99.23,99.23,0,0,1-19.87-24.19l-1-1.86ZM220.29,616.85l-.1.35a2,2,0,0,0-.11.72h0c.06,0,.19-.26.28-.5a1.13,1.13,0,0,0,.12-.49l0,0s-.05,0-.06,0l-.1-.09h0Zm29.44-39.34a5,5,0,0,1,4,1.93,4.42,4.42,0,0,1,.55,4c-.84,2.87-1.72,5.78-2.57,8.6-1.51,5.05-3.08,10.27-4.51,15.43l-.6,2.19c-.46,1.71-.85,3.47-.16,4.67a3.18,3.18,0,0,0,2.18,1.4h.44c8.3,0,18.72-14.94,25.61-24.83,1.65-2.36,3.06-4.39,4.22-5.89a31.73,31.73,0,0,0,2.31-3.55,31,31,0,0,1,3.41-5,6.15,6.15,0,0,1,4.55-2.37,5.08,5.08,0,0,1,1.1.12c5-3.38,10.86-4.66,16.5-5.9h0c2.29-.5,4.67-1,6.94-1.67A60.59,60.59,0,0,0,303.12,557a65,65,0,0,0-12.39-7,69.49,69.49,0,0,0-13.61-4.25,71.52,71.52,0,0,0-14.22-1.42,69.81,69.81,0,0,0-15.9,1.81,65.17,65.17,0,0,0-15,5.51c-2.63.79-5.06,2.55-7.4,4.25-1.13.82-2.3,1.67-3.46,2.38a27.9,27.9,0,0,1,2.68-.84,87.12,87.12,0,0,0-8.32,8.32,74.49,74.49,0,0,0-7.06,9.57,53.78,53.78,0,0,0-8,22.17A101.17,101.17,0,0,0,215.31,586a90.06,90.06,0,0,0,12.44-14.34,3.93,3.93,0,0,1,3.53-2.1,4.74,4.74,0,0,1,2.15.52,4.66,4.66,0,0,1,1.69,1.43,4,4,0,0,1,.52,3.57c-1.77,5-3.92,10-6,14.89-3.54,8.26-7.21,16.81-9.14,25.59a66.93,66.93,0,0,0,14.84-15.43,78.57,78.57,0,0,0,9.82-19.25,4.87,4.87,0,0,1,1.88-2.55,4.8,4.8,0,0,1,2.7-.8ZM475.2,544.8h0a38.28,38.28,0,0,1,4.24,6.51,48.93,48.93,0,0,1,3,7.18,76.31,76.31,0,0,1,3.15,15.33c.07.49.14,1,.22,1.48a25.74,25.74,0,0,1,.42,4.88,49.31,49.31,0,0,0,7.07.57,32,32,0,0,0,6.48-.63,75.72,75.72,0,0,1-2.17-12.34,94.51,94.51,0,0,0-9.83-12.93A49.68,49.68,0,0,0,475.2,544.8Zm-17.61,25.82c0,1.09,0,2.23-.1,3.36a130.09,130.09,0,0,1,16.66,3.52l.63.16,0-1.79c0-.49,0-1.14-.05-1.79a17.06,17.06,0,0,1-4.61.6,21.39,21.39,0,0,1-12.5-4.06Zm-2.1-17.8c-.74,0-1.49,0-2.24.07a55,55,0,0,1,2.63,7,43,43,0,0,1,1.49,7.29,26.84,26.84,0,0,0,7.29,1c.52,0,1,0,1.55,0a18.2,18.2,0,0,0,4-.81,16.41,16.41,0,0,1,4-.78,72,72,0,0,0-1.5-9.69,58.78,58.78,0,0,0-8.53-2.92,35.69,35.69,0,0,0-8.72-1.11ZM329,543.56a4.12,4.12,0,0,1-1.42,2,7.29,7.29,0,0,1-2.41,1.21,34,34,0,0,1-6.56,1.09c-3.13.32-6.37.65-8.54,1.88l.47.28a37.67,37.67,0,0,1,7.46,5.61,18.51,18.51,0,0,1,2.78,3.51,11.82,11.82,0,0,1,1.52,4c6.74-2.71,13.7-5.34,20.7-7.81a59.82,59.82,0,0,0-14-11.78Zm7.42-16c-8.59,0-17.28.25-24.64.49l.85.26A103.64,103.64,0,0,1,334,537.16a51.63,51.63,0,0,1,9.33,6.79,35.32,35.32,0,0,1,7,8.88c21.32-7.15,40.48-12,58.55-14.81a148.44,148.44,0,0,0-17.62-5.24,181.66,181.66,0,0,0-18-3.2c-5.81-.75-11.8-1.27-18.32-1.61-5.72-.3-11.75-.44-18.42-.44Zm111.48,7.54c-.65,0-1.31,0-1.95.07l-1.43.24a8.57,8.57,0,0,1,2.75,1.57,3.54,3.54,0,0,1,1.12,2.52,4,4,0,0,1-1,2.95,86,86,0,0,1,4.62,7.94,18.78,18.78,0,0,1,6-2.83,24.6,24.6,0,0,1,6.5-.82,38.15,38.15,0,0,1,4.53.3,22.45,22.45,0,0,0-4-5.25A22.89,22.89,0,0,0,460,538a25.44,25.44,0,0,0-12.07-2.95Zm-149.14-2.18a61,61,0,0,1-5.61,4h0c-1.79,1.19-3.65,2.42-5.36,3.81a90,90,0,0,1,16.77,6.11,34.6,34.6,0,0,1,7.13-4.81,49.63,49.63,0,0,1,8-3.21,92.33,92.33,0,0,0-20.95-5.92Zm-33.31,4.75a82.41,82.41,0,0,1,17.57,2,28.52,28.52,0,0,1,4.22-8.07l-1.54-.09h-.22c-1.74-.1-3.71-.21-5.69-.21a26.43,26.43,0,0,0-8.71,1.19,11.61,11.61,0,0,0-3.59,2,9.63,9.63,0,0,0-2.57,3.29h.53ZM385,346.49c-.5,3.36-.9,6.79-1.28,10.11-.57,4.91-1.16,10-2.1,14.91-.36,1.68-.86,3.35-1.34,5-.08.25-.15.49-.22.73,3.41.26,6.77.39,10,.39a108.32,108.32,0,0,0,12.34-.68,89.72,89.72,0,0,0,12.16-2.25c-2.91-7.48-4.7-15.4-6.43-23.06-.76-3.36-1.55-6.83-2.42-10.22-4.32.38-8.73.57-13.09.57-1.68,0-3.38,0-5.07-.09a4,4,0,0,1-.11,3.6,2.16,2.16,0,0,1-1.93,1.07,2.7,2.7,0,0,1-.49,0Zm-28-8.66a6,6,0,0,1-.69,2.46c-2.11,3.75-4.15,7.64-6.12,11.4h0c-2.91,5.53-5.91,11.26-9.19,16.67A140.22,140.22,0,0,0,378,377c-1.2-7.49-1-15.2-.73-22.66h0c.13-4.32.27-8.79.12-13.17A160.52,160.52,0,0,1,357,337.83Zm76.42-1.37h0A149.36,149.36,0,0,1,415,340.28a2.43,2.43,0,0,1-1.4,2.31c.45,3.45,1.06,7,1.65,10.33,1.17,6.78,2.39,13.79,2.42,20.86a45.18,45.18,0,0,0,9.18-3.45,54.46,54.46,0,0,0,8.26-5.18,85.45,85.45,0,0,0,14.12-13.82l-1.92-1.44c-2.5-1.89-5.15-3.93-7.55-6.13a40.09,40.09,0,0,1-6.39-7.3ZM305.14,310.38h0a20.78,20.78,0,0,0-7.89,1.59,20.39,20.39,0,0,0-6.68,4.46c-1,.89-1.93,1.93-2.85,2.93a27.46,27.46,0,0,1-5.23,4.79,4.14,4.14,0,0,1-1.16.51,68.06,68.06,0,0,0,7.69,11l.35.44c15.59,14,32.1,24.52,49.08,31.33A76.32,76.32,0,0,1,341.51,351a147.9,147.9,0,0,1,5.71-15.75c-4-1.24-8-2.68-11.79-4.27-.36,2-1.75,3.57-3.1,5.14h0c-.49.58-1,1.12-1.38,1.68A61,61,0,0,0,326,345a68.16,68.16,0,0,1-4.24,6.4,4.23,4.23,0,0,1-3.13,1.45,4.63,4.63,0,0,1-2.45-.74,5.21,5.21,0,0,1-1.81-1.89,4.61,4.61,0,0,1,0-4.65,61.34,61.34,0,0,1,16.32-16.7A93.77,93.77,0,0,1,318.49,322q-.24.25-.51.51c-.13-.8-.74-1.21-1.83-1.21a7.72,7.72,0,0,0-1.85.26,1.07,1.07,0,0,0-.76-.28,3.57,3.57,0,0,0-1.35.4,6.39,6.39,0,0,1-.83.31,4.79,4.79,0,0,1-.34-.81,58.71,58.71,0,0,0-4.78,5.86c-2.88,3.86-5.86,7.85-9.93,9.76a3.35,3.35,0,0,1-.89.12,4.06,4.06,0,0,1-3.24-1.76,3.34,3.34,0,0,1-.44-3.06c.91-2.37,5.23-6,8.7-8.64a100.64,100.64,0,0,1,10.77-7.22c-.41-.61-.53-1.12-.34-1.48a1.26,1.26,0,0,1,1.2-.51,4.55,4.55,0,0,1,.52,0,.79.79,0,0,1,.61-.33.84.84,0,0,1,.5.17c.24-.33.49-.7.78-1.16a17.49,17.49,0,0,0-9.34-2.61Zm136.09,16.84a4.68,4.68,0,0,1,.85,4c3.78,5.94,5.84,12.56,7.78,19.4l.54-.68a52.9,52.9,0,0,0,6.21-9.48c1.5-3.19,1.82-5.69,1-7.65a5.53,5.53,0,0,0-1.42-1.93,9.13,9.13,0,0,0-2.49-1.53,26.75,26.75,0,0,0-8.72-1.69c-1.23-.17-2.48-.31-3.71-.4ZM282,696.56a3.44,3.44,0,0,1-1.86-.56,5.92,5.92,0,0,1-2-2.87,4.79,4.79,0,0,1,.1-3,8.23,8.23,0,0,1,3.22-4,9,9,0,0,1,5-1.69,5.78,5.78,0,0,1,3.06.81c.28.34.38.6.32.79s-.57.4-1.17.55a4.84,4.84,0,0,0-2.08.87,2.93,2.93,0,0,0-.73,2.84,5,5,0,0,1-.73,4.38A3.89,3.89,0,0,1,282,696.56ZM422.77,692a4.3,4.3,0,0,1-2.25-.66,6.45,6.45,0,0,1-2-2.17c-2-3.84-2.57-7.14-1.59-8.83a2.18,2.18,0,0,1,2-1.09c1.66,0,3.89,1.31,6.27,3.7a6,6,0,0,1,2.13,2.82,4.49,4.49,0,0,1,0,2.83A4.94,4.94,0,0,1,422.77,692Zm-68.13-3a9.24,9.24,0,0,1-3.32-.68,8.69,8.69,0,0,1-2.58-2.33,13.67,13.67,0,0,1-1.82-3.28,11.9,11.9,0,0,1-.82-6.73,3.62,3.62,0,0,1,1-1.83,2.57,2.57,0,0,1,1.84-.7c1.32,0,3,.75,5,2.22a9.69,9.69,0,0,1,5,3.9,7.26,7.26,0,0,1,1,5,5.42,5.42,0,0,1-1.68,3.17,5.3,5.3,0,0,1-3.63,1.3ZM194,653.87a8.39,8.39,0,0,1-4.58-1.64,9.07,9.07,0,0,1-3.25-3.94,30,30,0,0,1-1.71-3.68,16.54,16.54,0,0,1-1-3.92,4.66,4.66,0,0,1,.87-2.9,2.51,2.51,0,0,1,2-.87,9.58,9.58,0,0,1,5,2.07,22.37,22.37,0,0,1,4.8,4.67c1.69,2.27,2.41,4.31,2,5.73a5.4,5.4,0,0,1-1.48,3.44A4,4,0,0,1,194,653.87Zm311.17-11a3.25,3.25,0,0,1-2.09-.79,6.69,6.69,0,0,1-1.54-2,24.62,24.62,0,0,1-1.87-5c-.12-.33-.26-.66-.41-1h0c-.56-1.3-1.14-2.64-.79-4a1.68,1.68,0,0,1,1.61-.9c1.38,0,3.39,1,5.27,2.75a16.42,16.42,0,0,1,2.4,2.73,9.4,9.4,0,0,1,1.44,3,4.31,4.31,0,0,1,0,2.54,3.87,3.87,0,0,1-1.81,2A4.59,4.59,0,0,1,505.19,642.87Zm-235.2-6a12.35,12.35,0,0,1-5.13-1.12c-1.75-1.07-2.5-2.31-2.16-3.59a5.26,5.26,0,0,1,2.92-2.93,11.44,11.44,0,0,1,5-1.23,6.08,6.08,0,0,1,3.47.92A3.91,3.91,0,0,1,275.8,632a4.26,4.26,0,0,1-1,3.23,4.75,4.75,0,0,1-2.09,1.26A9,9,0,0,1,270,636.87Zm154.53-6a2.49,2.49,0,0,1-1.46-.47,2.78,2.78,0,0,1-1-1.36,13.12,13.12,0,0,1-.27-6.84,43.32,43.32,0,0,1,2.11-6.72h0c.29-.76.58-1.54.84-2.3.51-.69,1-1,1.41-1,.64,0,1.18.82,1.56,2.37a32.69,32.69,0,0,1,.51,8.94c-.23,3.46-.83,5.79-1.62,6.22a2.41,2.41,0,0,1-2.09,1.22Zm119.22-22a3.44,3.44,0,0,1-1.73-.5,16.29,16.29,0,0,0-4.51-2.53.47.47,0,0,1-.16-.42c.09-.42.94-.74,1.76-1a4.36,4.36,0,0,0,1.57-.81,4.74,4.74,0,0,1,3.11-1.42,3.29,3.29,0,0,1,1.07.18l.15.05a3.39,3.39,0,0,1,1.85,1.44,2.94,2.94,0,0,1,.33,2,3.93,3.93,0,0,1-1.16,2.15A3.34,3.34,0,0,1,543.74,608.83ZM328.06,592.25a4.78,4.78,0,0,1-2.53-.79,8.74,8.74,0,0,1-2.18-2,10.58,10.58,0,0,1-2.31-5.34,2.66,2.66,0,0,1,2.78-2.37,7.87,7.87,0,0,1,4.34,1.69,9.39,9.39,0,0,1,3.19,3.81,3.53,3.53,0,0,1-.63,4A4.23,4.23,0,0,1,328.06,592.25Zm-160.28-.34a20.08,20.08,0,0,1-6-1.06c-.52-.81-.37-1.68.47-2.67a15,15,0,0,1,2.71-2.25h0c.46-.32.85-.6,1.14-.85a10.1,10.1,0,0,1,5.33-2,3.73,3.73,0,0,1,3,1.34,3.67,3.67,0,0,1,.63,3.07,5.08,5.08,0,0,1-2.13,3,9.08,9.08,0,0,1-5.14,1.37Zm246-25.32c-2.79,0-5.8-2.11-7.82-3.7a1,1,0,0,1-.23-.93c.45-1.42,4.14-2.61,5-2.82a4.7,4.7,0,0,1,1.88-.36,6.35,6.35,0,0,1,3.25.93,4.55,4.55,0,0,1,2,2.31,2.82,2.82,0,0,1,0,1.86,4.36,4.36,0,0,1-1.44,1.89,4.57,4.57,0,0,1-2.66.82ZM549.5,548.13c-1.87,0-3.72-1-5.34-3a18,18,0,0,1-3.28-6.65,16,16,0,0,1-.59-4.72,6.59,6.59,0,0,1,1.06-3.59,3.27,3.27,0,0,1,2.79-1.35,8,8,0,0,1,3.41.93l1,1.07a41.52,41.52,0,0,1,4.49,5.73,16,16,0,0,1,1.6,3.24,7.9,7.9,0,0,1,.46,3.2,5.6,5.6,0,0,1-5.57,5.16Zm-387.31-6.72a5.31,5.31,0,0,1-2.58-.67,5.61,5.61,0,0,1-1.93-1.76,6,6,0,0,1-.65-5.44l.05-.14c.71-2,3-4.67,6-6.83a23.53,23.53,0,0,1,4.55-2.59,11.59,11.59,0,0,1,4.37-1,5.28,5.28,0,0,1,1.85.3h0a.46.46,0,0,1,.31.15.48.48,0,0,1,.13.32l.08.6c.28,2.14.42,4.21-.94,6.11-.33.55-.65,1.1-1,1.69a38.88,38.88,0,0,1-3.52,5.35,11,11,0,0,1-5,3.63A5.65,5.65,0,0,1,162.19,541.41ZM331.56,506.9a2.7,2.7,0,0,1-1.33-.35,5.17,5.17,0,0,1-2-2.91,4.91,4.91,0,0,0-2.24-3c-.18-.36-.22-.6-.14-.75a.45.45,0,0,1,.4-.15,7.13,7.13,0,0,1,1.7.4h0a7.31,7.31,0,0,0,1.66.4.85.85,0,0,0,.23,0c1.62.1,3.26.42,4.27,2.07a2.65,2.65,0,0,1,.1,2.72,3.09,3.09,0,0,1-2.65,1.61Zm131.64-6.54a6,6,0,0,1-2.72-.69,5.41,5.41,0,0,1-2.26-2.68,6.73,6.73,0,0,1-.38-3.47,6.28,6.28,0,0,1,1.28-3,4.91,4.91,0,0,1,2.78-1.74l.14,0c.46-.05,1.18-.17,2.09-.33h0a50.2,50.2,0,0,1,7.62-.94,3.92,3.92,0,0,1,2.67.62.78.78,0,0,1,.23.59l-.19.28c-.5.73-1,1.56-1.57,2.45h0c-2.48,4-5.56,8.94-9.68,8.94Zm-68.43-.75A3.29,3.29,0,0,1,392,498a15.2,15.2,0,0,1-1.58-4.69,13.24,13.24,0,0,1,.1-4.94,1.38,1.38,0,0,1,1.16-.89c1.54,0,3.56,3.28,4.9,5.44.45.73.84,1.36,1.09,1.67a3.59,3.59,0,0,1-.17,3.45,3.3,3.3,0,0,1-2.76,1.56ZM215.11,486.26a12.2,12.2,0,0,1-4.64-1,18.21,18.21,0,0,1-4.14-2.45c-.33-.38-.43-.69-.33-.95.27-.68,2-.83,3.74-1,1.48-.12,2.87-.24,3.37-.68a9.37,9.37,0,0,1,4-.86c1,0,2.91.18,3.7,1.38a2.91,2.91,0,0,1,0,2.71,6.91,6.91,0,0,1-2.62,2.21,7.19,7.19,0,0,1-3.09.66ZM286.38,477a5.74,5.74,0,0,1-2.81-.7,5.05,5.05,0,0,1-2.09-2.2,48.6,48.6,0,0,1-1.61-8c-.21-1.45-.42-2.94-.71-4.44a3.63,3.63,0,0,1,.88-2.76,4.49,4.49,0,0,1,3.34-1.35,5.06,5.06,0,0,1,2,.42,9.81,9.81,0,0,1,3.24,2.48,16.18,16.18,0,0,1,3.79,8.14,9.61,9.61,0,0,1-.22,4.1,5.45,5.45,0,0,1-2.21,3.22,6.4,6.4,0,0,1-3.63,1.12Zm241.88-6.17a32.59,32.59,0,0,1-5.83-.46c-1.76-.32-2.79-.77-3-1.29-.1-.24,0-.5.27-.77a44,44,0,0,0,5.57-1.79c2.92-1.09,6-2.22,8.92-2.22a10.37,10.37,0,0,1,2,.19,2.64,2.64,0,0,1,1.67,1.85,2.54,2.54,0,0,1-.61,2.27c-.15.71-1.19,1.3-3,1.69a29.5,29.5,0,0,1-6,.53ZM365.67,456q-.85,0-1-.24a.26.26,0,0,1,0-.24c2.19-4.08,7.13-8.42,12-8.42a5.52,5.52,0,0,1,.58,0h.11a2.71,2.71,0,0,1,1.88.73,3.54,3.54,0,0,1,.91,3.68,2.87,2.87,0,0,1-1.32,1.56l-.09,0C377.2,453.69,368.62,456,365.67,456Zm71.18-7.2a3.28,3.28,0,0,1-.93-.14,5.15,5.15,0,0,1-3-1.62,10.08,10.08,0,0,1-2-3.26,17.59,17.59,0,0,1-1.05-4,19.26,19.26,0,0,1-.16-3.94,8.81,8.81,0,0,1,.63-3c.35-.77.83-1.18,1.37-1.18a1.84,1.84,0,0,1,1.11.48,21.92,21.92,0,0,0,4.4,6.92,30,30,0,0,1,3.43,4.71,3.22,3.22,0,0,1-.34,3,4.37,4.37,0,0,1-3.48,2Zm-232.62-3c-2,0-3.1-.2-3.25-.62q-.1-.28.39-.72a1.06,1.06,0,0,0,.25,0c1.23,0,3.76-1,6.44-2.13l0,0,.8-.32c3.07-1.26,6.23-2.48,8.18-2.48a1.85,1.85,0,0,1,1.64.64c.36.54.32,1.44-.14,2.68a6.44,6.44,0,0,1-3.21,2.09,18.15,18.15,0,0,1-3.8.55h-.05l-.43,0h-.28c-.42,0-1.17.05-2,.1h0l-.72.05c-1.2.07-2.58.14-3.81.14ZM322,427.94a4.74,4.74,0,0,1-2.76-.9c-.66-.08-1.69-1.15-3-3.11A59.78,59.78,0,0,1,312.4,417a74.28,74.28,0,0,1-3.27-7.88,18.37,18.37,0,0,1-1.25-6c.06-1,.44-1.56,1.13-1.56a1.81,1.81,0,0,1,.51.08l.92.62a72.7,72.7,0,0,1,10,7.88,36.89,36.89,0,0,1,4.17,4.82,25.14,25.14,0,0,1,3,5.48,6.2,6.2,0,0,1-4.64,7.35,5.66,5.66,0,0,1-.92.13Zm65.31-3.69A3,3,0,0,1,385,423.1a4.29,4.29,0,0,1-1-2.51,3,3,0,0,1,.7-2.16,4,4,0,0,1,2.65-1.2c.51,0,1,.06,1.57.06a16.91,16.91,0,0,0,6.65-1.21.41.41,0,0,1,.19,0,.46.46,0,0,1,.44.36.37.37,0,0,1-.2.44,14.54,14.54,0,0,0-3.16,2.48,20.57,20.57,0,0,0-2.56,3.16,3.91,3.91,0,0,1-3,1.77ZM229.62,401.3c-1.3,0-2.07-.22-2.29-.66a21.65,21.65,0,0,1,4.15-4.49,78.29,78.29,0,0,1,6.64-5.13c5-3.53,10-6.35,12.75-7.19a6.39,6.39,0,0,1,1.57-.22,4.93,4.93,0,0,1,3.2,1.15,5.67,5.67,0,0,1,1.78,2.78,6.2,6.2,0,0,1,0,3.57,5.77,5.77,0,0,1-2.29,3.1c-1,.89-5.6,2.64-11.17,4.25-6.16,1.77-11.52,2.84-14.34,2.84Zm259.09-4.64A5.27,5.27,0,0,1,485,395a7,7,0,0,1-1.89-3.77,5.43,5.43,0,0,1,.64-3.6A6,6,0,0,1,487.2,385c3.46-.29,6.2-.64,8.4-.93a39.56,39.56,0,0,1,4.35-.44c.76,0,1.15.12,1.27.39.31.71-1.25,2.5-4.34,6.07h0c-1.12,1.29-2.51,2.9-4.08,4.77a6.13,6.13,0,0,1-4.08,1.78ZM224,361a9,9,0,0,1-3.75-.85,8.29,8.29,0,0,1-3.29-2.76.74.74,0,0,1-.11-.78.61.61,0,0,1,.58-.39h.06a25.47,25.47,0,0,0,2.75-.22h0a24.51,24.51,0,0,1,2.84-.22,6.4,6.4,0,0,1,3.68,1c.86,1,1.14,1.94.8,2.71C227.16,360.44,225.8,361,224,361Zm42.14-15.9a10.63,10.63,0,0,1-6-2.28c-3.09-2.32-4.54-4.15-4.18-5.3.25-.78,1.37-1.21,3.14-1.21a19,19,0,0,1,6.68,1.42c2.43,1,4,2.25,4.39,3.54s-.2,2.31-1.68,3.41A6.73,6.73,0,0,1,266.16,345.13Z" transform="translate(-125 -34)"/>
    </g>
  </g>
  <g id="Head">
    <g id="head_No_Hair_3" data-name="head No Hair 3">
      <path id="_Background-2" data-name=" Background" class="cls-2" d="M489.24,117.19c-21.51-56.58-60.28-98-125.63-72a5.86,5.86,0,0,0-6.67-.12c-35.6,22.35-61.24,58.19-72.35,98.61a55.44,55.44,0,0,0-19.2,7.2c-12.75,8-21.33,20.71-29.38,33.09-2.42,3.73-.18,9.89,4.37,10.74a38.6,38.6,0,0,0,5.88.64,24.82,24.82,0,0,1-1.9,4.91c-2.87,5.51,2.56,11.37,7.65,9.86a9.71,9.71,0,0,0,1.77.73c.07,3.13,1.68,7.31,4.86,7.94,5.14,1.1,12-2.83,10.76-8.58a15.48,15.48,0,0,0,4.61.12c.16,3,.11,6.12.52,8.88,1.36,13,14.36,21.75,26.76,17.79.76,4.06,1.65,9.76,5.65,12,4.66,13.09,12.73,28,25.93,34a6.78,6.78,0,0,0,3,8.69A119.38,119.38,0,0,0,416.39,305a78.42,78.42,0,0,0,31.77-8.37,148.93,148.93,0,0,0,21-13.72c6.69-5,13.84-9.91,19.18-16.43,5.8-7.09,8.49-15.42,10.25-24.28,8-40.25,5.25-79.77-9.33-118.11C471.19,76.62,507.28,164.65,489.24,117.19Z" transform="translate(-125 -34)"/>
      <path class="cls-3" d="M266,215l8-5,5-13,7-9,11-7h10l6,6,2,6,8,4,8-3-3-26-8-14-15-10-19-3-19,6-16,14-14,23v8l5,2,4-3-1,7v8l3,5,4-1,3,5,8,2Z" transform="translate(-125 -34)"/>
      <path id="_Ink-2" data-name=" Ink" d="M409,308.51h0a73.58,73.58,0,0,1-19-2.4,64.8,64.8,0,0,1-17.82-7.74A4.45,4.45,0,0,1,370.3,296a4.66,4.66,0,0,1,0-2.79,5.39,5.39,0,0,1,1.59-2.54,4,4,0,0,1,2.68-1.07,4.18,4.18,0,0,1,2.38.78,50.44,50.44,0,0,0,11.14,5.8,63.67,63.67,0,0,0,21.41,3.55,93.44,93.44,0,0,0,29.65-5.25,115.13,115.13,0,0,0,23.31-10.84,102.84,102.84,0,0,0,20.15-15.95,66.68,66.68,0,0,0,14.26-21.41A58.27,58.27,0,0,0,501,221a185.92,185.92,0,0,0-2.59-20.12c-.64-3.86-1.3-7.86-1.8-11.8-1-7.67-1.65-15.51-2.3-23.08v0c-.15-1.72-.3-3.5-.45-5.25l-.31-3.41a266.89,266.89,0,0,0-3.9-29,110.28,110.28,0,0,0-9.17-27.64,112.11,112.11,0,0,0-31.18-37.95,107.31,107.31,0,0,0-22.17-13.32,100.41,100.41,0,0,0-24.75-7.45,69,69,0,0,0-11-.89A73.74,73.74,0,0,0,368,45,93.28,93.28,0,0,0,346.4,55.58a127.91,127.91,0,0,0-20.58,16.91A136.64,136.64,0,0,0,309,93.17c-2.29,3.47-4.51,7.2-6.61,11.09-2,3.66-3.86,7.56-5.66,11.6-2.4,5.41-4.29,11.1-6.11,16.61-.68,2-1.37,4.13-2.09,6.18l1.42,0a48.06,48.06,0,0,1,5.22.29,42.42,42.42,0,0,1,16.3,5.28,41.21,41.21,0,0,1,7,5,40,40,0,0,1,5.8,6.4,30.22,30.22,0,0,1,3.34,5.88,38.89,38.89,0,0,1,2,6.21,98.5,98.5,0,0,1,1.93,13,95.94,95.94,0,0,0,2.05,13.59,2.38,2.38,0,0,1-1.05,2.58,15.05,15.05,0,0,1-8.11,2.4,13.65,13.65,0,0,1-8.24-2.7,12.81,12.81,0,0,1-4.4-6.17,12.6,12.6,0,0,1-.63-3.75,11.36,11.36,0,0,1,.61-3.79.6.6,0,0,1,.58-.42.59.59,0,0,1,.6.58h0c.25,6.67,5.19,12.08,11,12.08a10.14,10.14,0,0,0,4.73-1.21,81.54,81.54,0,0,1-2.27-12.94A96.33,96.33,0,0,0,324.73,170a31.85,31.85,0,0,0-4.24-10.2,32.43,32.43,0,0,0-13.15-11.54,35.93,35.93,0,0,0-8.07-2.75,41.93,41.93,0,0,0-8.58-.89,46.59,46.59,0,0,0-12.32,1.7,47.64,47.64,0,0,0-11.51,4.87A56.07,56.07,0,0,0,254.67,161a71.61,71.61,0,0,0-9.41,12.56l-1.54,2.61a59.21,59.21,0,0,0-2.93,5.51,19.39,19.39,0,0,0-1.71,5.77,3.94,3.94,0,0,0,.61,3,1.59,1.59,0,0,0,1.23.53,3.34,3.34,0,0,0,1.28-.31c2-.9,3.6-2.94,4.88-4.83a2.91,2.91,0,0,1,2.45-1.37,3.23,3.23,0,0,1,2.69,1.49,2.73,2.73,0,0,1,0,2.75l-.06.11a34.66,34.66,0,0,0-3,7,31.49,31.49,0,0,0-1.33,7.46l-.08,1.41c-.07,1.65,0,2.51.14,2.55h0a10.3,10.3,0,0,0,1.9-1.82c.22-.24.39-.43.47-.5a9.59,9.59,0,0,1,5-2.91,2.47,2.47,0,0,1,.54,0A3.54,3.54,0,0,1,259,204.1a2.46,2.46,0,0,1,.14,1.44,2.63,2.63,0,0,1-.83,1.4l-.09.09a4.62,4.62,0,0,0-.24,6.54,5.08,5.08,0,0,0,.54.5,3.63,3.63,0,0,0,2.15.74,5.16,5.16,0,0,0,3.59-1.77,7,7,0,0,0,1.9-3.64l0-.12a3,3,0,0,1,1-2,2.8,2.8,0,0,1,1.81-.66,2.61,2.61,0,0,1,2.63,2.6v0a9.63,9.63,0,0,1-.64,4.18,11.31,11.31,0,0,1-2.24,3.54,12.39,12.39,0,0,1-3.76,2.73,10.94,10.94,0,0,1-4.47,1,9.25,9.25,0,0,1-4.51-1.17,9.75,9.75,0,0,1-3.37-3.14,11.45,11.45,0,0,1-1.71-4.24,7.47,7.47,0,0,1-2.84.88l-.55,0a5.25,5.25,0,0,1-3.72-1.47,6.53,6.53,0,0,1-1.87-3.66,27.15,27.15,0,0,1,.7-11.2,7.75,7.75,0,0,1-1.79.21,7.33,7.33,0,0,1-3.74-1,7.78,7.78,0,0,1-3.9-7.15,21.4,21.4,0,0,1,2-8.38,81.46,81.46,0,0,1,8.65-15.19,74.46,74.46,0,0,1,11.84-13,59.8,59.8,0,0,1,14.53-9.32,48.76,48.76,0,0,1,16.74-4.19,59.3,59.3,0,0,1,1.45-10.95,122.53,122.53,0,0,1,9.27-26.56,130.8,130.8,0,0,1,15.08-24.11,121.64,121.64,0,0,1,43.8-35.19,90.93,90.93,0,0,1,14-5.18,75,75,0,0,1,14.72-2.56c1.65-.12,3.35-.18,5.05-.18A92,92,0,0,1,418,38.57a111.92,111.92,0,0,1,23.88,10.82,116.84,116.84,0,0,1,20.8,16,111.08,111.08,0,0,1,16.92,20.82A116.24,116.24,0,0,1,491.1,110.4a128.57,128.57,0,0,1,3.8,13.49c1,4.28,1.8,8.79,2.54,13.77,1.36,9.24,2.18,18.73,3,27.9h0c.25,2.9.51,5.91.78,8.85,1,10.79,2.64,21.43,4.37,32.29l.28,1.69a122.72,122.72,0,0,1,1.65,15.77,63.65,63.65,0,0,1-1.35,15.75,66.81,66.81,0,0,1-10.86,23.94,85.9,85.9,0,0,1-8.46,10.2,101.59,101.59,0,0,1-9.79,8.88,125,125,0,0,1-31.77,18.28,110.77,110.77,0,0,1-17.91,5.36A90.86,90.86,0,0,1,409,308.51ZM341,293a16.19,16.19,0,0,1-8.28-2.7,59.81,59.81,0,0,1-7.16-5.32l-.1-.08a61,61,0,0,1-11.85-13.43,79.45,79.45,0,0,1-7.88-15.38,80.34,80.34,0,0,1-4.46-16.76,21,21,0,0,1-5.95.83h0a19.09,19.09,0,0,1-6.52-1.15,21.49,21.49,0,0,1-5.8-3.2,27.2,27.2,0,0,1-7.58-9.23,30.93,30.93,0,0,1-2.2-5.56,34.7,34.7,0,0,1,4.52-28.85,31.84,31.84,0,0,1,8.09-7.95,31.05,31.05,0,0,1,10.36-4.61l.32-.07a26.69,26.69,0,0,1,5.34-.57,13.9,13.9,0,0,1,3.58.4,4.91,4.91,0,0,1,2.62,1.49,3.64,3.64,0,0,1,.63,3.14.24.24,0,0,1-.25.2.31.31,0,0,1-.3-.2c-.37-1.27-1.48-1.91-3.3-1.91-2.86,0-6.62,1.55-7.85,2.06a33,33,0,0,0-8.74,5.4,30.58,30.58,0,0,0-3.82,4,29,29,0,0,0-3,4.59,26.81,26.81,0,0,0-3.06,10.5,29.38,29.38,0,0,0,1.23,11.06,25.28,25.28,0,0,0,2.25,5.11,21.68,21.68,0,0,0,3.38,4.42,16.21,16.21,0,0,0,4.4,3.18,12.94,12.94,0,0,0,5.24,1.33H295a15.1,15.1,0,0,0,3.88-.72h0a15.16,15.16,0,0,1,3.83-.72,4.93,4.93,0,0,1,2.2.48,2.05,2.05,0,0,1,1,1.81,4.56,4.56,0,0,1-1.54,3.07c1.47,2.67,2.88,5.43,4.25,8.1,3.45,6.75,7,13.72,11.75,19.86a67.83,67.83,0,0,0,11.3,11.67,45.54,45.54,0,0,0,6.48,4.26l1.3.7h0a15,15,0,0,1,5.53,4.14,4.06,4.06,0,0,1,.26,4,4,4,0,0,1-2.92,2.58A9.69,9.69,0,0,1,341,293Zm-30.67-77.25a4,4,0,0,1-1.09-.15,24.31,24.31,0,0,1-6.35-3.25,28.55,28.55,0,0,0-5.68-3.06,14.42,14.42,0,0,0-4.82-.84,11.79,11.79,0,0,0-6.73,2,.5.5,0,0,1-.27.08.59.59,0,0,1-.49-.32.49.49,0,0,1,0-.51,13.05,13.05,0,0,1,4.9-4.43,16.9,16.9,0,0,1,6.42-1.77c.54-.05,1.1-.08,1.65-.08a21.22,21.22,0,0,1,7.19,1.31l1.17.42c2.5.92,5.08,2,6.86,3.81a3.83,3.83,0,0,1,1.06,2.13,4.06,4.06,0,0,1-.3,2.2,4.13,4.13,0,0,1-1.37,1.75A3.71,3.71,0,0,1,310.32,215.71Z" transform="translate(-125 -34)"/>
    </g>
  </g>
  <g id="Layer_7" data-name="Layer 7">
    <path id="_Ink-3" data-name=" Ink" d="M434.35,265.51c-1.66-.28-3.32-.65-4.94-1.09l-.78-.22a45.8,45.8,0,0,1-8-3.06,24.06,24.06,0,0,1-6.76-4.88,1.2,1.2,0,0,1-.18-1.4,1.42,1.42,0,0,1,1.28-.81,85.79,85.79,0,0,1,9.46.59c2.13.22,4.33.44,6.49.55,1.71.05,3.42,0,5.11-.11a34.86,34.86,0,0,1,7.57.14,11.79,11.79,0,0,1,4.45,1.65,4.76,4.76,0,0,1,2.08,3.53,3.88,3.88,0,0,1-1.21,3.45,9.67,9.67,0,0,1-4.61,2.26,20,20,0,0,1-5.46,0C437.26,266,435.76,265.75,434.35,265.51Zm-37.27-62.4c-2.55,0-4.9-2.19-5.69-4.32a16.23,16.23,0,0,1-.66-8.32,9,9,0,0,1,1.13-3l.17-.25,0-.35v-.27c-4.28-.26-8.75-.69-13.67-1.31l-1.52-.2c-.66-.09-1.38-.16-2.13-.24-3.56-.39-8-.87-10.59-3a.2.2,0,0,1-.06-.15.2.2,0,0,1,.1-.16,10.2,10.2,0,0,1,4.73-.94l.68,0,.28,0c2.12-.11,4.23-.2,6.29-.27l2.1-.06c5.62-.16,11.3-.45,16.11-.7l2.43-.14.37,0a9.16,9.16,0,0,1,3-.7h.32a7,7,0,0,1,2.12.33c1.92-.15,3.9-.32,5.88-.5l2-.18,2.24-.19a57.91,57.91,0,0,0,6.15-.72l.47-.09a12.46,12.46,0,0,1,2.2-.25,6.59,6.59,0,0,1,4.35,1.79A3,3,0,0,1,427,181a4.9,4.9,0,0,1-1.15,3.51c-1.9,2.19-3.77,2.2-6.15,2.21-.43,0-.88,0-1.36,0h-.21c-2.58.11-5.17.18-7.7.22h-2.1a16,16,0,0,1-2.42,8.62,24.75,24.75,0,0,1-6.17,6.57,4.33,4.33,0,0,1-2.66.92Z" transform="translate(-125 -34)"/>
    <path id="_Ink-4" data-name=" Ink" d="M473.85,198a4.43,4.43,0,0,1-3.34-2.13,15.75,15.75,0,0,1-1.64-4.3,18.88,18.88,0,0,1-.46-5c.16-3.73,1.49-6.72,3.74-8.44a6,6,0,0,1,.5-.63c1.07-1.15,2.78-2.48,4.86-2.2a4.75,4.75,0,0,1,1.33.4,6.8,6.8,0,0,1,3.82,4.73,16,16,0,0,1-.53,8.1,28.75,28.75,0,0,1-3.25,7.26,4.76,4.76,0,0,1-2.21,1.82,5.57,5.57,0,0,1-2.82.37Z" transform="translate(-125 -34)"/>
  </g>
  <g id="Moustache">
    <g>
      <path id="_Background-3" data-name=" Background" class="cls-3" d="M462.41,223.36c-10.53-1.78-21.47.85-31.63,3.64-16.13-10.59-37,.1-48.59,13.34-3.95,3.25-12.25,7.58-7.88,13.79-1.66,4.39-2.1,6.46,1.33,1.33,19.43,2.23,40.27-2,59.49-6,6.55,2.2,12.33,7.35,19.52,5.59,6.81,1.44,14.17,2.79,20.32-1.57,4.67-.19,15.08,8.21,14.91-1.56C488.43,242.58,469.87,227,462.41,223.36Z" transform="translate(-125 -34)"/>
      <path id="_Ink-5" data-name=" Ink" d="M367.9,263.62h0c-1.68,0-2.57-.79-2.63-2.36a10.52,10.52,0,0,1,.92-4,40,40,0,0,1,2.65-5.27,109.36,109.36,0,0,1,8.52-12.18,118.78,118.78,0,0,1,9.51-10.67c3.09-3,5.34-4.64,6.51-4.72a39,39,0,0,1,9.51-4.2A32.78,32.78,0,0,1,412,219a43.7,43.7,0,0,1,10.49,1.38,100.09,100.09,0,0,1,11,3.5,9.93,9.93,0,0,0,1.21.07,24.32,24.32,0,0,0,7.81-1.84,32.14,32.14,0,0,1,5.86-1.67,35.14,35.14,0,0,1,4.91-.35A34.39,34.39,0,0,1,468,223.44a46.52,46.52,0,0,1,12.38,8.74,70.78,70.78,0,0,1,9.92,12.12,93.73,93.73,0,0,1,7.34,13.5,2.83,2.83,0,0,1-.12,2.8,2.68,2.68,0,0,1-3.67.95,3.06,3.06,0,0,1-.53-.42,16.17,16.17,0,0,0-5.47-2.58,23.69,23.69,0,0,0-6-.7,81.66,81.66,0,0,0-9.76.83l-.62.08a94,94,0,0,1-11.61.91,43.42,43.42,0,0,1-11.45-1.44A42.28,42.28,0,0,1,436,252.61a16.58,16.58,0,0,1-5.38,2.85,35.1,35.1,0,0,1-7,1.47,146.33,146.33,0,0,1-17,.63,175,175,0,0,0-19.56.75c-7.24.83-13,2.5-17.51,5.11A8.56,8.56,0,0,1,367.9,263.62Zm47.2-39.31a36.51,36.51,0,0,0-23.15,8,52.29,52.29,0,0,0-9.28,9.58,85.75,85.75,0,0,0-8,12.94c11.41-3.58,23.65-3.66,35.49-3.73,2.45,0,5,0,7.46-.08h.68l1.66,0H420l1.93,0c4.18,0,8.69-.44,10.39-3.73a2.46,2.46,0,0,1,2.25-1.41h.31a2.49,2.49,0,0,1,1.14-.27,2.89,2.89,0,0,1,1.65.55A41.5,41.5,0,0,0,450.15,252a50,50,0,0,0,13.55,1.79,58.45,58.45,0,0,0,6.61-.37c1-.11,2.07-.24,3.09-.37a78.66,78.66,0,0,1,9.58-.8,26.2,26.2,0,0,1,6.12.65,67.16,67.16,0,0,0-6.31-10.48,56.93,56.93,0,0,0-8.39-9.16,39.74,39.74,0,0,0-10.16-6.49,28.52,28.52,0,0,0-18.64-1.59,40.09,40.09,0,0,0-3.84,1.19c-2.91,1-6.53,2.17-7.52,2.17-.15,0-.24,0-.26-.09s.08-.22.33-.42a67,67,0,0,0-10-2.8A48.65,48.65,0,0,0,415.1,224.31Z" transform="translate(-125 -34)"/>
    </g>
  </g>
  <g id="Nose">
    <path d="M442.56,226.54h0a23.76,23.76,0,0,1-8.49-1.71,42.71,42.71,0,0,1-10-5.67,3.84,3.84,0,0,1-1.4-2.22,4.7,4.7,0,0,1,.2-2.49,5.8,5.8,0,0,1,1.68-2.43,4.11,4.11,0,0,1,2.62-1,3.73,3.73,0,0,1,2,.62l.68.52h0a54.93,54.93,0,0,0,6.25,4.35,15.41,15.41,0,0,0,7.5,2.39,8.18,8.18,0,0,0,3.16-.63,8.63,8.63,0,0,0,2.95-2.09,9,9,0,0,0,1.72-7.28,13.83,13.83,0,0,0-3.65-6.46A27.32,27.32,0,0,0,442.3,198a1.69,1.69,0,0,1-.46-2,2.57,2.57,0,0,1,.85-1.23,2.63,2.63,0,0,1,1.63-.53,2.78,2.78,0,0,1,.58,0,18.43,18.43,0,0,1,6.52,2.35,14.82,14.82,0,0,1,4.38,4,16,16,0,0,1,2.8,10.73,17.75,17.75,0,0,1-1.43,5.63,16.41,16.41,0,0,1-3.23,4.84A15.43,15.43,0,0,1,442.56,226.54Z" transform="translate(-125 -34)"/>
  </g>
  <g id="Layer_8" data-name="Layer 8">
    <path id="_Ink-6" data-name=" Ink" d="M459.57,157.31h-.07c-2.79-.65-3.92-3.36-4.38-5.53a19.48,19.48,0,0,1,.07-7.57,20.26,20.26,0,0,1,3.76-7.92,19.44,19.44,0,0,1,6.74-5.6,22,22,0,0,1,9.6-2.17,23.88,23.88,0,0,1,8.6,1.63l.38.15a23.78,23.78,0,0,1,8.42,5.79,12.68,12.68,0,0,1,2.61,4.25,9,9,0,0,1,.31,4.94,5.26,5.26,0,0,1-2.13,3.26,6.16,6.16,0,0,1-3.56,1,6.85,6.85,0,0,1-4.1-1.3,5.08,5.08,0,0,1-2.11-3.73,9.85,9.85,0,0,0-4-3.15,12.61,12.61,0,0,0-5.1-1.07,11.35,11.35,0,0,0-5.95,1.61,16.29,16.29,0,0,0-5.94,7.56,21.11,21.11,0,0,0-1,3,13.66,13.66,0,0,1-2,4.75.29.29,0,0,1-.18.07Z" transform="translate(-125 -34)"/>
  </g>
  <g id="Glasses">
    <path id="_Ink-7" data-name=" Ink" d="M395.18,223h0a31.77,31.77,0,0,1-18.39-6.11,26.33,26.33,0,0,1-7.62-8.8,27.79,27.79,0,0,1-3-10.26,37.35,37.35,0,0,1,1-12.47,8.86,8.86,0,0,1-2.93.43,12.74,12.74,0,0,1-4.27-.73,6,6,0,0,1-3.08-2.14c-6-.58-12-1.41-17.82-2.22-10.59-1.46-21.53-3-32.43-3-2.6,0-5.15.08-7.59.26a1.71,1.71,0,0,0-1.54,1.16,5.82,5.82,0,0,0-.09,2,5.55,5.55,0,0,1-.08,2,1.7,1.7,0,0,1-1.53,1.16c-1.38-.14-2.26-1.14-2.47-2.82a8.35,8.35,0,0,1,.64-4.08,5,5,0,0,1,2.29-2.77c1.09-.88,4.41-1.35,9.6-1.35a194.9,194.9,0,0,1,25,2,192.69,192.69,0,0,1,26.34,5.37,8.49,8.49,0,0,1,5.19-1.4,33.87,33.87,0,0,1,4.92.48l1.49.22a38.71,38.71,0,0,1,4.14-8.17,44.35,44.35,0,0,1,6.36-7.63,32.53,32.53,0,0,1,7.9-5.64,19.93,19.93,0,0,1,8.8-2.2,16.19,16.19,0,0,1,2.95.27,36.91,36.91,0,0,1,8.56,1.53A25.22,25.22,0,0,1,414.9,162a24.25,24.25,0,0,1,6,6.44,34.48,34.48,0,0,1,4.12,9.64,20.77,20.77,0,0,1,7-4.63,22.34,22.34,0,0,1,8.32-1.64,16.81,16.81,0,0,1,9.4,2.65,40,40,0,0,1,8.18-13.08,32,32,0,0,1,12.29-8.07,13.84,13.84,0,0,1,8.72-3.28,14.67,14.67,0,0,1,6.78,1.77,23.36,23.36,0,0,1,6.07,4.7,32.85,32.85,0,0,1,4.85,6.74,34.64,34.64,0,0,1,3.16,7.87,6.27,6.27,0,0,1,2.88-1.43,14.21,14.21,0,0,1,3.12-.35,2.84,2.84,0,0,1,1.71,1A2.36,2.36,0,0,1,508,172c-.1,1.19-1.11,2.38-3.14,2.38a9.57,9.57,0,0,1-4.57-1.45,49.81,49.81,0,0,1,.73,18.37,32.44,32.44,0,0,1-5.32,13.44,28.44,28.44,0,0,1-23.33,12.15h0a27.37,27.37,0,0,1-6-.66,25,25,0,0,1-5.62-2,23.46,23.46,0,0,1-9.1-7.9,27.24,27.24,0,0,1-4.35-11.89,45.13,45.13,0,0,1,1.17-16.34,39.45,39.45,0,0,0-10.23-1.47,25.88,25.88,0,0,0-12.8,3.18,36.67,36.67,0,0,1,1.09,7.89,35.92,35.92,0,0,1-6.08,21.12c-6,8.93-15.37,14.17-25.3,14.16Zm3.53-61.8h0a35.78,35.78,0,0,0-13.86,3.12,38.4,38.4,0,0,0-11.25,14.41,39.11,39.11,0,0,0-2.93,9,31.14,31.14,0,0,0-.51,9.09,22.69,22.69,0,0,0,3.84,10.9,23.37,23.37,0,0,0,10,8,26.15,26.15,0,0,0,23-.63,26.25,26.25,0,0,0,5.32-3.69,27.67,27.67,0,0,0,4.43-5.13,32.41,32.41,0,0,0,5.38-15.48,33.71,33.71,0,0,0-.28-8,30.65,30.65,0,0,0-2.17-7.48,26,26,0,0,0-3.33-5.61,22.39,22.39,0,0,0-4.64-4.44,21.26,21.26,0,0,0-5.9-2.93,23.92,23.92,0,0,0-7.11-1.05Zm78.81-6.84a.35.35,0,0,0-.14,0,24.43,24.43,0,0,0-5.23,1.53c-.92.34-1.79.67-2.58.89-5.15,2.64-9.93,7.47-13.44,13.6a38.48,38.48,0,0,0-5.33,19.2,26.53,26.53,0,0,0,.79,6.16,22.15,22.15,0,0,0,16.63,15.85,22.73,22.73,0,0,0,4.79.51,22.85,22.85,0,0,0,13.64-4.48,22.43,22.43,0,0,0,3.68-3.42,23.61,23.61,0,0,0,4.22-6.85,35.07,35.07,0,0,0,2.24-8.43,42.78,42.78,0,0,0-1.37-18,33.1,33.1,0,0,0-2.54-6.1,24.29,24.29,0,0,0-3.62-5.07,18.7,18.7,0,0,0-4.7-3.66,16.42,16.42,0,0,0-5.77-1.83,1.21,1.21,0,0,1-.61.16,1.55,1.55,0,0,1-.37,0h0ZM368.33,181.2h0l-.27.14h0l-.07,0H368l.12.09.06,0,.06-.19h0c0-.05,0-.1,0-.14Z" transform="translate(-125 -34)"/>
  </g>
</svg>
