<?xml version="1.0" encoding="iso-8859-1"?>
<!-- Generator: Adobe Illustrator 19.0.0, SVG Export Plug-In . SVG Version: 6.00 Build 0)  -->
<svg version="1.1" id="Capa_1" xmlns="http://www.w3.org/2000/svg" xmlns:xlink="http://www.w3.org/1999/xlink" x="0px" y="0px"
	 viewBox="0 0 512.001 512.001" style="enable-background:new 0 0 512.001 512.001;" xml:space="preserve">
<g>
	<path style="fill:#C77C74;" d="M314.769,191.247c-2.296-1.477-116.731-84.865-225.183,34.701
		c-12.306,13.566-40.907-20.223-50.607-17.297c-19.418,5.852-30.271,10.498-28.836,21.156
		c11.463,85.128,45.116,139.64,89.546,172.179c88.259,64.637,219.048,42.555,302.898,1.494
		c79.547-38.949,116.852-94.979,35.539-110.261c-1.021-21.527-11.273-43.498-33.17-72.31c30.671,12.428,40.145,0.316,84.294-11.459
		c65.537-17.482-140.991-116.78-174.479-18.213C314.815,191.274,314.814,191.276,314.769,191.247z"/>
	<path style="fill:#FFFBEE;" d="M402.589,403.481c-83.852,41.061-214.64,63.143-302.898-1.494
		c-48.552,8.018-76.404,19.607-76.404,31.789c0,23.32,100.09,42.227,223.558,42.227c123.468,0,223.558-18.906,223.558-42.227
		C470.4,422.361,445.938,411.434,402.589,403.481z"/>
</g>
<path d="M462.512,228.274c8.146-2.802,17.379-5.979,29.317-9.162c18.053-4.815,21.927-16.349,19.533-25.536
	c-4.551-17.469-33.45-33.592-58.977-42.855c-34.319-12.455-69.056-15.77-95.305-9.093c-15.281,3.887-35.074,13.126-46.802,34.995
	c-13.869-8.007-38.749-19.828-69.96-23.73c-25.787-3.224-51.106-0.468-75.265,8.192c-29.596,10.609-57.446,30.136-82.844,58.104
	c-3.632,0.456-14.203-6.726-19.336-10.201c-10.269-6.953-18.381-12.444-26.783-9.911c-16.295,4.911-38.612,11.637-35.86,32.066
	c9.671,71.822,35.408,127.218,76.581,164.979c-15.117,3.245-27.642,6.915-37.374,10.965c-6.469,2.691-26.154,10.882-26.154,26.688
	c0,15.077,17.681,22.973,23.491,25.567c11.97,5.345,28.837,10.095,50.132,14.117C129.725,481.546,186.525,486,246.842,486
	c60.318,0,117.117-4.454,159.935-12.542c21.295-4.022,38.162-8.772,50.132-14.117c5.81-2.595,23.491-10.49,23.491-25.567
	c0-15.046-17.741-22.972-23.571-25.576c-6.997-3.125-15.641-6.042-25.844-8.727c37.83-22.64,60.825-48.113,62.571-70.116
	c0.994-12.517-3.96-34.306-46.232-44.4c-2.171-15.43-8.557-31.197-19.593-48.836c0.175,0.001,0.348,0.002,0.522,0.002
	C439.692,236.122,449.835,232.635,462.512,228.274z M460.195,433.795c-2.421,3.598-17.146,13.022-62.824,21.051
	c-40.931,7.194-94.389,11.156-150.528,11.156s-109.596-3.962-150.527-11.156c-45.69-8.031-60.411-17.458-62.826-21.054
	c2.495-3.704,17.568-13.23,63.783-21.252c37.787,26.391,85.936,40.198,140.259,40.197c2.947,0,5.918-0.041,8.9-0.122
	c52.078-1.424,108.969-15.457,157.537-38.699C444.465,421.66,457.873,430.394,460.195,433.795z M408.713,211.641
	c-4.172-1.69-8.963-0.385-11.698,3.193c-2.736,3.576-2.744,8.541-0.019,12.126c29.374,38.651,36.586,62.913,27.561,92.714
	c-1.601,5.286,1.387,10.868,6.672,12.47c0.966,0.292,1.942,0.432,2.902,0.432c4.291,0,8.259-2.785,9.567-7.104
	c2.034-6.717,3.384-13.258,4.031-19.736c13.016,3.742,26.81,10.457,25.891,22.039c-1.167,14.694-23.47,40.29-70.668,64.349
	c-47.699,24.314-104.947,39.076-157.065,40.5c-2.64,0.072-5.337,0.111-8.107,0.111c-74.673-0.003-194.054-28.457-217.726-204.261
	c-0.092-0.679-0.158-1.169,2.138-2.662c3.92-2.548,10.991-4.939,18.258-7.156c2.495,0.99,7.671,4.495,11.212,6.894
	c6.064,4.106,12.937,8.761,19.699,11.385c14.008,5.437,22.072-0.34,25.633-4.266c41.914-46.209,89.299-66.375,140.844-59.929
	c30.353,3.795,53.895,15.932,65.329,22.905c-1.146,4.777-1.982,9.951-2.446,15.564c-9.866-4.184-20.625-8.166-31.045-11.451
	c-5.265-1.66-10.883,1.263-12.544,6.53c-1.661,5.268,1.263,10.884,6.53,12.544c12.7,4.004,25.896,9.085,37.064,14.241
	c0.799,10.813,2.737,22.858,6.071,36.29c1.33,5.36,6.755,8.625,12.114,7.298c5.36-1.331,8.627-6.755,7.297-12.114
	c-3.422-13.79-5.377-26.276-5.876-37.44c0.029-0.563,0.006-1.123-0.059-1.677c-0.363-11.384,0.821-21.36,3.563-29.887
	c0.313-0.663,0.543-1.351,0.701-2.051c2.893-8.01,7.23-14.672,13.015-19.955c24.281-22.177,70.324-17.107,105.316-4.972
	c31.331,10.867,46.554,24.267,48.865,29.246c-0.765,0.482-2.278,1.235-5.059,1.977c-12.62,3.366-22.627,6.808-30.668,9.573
	C435.764,216.326,427.384,219.208,408.713,211.641z"/>
<path d="M228.956,242.267c-20.467-20.7-44.76-22.91-68.4-6.223c-17.619,12.438-28.148,29.41-36.609,43.048
	c-4.55,7.335-8.479,13.669-12.601,18.06c-3.78,4.027-3.579,10.355,0.448,14.135c4.028,3.782,10.356,3.58,14.135-0.447
	c5.484-5.843,10.113-13.304,15.013-21.203c7.897-12.729,16.849-27.158,31.148-37.252c16.317-11.518,30.504-9.591,44.645,6.063
	c13.89,15.376,26.105,43.174,32.674,74.359c5.937,28.182,4.651,46.546,2.31,52.659c-12.139-7.259-37.383-36.853-49.612-81.941
	c-1.446-5.33-6.938-8.479-12.269-7.034c-5.33,1.445-8.479,6.938-7.034,12.269c7.898,29.122,20.148,50.502,29.034,63.31
	c10.76,15.509,22.551,27.194,32.35,32.06c3.007,1.493,6.026,2.224,8.915,2.224c5.414-0.001,10.369-2.564,13.919-7.473
	c9.988-13.814,7.181-47.06,1.224-73.565C264.457,308.461,253.047,266.634,228.956,242.267z"/>
<path d="M237.263,212.503l0.396,0.039c0.356,0.037,0.709,0.056,1.059,0.056c5.052,0,9.392-3.817,9.933-8.954
	c0.578-5.492-3.406-10.414-8.898-10.992l-0.594-0.059c-5.5-0.513-10.379,3.509-10.903,9.007S231.765,211.98,237.263,212.503z"/>
<path d="M236.721,90.84c-2.163,5.082,0.203,10.954,5.285,13.117c1.278,0.544,2.605,0.802,3.912,0.802
	c3.889,0,7.587-2.283,9.205-6.087c8.739-20.532,4.542-31.745,1.169-40.755c-2.356-6.293-4.058-10.841-2.042-19.691
	c1.227-5.385-2.144-10.745-7.528-11.972c-5.384-1.231-10.745,2.144-11.972,7.528c-3.348,14.693,0.067,23.816,2.811,31.147
	C240.432,72.598,242.328,77.664,236.721,90.84z"/>
<path d="M122.572,90.84c-2.163,5.082,0.203,10.954,5.285,13.117c1.278,0.544,2.605,0.802,3.912,0.802
	c3.889,0,7.587-2.283,9.206-6.087c8.739-20.532,4.54-31.745,1.167-40.755c-2.356-6.294-4.059-10.841-2.042-19.691
	c1.227-5.385-2.144-10.745-7.528-11.972c-5.383-1.231-10.745,2.144-11.972,7.528c-3.348,14.694,0.067,23.817,2.812,31.147
	C126.283,72.599,128.18,77.665,122.572,90.84z"/>
<path d="M350.87,90.84c-2.163,5.082,0.203,10.954,5.285,13.117c1.278,0.544,2.605,0.802,3.912,0.802
	c3.889,0,7.587-2.283,9.206-6.087c8.739-20.532,4.54-31.745,1.168-40.755c-2.357-6.294-4.059-10.841-2.043-19.691
	c1.227-5.385-2.143-10.745-7.528-11.972c-5.382-1.231-10.745,2.144-11.972,7.528c-3.348,14.694,0.067,23.817,2.812,31.147
	C354.581,72.599,356.478,77.665,350.87,90.84z"/>
<g>
</g>
<g>
</g>
<g>
</g>
<g>
</g>
<g>
</g>
<g>
</g>
<g>
</g>
<g>
</g>
<g>
</g>
<g>
</g>
<g>
</g>
<g>
</g>
<g>
</g>
<g>
</g>
<g>
</g>
</svg>
