<?xml version="1.0"?>
<svg xmlns="http://www.w3.org/2000/svg" xmlns:xlink="http://www.w3.org/1999/xlink" version="1.1" id="Capa_1" x="0px" y="0px" viewBox="0 0 512 512" style="enable-background:new 0 0 512 512;" xml:space="preserve" width="512px" height="512px" class=""><g><g>
	<g>
		<path style="fill:#A0A09D" d="M283.854,172.668l41.159-153.606l-33.808-9.059L252.81,167.528    C263.807,168.375,274.131,170.126,283.854,172.668z" data-original="#C77C74" class="active-path" data-old_color="#C77C74"/>
		<path style="fill:#A0A09D" d="M445.687,10.003L337.31,197.719c8.293,5.873,16.04,12.42,23.334,19.493l115.354-189.71    L445.687,10.003z" data-original="#C77C74" class="active-path" data-old_color="#C77C74"/>
	</g>
	<path style="fill:#A0A09D" d="M337.31,197.719c-15.659-11.089-33.266-19.776-53.455-25.053l-0.002,0.008   c-9.725-2.542-20.048-4.295-31.042-5.142v-0.005c-5.011-0.386-10.161-0.584-15.457-0.584c-88.131,0-135.837,54.923-174.126,115.698   h174.126H411.48c-14.907-23.663-31.242-46.438-50.837-65.428c-7.295-7.071-15.044-13.615-23.337-19.489L337.31,197.719z" data-original="#FFFBEE" class="" data-old_color="#FFFBEE"/>
	<path style="fill:#A0A09D" d="M411.479,282.642H237.354H63.229H36.001c0,73.284,39.155,137.417,97.682,172.639h-0.017v46.722   h207.375V455.28h-0.017c58.527-35.222,97.682-99.354,97.682-172.639H411.479z" data-original="#FF435F" class="" data-old_color="#FF435F"/>
</g><path d="M120.403,309.026H79.368c-5.522,0-10,4.477-10,10c0,5.523,4.478,10,10,10h41.035c5.522,0,10-4.477,10-10  C130.403,313.503,125.926,309.026,120.403,309.026z" data-original="#000000" class="" data-old_color="#000000" style="fill:#A0A09D"/><path d="M149.397,309.029h-0.287c-5.523,0-10,4.477-10,10c0,5.523,4.477,10,10,10h0.287c5.523,0,10-4.477,10-10  C159.396,313.505,154.919,309.029,149.397,309.029z" data-original="#000000" class="" data-old_color="#000000" style="fill:#A0A09D"/><path d="M161.481,234.443h-0.287c-5.523,0-10,4.477-10,10s4.477,10,10,10h0.287c5.522,0,10-4.477,10-10  S167.004,234.443,161.481,234.443z" data-original="#000000" class="" data-old_color="#000000" style="fill:#A0A09D"/><path d="M305.98,235.443h-0.287c-5.522,0-10,4.477-10,10c0,5.523,4.478,10,10,10h0.287c5.522,0,10-4.477,10-10  C315.98,239.92,311.503,235.443,305.98,235.443z" data-original="#000000" class="" data-old_color="#000000" style="fill:#A0A09D"/><path d="M245.843,206.304h-0.287c-5.523,0-10,4.477-10,10c0,5.523,4.477,10,10,10h0.287c5.523,0,10-4.477,10-10  C255.843,210.781,251.365,206.304,245.843,206.304z" data-original="#000000" class="" data-old_color="#000000" style="fill:#A0A09D"/><path d="M484.543,32.698c1.397-2.3,1.811-5.066,1.144-7.674c-0.667-2.607-2.357-4.836-4.688-6.182l-30.311-17.5  c-4.785-2.763-10.9-1.122-13.66,3.66L333.975,183.496c-12.047-7.511-24.658-13.399-37.925-17.705l38.623-144.14  c1.43-5.335-1.736-10.818-7.071-12.248l-33.808-9.059c-2.599-0.697-5.37-0.316-7.685,1.056c-2.316,1.372-3.981,3.62-4.618,6.235  L245.066,157.08c-2.549-0.09-5.118-0.136-7.712-0.136c-42.779,0-79.365,12.146-111.851,37.132  c-29.611,22.776-51.605,53.339-67.768,78.565H36.001c-5.522,0-10,4.477-10,10c0,37.12,9.764,73.634,28.235,105.596  c16.96,29.346,40.891,54.344,69.43,72.594V502c0,5.523,4.478,10,10,10h207.375c5.522,0,10-4.477,10-10v-41.169  c28.54-18.25,52.471-43.249,69.43-72.594c18.472-31.962,28.235-68.476,28.235-105.596c0-5.523-4.478-10-10-10H416.97  c-11.438-17.854-25.81-38.359-43.725-56.908L484.543,32.698z M449.348,23.663l12.791,7.385L358.423,201.616  c-0.784-0.679-1.575-1.333-2.363-1.996c-0.49-0.413-0.974-0.831-1.468-1.24c-1.387-1.143-2.779-2.266-4.178-3.359L449.348,23.663z   M298.499,22.31l14.268,3.823l-36.066,134.596c-3.771-0.761-7.591-1.407-11.466-1.938L298.499,22.31z M335.869,446.711  c-3.19,1.92-4.989,5.408-4.827,9.01v36.28H143.667v-36.132c0.217-3.655-1.593-7.212-4.827-9.158  c-55.259-33.254-89.349-90.317-92.585-154.07h16.975H411.48h0.02h16.955C425.218,356.394,391.128,413.458,335.869,446.711z   M81.669,272.642c34.747-51.452,79.086-95.698,155.685-95.698c5.702,0,11.221,0.25,16.575,0.726c0.339,0.029,0.68,0.058,1.019,0.089  c0.947,0.09,1.888,0.187,2.824,0.291c0.149,0.017,0.299,0.032,0.448,0.049c64.024,7.272,103.355,47.953,134.819,94.543H81.669z" data-original="#000000" class="" data-old_color="#000000" style="fill:#A0A09D"/></g> </svg>
